\relax 
\providecommand*{\memsetcounter}[2]{}
\catcode`"\active
\catcode`-\active
\providecommand\HyperFirstAtBeginDocument{\AtBeginDocument}
\HyperFirstAtBeginDocument{\ifx\hyper@anchor\@undefined
\global\let\oldcontentsline\contentsline
\gdef\contentsline#1#2#3#4{\oldcontentsline{#1}{#2}{#3}}
\global\let\oldnewlabel\newlabel
\gdef\newlabel#1#2{\newlabelxx{#1}#2}
\gdef\newlabelxx#1#2#3#4#5#6{\oldnewlabel{#1}{{#2}{#3}}}
\AtEndDocument{\ifx\hyper@anchor\@undefined
\let\contentsline\oldcontentsline
\let\newlabel\oldnewlabel
\fi}
\fi}
\global\let\hyper@last\relax 
\gdef\HyperFirstAtBeginDocument#1{#1}
\providecommand\HyField@AuxAddToFields[1]{}
\@newglossary{main}{glg}{gls}{glo}
\@newglossary{acronym}{alg}{acr}{acn}
\@istfilename{MastersThesis_example.ist}
\@glsorder{word}
\select@language{czech}
\@writefile{toc}{\select@language{czech}}
\@writefile{lof}{\select@language{czech}}
\@writefile{lot}{\select@language{czech}}
\select@language{UKenglish}
\@writefile{toc}{\select@language{UKenglish}}
\@writefile{lof}{\select@language{UKenglish}}
\@writefile{lot}{\select@language{UKenglish}}
\select@language{UKenglish}
\@writefile{toc}{\select@language{UKenglish}}
\@writefile{lof}{\select@language{UKenglish}}
\@writefile{lot}{\select@language{UKenglish}}
\select@language{UKenglish}
\@writefile{toc}{\select@language{UKenglish}}
\@writefile{lof}{\select@language{UKenglish}}
\@writefile{lot}{\select@language{UKenglish}}
\@writefile{toc}{\contentsline {subsection}{Citation of this thesis}{viii}{section*.1}}
\@writefile{lof}{\addvspace {10pt}}
\@writefile{lot}{\addvspace {10pt}}
\@writefile{toc}{\contentsline {chapter}{Introduction}{1}{chapter*.5}}
\@writefile{toc}{\contentsline {section}{Motivation and objectives}{1}{section*.6}}
\@writefile{toc}{\contentsline {section}{Problem statements}{1}{section*.7}}
\@writefile{toc}{\contentsline {section}{State of the Art ??? what is that?}{1}{section*.8}}
\@writefile{lof}{\addvspace {10pt}}
\@writefile{lot}{\addvspace {10pt}}
\@writefile{toc}{\contentsline {chapter}{\chapternumberline {1}Microscopy / Biological background / Background}{3}{chapter.1}}
\newlabel{microscopy}{{\M@TitleReference {1}{Microscopy / Biological background / Background}}{3}{Microscopy / Biological background / Background\relax }{chapter.1}{}}
\@writefile{toc}{\contentsline {section}{\numberline {1.1}aaaa}{3}{section.1.1}}
\@writefile{toc}{\contentsline {subsection}{\numberline {1.1.1}abb}{3}{subsection.1.1.1}}
\@writefile{toc}{\contentsline {subsection}{\numberline {1.1.2}abb}{3}{subsection.1.1.2}}
\@writefile{toc}{\contentsline {section}{\numberline {1.2}bbbbb}{3}{section.1.2}}
\@writefile{toc}{\contentsline {subsection}{\numberline {1.2.1}bccc}{3}{subsection.1.2.1}}
\@writefile{toc}{\contentsline {section}{\numberline {1.3}cccc}{3}{section.1.3}}
\@writefile{toc}{\contentsline {subsection}{\numberline {1.3.1}cddd}{4}{subsection.1.3.1}}
\@writefile{lof}{\addvspace {10pt}}
\@writefile{lot}{\addvspace {10pt}}
\@writefile{toc}{\contentsline {chapter}{\chapternumberline {2}Image Processing}{5}{chapter.2}}
\newlabel{imgproc}{{\M@TitleReference {2}{Image Processing}}{5}{Image Processing\relax }{chapter.2}{}}
\@writefile{toc}{\contentsline {section}{\numberline {2.1}Noise / Denoising / Noise Processing}{5}{section.2.1}}
\@writefile{toc}{\contentsline {section}{\numberline {2.2}Molecule localization}{5}{section.2.2}}
\newlabel{sec:molloc}{{\M@TitleReference {2.2}{Molecule localization}}{5}{Molecule localization\relax }{section.2.2}{}}
\@writefile{toc}{\contentsline {subsection}{\numberline {2.2.1}Crowded field problem}{5}{subsection.2.2.1}}
\@writefile{toc}{\contentsline {section}{\numberline {2.3}Estimating the molecule parameters}{5}{section.2.3}}
\@writefile{toc}{\contentsline {section}{\numberline {2.4}Rendering}{5}{section.2.4}}
\@writefile{lof}{\addvspace {10pt}}
\@writefile{lot}{\addvspace {10pt}}
\@writefile{toc}{\contentsline {chapter}{\chapternumberline {3}Experimental results}{7}{chapter.3}}
\newlabel{expres}{{\M@TitleReference {3}{Experimental results}}{7}{Experimental results\relax }{chapter.3}{}}
\@writefile{toc}{\contentsline {section}{\numberline {3.1}Noise / Denoising / Noise Processing}{7}{section.3.1}}
\@writefile{toc}{\contentsline {subsection}{\numberline {3.1.1}Proposed experiments}{7}{subsection.3.1.1}}
\@writefile{toc}{\contentsline {subsection}{\numberline {3.1.2}Results}{7}{subsection.3.1.2}}
\@writefile{toc}{\contentsline {section}{\numberline {3.2}Molecule localization}{7}{section.3.2}}
\@writefile{toc}{\contentsline {subsection}{\numberline {3.2.1}Proposed experiments}{7}{subsection.3.2.1}}
\@writefile{toc}{\contentsline {subsection}{\numberline {3.2.2}Results}{7}{subsection.3.2.2}}
\@writefile{toc}{\contentsline {section}{\numberline {3.3}Estimating the molecule parameters}{8}{section.3.3}}
\@writefile{toc}{\contentsline {subsection}{\numberline {3.3.1}Proposed experiments}{8}{subsection.3.3.1}}
\@writefile{toc}{\contentsline {subsection}{\numberline {3.3.2}Results}{8}{subsection.3.3.2}}
\@writefile{toc}{\contentsline {section}{\numberline {3.4}Rendering}{8}{section.3.4}}
\@writefile{toc}{\contentsline {subsection}{\numberline {3.4.1}Proposed experiments}{8}{subsection.3.4.1}}
\@writefile{toc}{\contentsline {subsection}{\numberline {3.4.2}Results}{8}{subsection.3.4.2}}
\@writefile{lof}{\addvspace {10pt}}
\@writefile{lot}{\addvspace {10pt}}
\@writefile{toc}{\contentsline {chapter}{\chapternumberline {4}Implementation and testing}{9}{chapter.4}}
\newlabel{impltest}{{\M@TitleReference {4}{Implementation and testing}}{9}{Implementation and testing\relax }{chapter.4}{}}
\@writefile{toc}{\contentsline {section}{\numberline {4.1}ImageJ Plug-In}{9}{section.4.1}}
\@writefile{toc}{\contentsline {section}{\numberline {4.2}Testing}{9}{section.4.2}}
\bibstyle{iso690.bst}
\bibdata{ref}
\@writefile{lof}{\addvspace {10pt}}
\@writefile{lot}{\addvspace {10pt}}
\@writefile{toc}{\contentsline {chapter}{Conclusion}{11}{chapter*.9}}
\@writefile{toc}{\contentsline {section}{Future work}{11}{section*.10}}
\@writefile{lof}{\addvspace {10pt}}
\@writefile{lot}{\addvspace {10pt}}
\@writefile{toc}{\contentsline {appendix}{\chapternumberline {A}Content of CD}{13}{appendix.A}}
\newlabel{app:CDcontent}{{\M@TitleReference {A}{Content of CD}}{13}{Content of CD\relax }{appendix.A}{}}
\memsetcounter{lastsheet}{29}
\memsetcounter{lastpage}{13}
