30.002,1.25,1.3,5.077
28.75,2.9042,1.3,3.99
31.25,3.003,1.3,5.5502
28,3.25,1.3,0.14863
31.072,3.4283,1.3,0.2907
34.25,3.5,1.3,0.17671
29.673,4.25,1.3,1.1153
29.964,4.25,1.3,3.6008
35.674,5.75,1.3,0.10768
28,6.2615,1.3,1.2132
32.5,6.5,1.3,0.14858
30,8.2456,1.3,0.74796
29.169,11.839,1.3,0.57994
106.51,41.75,1.3,0.12009
105.04,45.911,1.3,15.833
105.87,45.485,1.3,10.032
104.65,45.535,1.3,7.8
105.29,47.025,1.3,11.161
35.997,47.747,1.3,0.14475
35.004,50.919,1.3,1.4413
41.25,52.5,1.3,0.43846
41.745,52.75,1.3,0.030725
67.741,52.683,1.3,0.91235
71.064,53.186,1.3,0.47825
37.49,53.75,1.3,0.8789
69.119,53.869,1.3,0.27208
113.33,53.75,1.3,0.071443
36.887,53.997,1.3,3.6051
64.75,54,1.3,0.33393
113.87,53.978,1.3,0.33554
38.392,54.701,1.3,10.828
35.913,55.337,1.3,6.4056
37.726,56.612,1.3,27.262
42,58,1.3,0.12962
23.67,59.42,1.3,0.61542
27.081,59.578,1.3,0.69348
35,59.5,1.3,0.10827
57.649,59.406,1.3,0.49071
38.25,60,1.3,0.71418
33.5,60.25,1.3,0.02212
54.812,61.376,1.3,2.9394
54,62.007,1.3,4.2417
59.154,62.177,1.3,1.5313
24.843,62.343,1.3,0.49733
54,62.495,1.3,5.8105
54,63.008,1.3,2.3409
22.5,63.618,1.3,0.45753
26.697,63.437,1.3,0.80232
25.25,63.75,1.3,0.17523
25.975,63.835,1.3,0.96099
58.25,64,1.3,0.26124
28.861,64.25,1.3,0.06557
31.25,64.25,1.3,0.4339
53.25,65,1.3,0.091675
58,65,1.3,0.49314
24,66.215,1.3,9.0963
29.774,67,1.3,5.4702
31.002,68.502,1.3,6.8625
28.5,68.775,1.3,10.047
31.25,68.994,1.3,2.7698
31,70.043,1.3,3.0897
29.42,71,1.3,3.6429
34.75,72.25,1.3,0.30951
31.323,72.689,1.3,14.066
29.997,73.589,1.3,9.103
29.5,79.5,1.3,0.52402
29.05,79.905,1.3,0.34071
28.75,80.099,1.3,0.11749
29.79,82.519,1.3,0.68724
29.25,85.75,1.3,0.62092
29.75,88.36,1.3,4.3679
29.553,88.947,1.3,5.2074
2.5,91,1.3,0.19897
5.7361,91.404,1.3,0.32318
33.905,91.376,1.3,0.48401
30.127,92.75,1.3,0.34864
32.525,93.225,1.3,0.47479
6.518,94,1.3,0.054556
81.25,94.975,1.3,0.64033
32.194,96.274,1.3,0.82134
76.416,97,1.3,0.44958
81.108,98.945,1.3,1.0868
78.399,99.5,1.3,0.63332
80.686,99.5,1.3,0.19976
116.81,100.91,1.3,1.3334
122.47,101.03,1.3,0.16641
35.25,101.25,1.3,0.13354
77.378,102,1.3,1.6552
76.75,102.25,1.3,1.6381
77.662,102.16,1.3,2.1485
76.25,102.5,1.3,1.345
112.37,102.5,1.3,0.47533
114.75,102.5,1.3,0.2
76,103,1.3,0.66226
78.5,103.5,1.3,0.34949
83.741,103.51,1.3,0.098946
75.827,103.75,1.3,7.6056
121.08,103.57,1.3,0.64804
78.083,104.47,1.3,11.195
75.93,104.5,1.3,7.1811
70.968,104.61,1.3,0.50395
119,105.09,1.3,0.24523
76.369,105.26,1.3,5.8695
81.72,105.03,1.3,1.2225
76.559,105.33,1.3,4.3216
119,105.75,1.3,0.39944
75,107.5,1.3,0.10289
80.593,107.34,1.3,0.20499
80.31,107.81,1.3,0.38929
75,108,1.3,0.19058
122.41,108.12,1.3,0.74839
76.352,109.5,1.3,0.15445
76.744,109.34,1.3,1.1714
72.75,109.72,1.3,0.1487
75.003,112.06,1.3,0.56615
78.5,113.02,1.3,0.42306
76.683,115.68,1.3,1.3165
118.81,119.5,1.3,0.21392
77.75,120.16,1.3,0.39053
120.75,120.48,1.3,0.79012
119.75,123.5,1.3,0.16675
78.75,123.74,1.3,0.61146
