121.79,1.5051,1.3,0.35324
21.677,2.3317,1.3,1.2989
18.5,2.9492,1.3,0.44779
119.5,3.2501,1.3,0.11593
122.25,3.25,1.3,0.75815
27.888,3.362,1.3,1.5809
25.75,4.25,1.3,0.020598
21.75,5.5,1.3,0.063316
24.75,5.75,1.3,0.5266
18.757,6.3729,1.3,0.60153
22.5,6.5,1.3,0.26609
84.5,6.75,1.3,0.24723
122.28,6.75,1.3,0.42984
16.5,8,1.3,0.51752
17.727,8.3466,1.3,0.47473
84.75,8.75,1.3,0.21344
17.901,9.1509,1.3,0.69199
18.5,9.5,1.3,0.55316
86.244,10.491,1.3,6.0042
17.978,12.265,1.3,0.49408
18.583,15.083,1.3,0.67286
62.25,16.39,1.3,0.38753
1.75,16.75,1.3,0.18899
64.25,16.75,1.3,0.1259
9.6818,17,1.3,0.23088
64.555,17.305,1.3,0.4982
20,17.75,1.3,0.22626
39.256,17.683,1.3,1.461
1.5,18,1.3,0.20528
10.5,18,1.3,0.13896
20.5,18,1.3,0.016152
121.66,18,1.3,0.4386
11.25,18.25,1.3,0.30548
83.858,18.358,1.3,0.093467
12,18.5,1.3,0.12226
15.25,18.5,1.3,0.13559
35.5,18.5,1.3,0.19419
24.25,19.149,1.3,0.5947
59,19,1.3,0.27486
37.85,19.323,1.3,2.0053
13.536,19.5,1.3,0.36155
21.775,19.532,1.3,2.3244
33.75,19.427,1.3,0.33403
8,19.75,1.3,0.76835
15.361,19.936,1.3,0.39091
28.606,19.627,1.3,0.74753
59.5,20,1.3,0.17742
8.5,20.25,1.3,0.18917
15.25,20.24,1.3,0.99686
24.5,20.5,1.3,0.711
33.75,20.5,1.3,0.020633
59.784,20.531,1.3,0.18892
9,20.75,1.3,0.04266
42.325,20.576,1.3,0.89315
120.94,20.999,1.3,12.833
38.75,21,1.3,0.088373
9.25,21.25,1.3,0.17789
25.057,21.257,1.3,3.1681
26.75,21.5,1.3,0.23706
121.25,21.5,1.3,1.0839
27.584,21.83,1.3,0.74683
9.5384,22,1.3,0.83048
33.75,21.949,1.3,0.34747
40.163,22.016,1.3,1.0433
120.25,22,1.3,1.9905
121,22,1.3,1.6001
122,22,1.3,0.24615
56,22.413,1.3,0.78054
120.5,22.544,1.3,1.8435
24.75,22.933,1.3,7.2435
37.245,22.705,1.3,0.41831
45.5,22.75,1.3,1.0087
10.056,22.806,1.3,0.33512
120.3,22.948,1.3,1.5845
14.098,23.269,1.3,0.79815
33.5,23.25,1.3,0.55627
19.75,23.5,1.3,0.37113
54.287,24,1.3,0.30834
119.75,24.25,1.3,0.11491
25,24.5,1.3,0.58401
58.462,24.982,1.3,1.2578
40.654,24.904,1.3,0.54086
50.862,24.766,1.3,2.9149
33,25.25,1.3,0.065055
44.544,25.288,1.3,0.84463
21.199,25.441,1.3,2.0318
21.625,25.313,1.3,0.71579
28.051,25.419,1.3,1.2189
42.511,25.325,1.3,1.8699
33.962,25.841,1.3,0.18918
45.25,25.746,1.3,0.72033
34.349,26.14,1.3,0.6083
51.131,25.736,1.3,1.8766
23.912,26.088,1.3,1.6058
35,26.25,1.3,0.21788
46.092,26.092,1.3,0.15266
12.75,26.5,1.3,0.08375
17.298,26.629,1.3,1.8024
52,26.5,1.3,0.73947
54.5,26.66,1.3,6.2215
117.36,26.364,1.3,0.8533
12.153,26.849,1.3,9.6622
13.324,26.75,1.3,1.921
118.66,26.836,1.3,6.0608
120,27.055,1.3,3.0181
48.798,27.458,1.3,0.22906
52.956,27.352,1.3,9.6486
13.557,27.795,1.3,8.6677
24.5,27.5,1.3,0.52052
39.75,27.5,1.3,0.31428
119.77,27.75,1.3,5.1503
39.5,28,1.3,0.19767
55.213,27.896,1.3,6.3192
60.75,27.931,1.3,1.9172
10.75,28.258,1.3,4.5015
26.321,28.25,1.3,0.60746
118.5,28.25,1.3,2.8069
13.788,28.547,1.3,5.5365
119.52,28.865,1.3,4.8709
46,29.25,1.3,0.19146
53.693,29.553,1.3,5.1717
72.25,29.25,1.3,0.53694
108.8,29.527,1.3,1.0246
11.394,29.894,1.3,2.7512
43.211,30.068,1.3,1.2437
63.92,29.92,1.3,0.14348
69.462,30,1.3,0.66214
12.507,30.25,1.3,5.2271
34.25,30.25,1.3,0.35342
59.143,30.143,1.3,1.0484
60.75,30.25,1.3,0.26986
30.583,30.288,1.3,0.62819
40.5,30.523,1.3,0.38932
69.874,30.626,1.3,0.18536
114,30.75,1.3,0.35856
26.316,31,1.3,1.0149
32.388,31,1.3,0.52411
112,31,1.3,0.63576
46.5,31.5,1.3,0.29513
64.25,31.5,1.3,0.39727
115.75,31.595,1.3,0.63735
124,31.5,1.3,0.2586
2.25,31.75,1.3,0.18639
115.33,31.835,1.3,0.85553
46.25,32,1.3,0.23467
61.796,31.871,1.3,1.5929
120.19,32.062,1.3,1.1551
9.75,32.25,1.3,0.17196
7,32.5,1.3,0.40208
43.295,32.5,1.3,0.65819
61.75,32.5,1.3,0.2743
65.5,32.5,1.3,0.025626
66,32.75,1.3,0.1874
68.306,32.989,1.3,1.828
37.363,33.03,1.3,2.0797
43.266,33,1.3,0.63809
28.235,33.279,1.3,2.9575
32,33.25,1.3,0.096488
71.96,33.077,1.3,0.5915
111.96,33.155,1.3,0.62307
116.99,33.25,1.3,0.28709
6.25,33.5,1.3,0.45472
12.52,33.423,1.3,0.91123
117.46,33.626,1.3,0.88486
61.374,33.766,1.3,2.4133
117.98,33.728,1.3,0.032634
39.414,33.437,1.3,1.6681
117.45,33.83,1.3,0.73036
58.5,34.25,1.3,0.62027
26,34.5,1.3,0.072212
67.75,34.5,1.3,0.32245
107.77,34.75,1.3,0.62056
115,35.079,1.3,0.56847
2,35.452,1.3,0.28883
26.5,35.574,1.3,0.49453
29,35.5,1.3,0.11109
9.3396,35.774,1.3,0.74785
69.688,35.823,1.3,2.102
9.2405,35.686,1.3,0.73018
37.75,36.206,1.3,0.71601
62.5,36,1.3,0.75278
95.75,36.057,1.3,0.44821
117.75,36.07,1.3,0.17085
69.5,36.211,1.3,2.2358
94.023,36.25,1.3,0.86712
110.56,36.219,1.3,4.9261
7.5,36.506,1.3,0.95821
43.981,36.5,1.3,0.64576
44.419,36.5,1.3,0.82695
45.539,36.539,1.3,0.47485
28.656,36.56,1.3,5.4999
41.115,37.165,1.3,1.0159
59.25,37,1.3,0.55611
1.9604,37.25,1.3,0.62256
10.25,37.25,1.3,0.22471
28.85,37.35,1.3,4.2957
47.131,37.631,1.3,0.50327
59.5,37.5,1.3,0.45752
114.49,37.566,1.3,0.96946
40.75,37.75,1.3,0.077877
68.903,38,1.3,29.338
90.576,38.079,1.3,1.2437
4.5775,38.088,1.3,0.38808
29.25,38.188,1.3,1.3392
48,38.25,1.3,0.16487
7.8788,38.727,1.3,3.5194
23.372,38.572,1.3,0.37212
44.279,38.809,1.3,0.35263
48.25,38.75,1.3,0.067947
108.53,38.465,1.3,1.228
7.2623,38.999,1.3,0.53949
8.9441,38.944,1.3,0.9648
9.7917,38.912,1.3,0.56721
39.756,39.744,1.3,1.2804
6.5,40,1.3,0.55734
44.5,40,1.3,0.68191
48,40,1.3,0.054508
60.75,40,1.3,0.88651
106.5,40.031,1.3,0.4652
112.96,40,1.3,0.44105
61.25,40.25,1.3,0.351
70.301,40.106,1.3,3.8167
72.25,40.25,1.3,0.28088
29.5,40.5,1.3,0.17914
51.816,40.508,1.3,1.0992
26.561,40.869,1.3,0.63082
12.429,40.913,1.3,0.47593
64,41,1.3,0.24254
48.019,41.303,1.3,0.95493
104.5,41.19,1.3,0.31433
2.0832,41.75,1.3,0.9553
44.219,42.025,1.3,1.2179
57.71,41.738,1.3,0.79809
56.233,41.761,1.3,1.8429
74.559,42,1.3,0.82457
107.04,42.483,1.3,0.46416
12.204,42.798,1.3,0.44273
46.374,42.75,1.3,0.14383
105,42.75,1.3,0.018103
109.45,42.683,1.3,0.73086
111.84,42.683,1.3,2.1369
9.0913,42.953,1.3,0.69738
110.25,42.931,1.3,0.63837
33.75,43.25,1.3,0.32332
33.25,43.5,1.3,0.13943
72.232,43.599,1.3,1.335
110.5,43.5,1.3,0.61895
51.624,44.017,1.3,2.1439
53.405,44.25,1.3,0.44163
61.584,44.284,1.3,0.97531
64.471,44.022,1.3,0.76576
7.9423,44.616,1.3,0.77903
40,44.5,1.3,0.62926
46.75,44.5,1.3,0.20051
30.493,44.997,1.3,0.75884
40.5,44.75,1.3,0.42937
41.899,44.75,1.3,0.13297
67,44.75,1.3,0.047586
110.64,44.809,1.3,3.8278
7.8634,45.054,1.3,1.8444
40,45,1.3,0.25988
47,45,1.3,0.4986
114.49,45.014,1.3,0.21424
67.25,45.401,1.3,0.78366
49.397,45.674,1.3,1.5081
73.327,45.623,1.3,0.80084
112.3,45.5,1.3,0.10044
7.6466,45.705,1.3,0.77071
62.25,45.75,1.3,0.44549
70.5,45.75,1.3,0.28551
76.924,45.575,1.3,2.4263
112.73,45.735,1.3,0.29778
3.9755,45.978,1.3,6.2515
49.575,45.705,1.3,1.6286
111.75,46,1.3,0.037376
107,46.257,1.3,0.23801
2.4432,46.427,1.3,6.8413
67.031,46.75,1.3,0.23575
38.5,46.937,1.3,0.26289
8.6516,47.268,1.3,0.64445
65,47.25,1.3,0.62094
3.4623,47.535,1.3,2.6706
38.5,47.5,1.3,0.0516
69.548,47.452,1.3,0.3653
113.65,47.652,1.3,0.38771
59.852,47.994,1.3,0.40976
72.25,48,1.3,0.3741
109.72,48.362,1.3,0.52673
48.912,48.202,1.3,0.83534
29.75,48.5,1.3,0.4337
34,48.5,1.3,0.21385
35.5,48.467,1.3,0.62281
38.5,48.588,1.3,0.62979
72,48.5,1.3,0.36874
41.635,48.865,1.3,0.13453
38.395,48.974,1.3,1.7628
54.41,49.16,1.3,0.070375
71.25,49.25,1.3,0.25288
11.107,49.572,1.3,1.1804
38.25,49.472,1.3,0.47095
46.15,49.582,1.3,1.0927
57.405,49.483,1.3,0.66149
76.536,49.634,1.3,2.4369
63.882,49.895,1.3,1.0196
71,49.75,1.3,0.12214
29.937,50,1.3,0.37819
37.75,50.177,1.3,1.6508
61,50,1.3,0.069953
70.5,50,1.3,1.2988
74.196,50.054,1.3,0.5657
32.307,50.25,1.3,0.53574
68,50.25,1.3,0.34503
75,50.48,1.3,0.37611
38.057,50.764,1.3,4.3404
50.961,50.759,1.3,2.3473
61,50.75,1.3,0.20994
67.579,51.101,1.3,0.68119
9.2445,51.258,1.3,0.23841
2.7182,51.532,1.3,0.49135
6.4719,51.5,1.3,0.36215
8.9514,51.5,1.3,0.045741
67.5,51.425,1.3,0.69434
78,51.5,1.3,0.3929
64.25,51.75,1.3,0.48087
57.619,51.928,1.3,1.5908
57.696,51.816,1.3,0.93575
77.75,52,1.3,0.53659
75.833,52.417,1.3,0.72573
59.664,52.836,1.3,0.4137
71.5,52.889,1.3,0.69751
78.682,52.932,1.3,0.2952
51.703,53.381,1.3,1.1984
51,53.75,1.3,0.034875
73,53.606,1.3,0.55047
73.583,53.876,1.3,1.022
120,53.596,1.3,0.27562
34,54.595,1.3,2.1572
49.25,54.5,1.3,0.23679
48.337,55,1.3,0.1403
33.75,55.151,1.3,1.3947
63.75,55.25,1.3,0.22823
69.645,55.51,1.3,2.1893
71.75,55.25,1.3,0.40076
123.04,55.101,1.3,0.75279
65.791,55.558,1.3,1.0101
71.75,56,1.3,0.30306
78.2,56.054,1.3,1.0721
65.943,56.25,1.3,1.4793
32.334,56.75,1.3,1.6393
63.25,56.75,1.3,0.46154
62.76,57.01,1.3,0.45366
41.25,57.25,1.3,0.18226
53.75,57.5,1.3,0.41146
63.195,57.298,1.3,1.1402
41,57.75,1.3,0.061635
65.712,57.788,1.3,1.8753
75,57.673,1.3,0.48787
56,58,1.3,0.39576
121.53,57.967,1.3,0.48462
33.855,58.423,1.3,7.8955
35.5,58.5,1.3,1.7945
63.75,58.5,1.3,0.56015
71,58.5,1.3,0.59377
24.679,58.75,1.3,0.73326
27.445,58.934,1.3,1.254
36,59.437,1.3,2.4983
68.479,59.492,1.3,1.2775
54.167,59.583,1.3,0.57366
33.864,59.873,1.3,7.413
120,60.5,1.3,0.15251
35.222,60.835,1.3,4.6072
63.002,60.75,1.3,0.83622
59.5,61.398,1.3,0.86573
63,61.25,1.3,0.94882
53.404,61.717,1.3,1.8846
67.611,61.5,1.3,0.13046
55.75,61.75,1.3,0.47686
70.3,62.112,1.3,1.7819
68.5,62,1.3,0.61787
69.75,62.317,1.3,0.98357
67.995,62.543,1.3,2.2418
25.483,62.767,1.3,0.67853
41.23,62.52,1.3,6.1694
42.721,62.834,1.3,12.823
47,62.848,1.3,0.31708
95.285,62.905,1.3,0.36096
96,62.75,1.3,0.10223
40.45,63.3,1.3,1.1453
47,63.5,1.3,0.31021
39.229,63.75,1.3,0.6203
56.5,63.796,1.3,0.48255
22.75,64,1.3,0.075212
55.75,64.25,1.3,0.26824
58.592,64.158,1.3,0.41452
61.5,64.25,1.3,0.055499
62.25,64.25,1.3,0.095677
66.25,64.25,1.3,0.073425
70.15,64.434,1.3,0.75406
55.25,64.5,1.3,0.018943
91.25,64.5,1.3,0.76464
42.088,64.75,1.3,3.7929
53.303,64.724,1.3,0.5904
5.25,65.049,1.3,0.53476
14.467,65.3,1.3,1.918
91.606,65.419,1.3,0.82347
11.5,65.75,1.3,0.22339
63.692,65.675,1.3,1.5366
91.72,65.71,1.3,1.5304
101.73,65.792,1.3,0.39657
71.75,65.977,1.3,0.71469
24.532,66.282,1.3,0.37013
32.75,66.252,1.3,1.8188
57.5,66.25,1.3,0.22959
18.5,66.5,1.3,0.92706
32.728,66.522,1.3,0.46917
26.5,67,1.3,0.049107
38.25,67.25,1.3,0.24404
47.046,67.454,1.3,1.0704
27.5,67.5,1.3,0.14206
35,67.5,1.3,1.0623
7.1096,67.796,1.3,0.94242
7.1821,67.883,1.3,0.51311
28,67.75,1.3,0.24022
46.669,67.581,1.3,1.0853
88.993,67.861,1.3,0.49502
41.826,68.076,1.3,0.55596
10.35,68.467,1.3,0.39748
15.81,68.69,1.3,0.43613
16.741,68.622,1.3,0.58481
58.546,68.296,1.3,1.181
89.519,68.519,1.3,0.68778
94.863,68.361,1.3,0.65759
3.25,68.75,1.3,0.16616
45,68.75,1.3,1.0076
45.809,68.75,1.3,0.43491
9.5087,68.991,1.3,0.10443
15.25,69,1.3,0.43008
28.579,69,1.3,1.0399
61.935,69.075,1.3,0.65927
62.563,68.916,1.3,1.6098
64.486,68.944,1.3,2.8087
25.334,69.764,1.3,3.2378
38,69.75,1.3,0.37011
90.332,69.671,1.3,0.42848
91.809,69.809,1.3,0.17117
25.954,70,1.3,4.6523
26.539,69.874,1.3,6.1739
26.973,69.866,1.3,9.2165
32.75,69.943,1.3,0.48669
92.313,70,1.3,0.61544
35.348,70.652,1.3,0.57738
7.3221,71.072,1.3,5.3792
24.918,71.39,1.3,5.4767
60.766,71,1.3,0.34902
6.75,71.25,1.3,0.78934
7.7232,71.325,1.3,5.0357
40,71.25,1.3,0.59007
8.6526,71.435,1.3,1.9193
25.929,71.444,1.3,4.2952
26.056,71.439,1.3,4.0993
96.55,71.912,1.3,0.73392
63.245,72.357,1.3,0.69503
6.5,72.5,1.3,1.0084
31.403,72.75,1.3,0.80037
6.75,73,1.3,3.71
8.1022,73.021,1.3,6.536
8.3232,72.996,1.3,4.2916
59.963,73.297,1.3,0.51535
21.75,73.564,1.3,0.36444
60.056,73.694,1.3,0.3464
90,73.837,1.3,0.87444
2.1177,74.732,1.3,0.83318
26.873,74.639,1.3,1.6738
15.48,74.795,1.3,30.617
24.25,75.5,1.3,0.74255
16.348,75.75,1.3,0.96681
29.723,75.777,1.3,0.26191
12.25,76,1.3,0.028173
21.25,76,1.3,0.20011
46,76.117,1.3,0.54008
9.75,76.25,1.3,0.73015
11.648,76.25,1.3,1.3908
9.25,76.5,1.3,0.55477
8.75,76.75,1.3,0.060295
9.75,76.75,1.3,0.21693
27.029,77.04,1.3,0.40312
27.392,77,1.3,0.12133
46.5,77.012,1.3,0.24834
43.25,77.25,1.3,0.12262
13.5,77.75,1.3,0.046428
23.995,77.755,1.3,0.40899
56.474,77.776,1.3,1.0787
90.5,77.75,1.3,0.47871
107.75,77.75,1.3,0.27178
111.46,77.721,1.3,0.88722
6.5,78,1.3,0.48083
108.25,78,1.3,0.27173
111.01,77.989,1.3,0.80474
23.75,78.208,1.3,0.051957
9.5,78.569,1.3,0.30583
20.75,78.749,1.3,0.41867
55.119,78.535,1.3,0.54683
110,78.837,1.3,0.41373
113.85,79.25,1.3,0.495
111.25,79.75,1.3,0.28127
109.82,80.929,1.3,0.039428
112.25,80.75,1.3,0.33325
42.194,80.925,1.3,0.49245
12.038,81.5,1.3,0.77693
108.67,81.75,1.3,0.36015
90.675,81.888,1.3,1.9328
58.844,82.452,1.3,0.63972
85.536,82.392,1.3,0.34113
38.504,83.05,1.3,1.8012
81.148,83.098,1.3,1.4875
96.81,83.272,1.3,0.68015
96.325,83.5,1.3,0.1805
41.028,83.805,1.3,0.57182
112,84.25,1.3,0.30927
92.548,84.603,1.3,0.41428
36.474,84.776,1.3,0.68266
76.5,84.69,1.3,0.6742
87.305,84.692,1.3,0.92693
89,84.75,1.3,0.21043
92,85.25,1.3,0.084361
94.75,85.354,1.3,1.1736
110.93,85.479,1.3,1.7887
92.5,85.334,1.3,0.57418
92.362,86.127,1.3,0.50958
83.574,85.939,1.3,0.95596
59.387,86.669,1.3,0.74206
59.592,86.5,1.3,0.47181
90.325,87.25,1.3,0.81284
87.25,87.75,1.3,0.079209
92.94,88.19,1.3,1.4881
107.57,88.179,1.3,0.684
116.34,88.619,1.3,0.20233
123.84,89.735,1.3,0.91927
85.905,89.882,1.3,1.6368
111.33,89.828,1.3,1.0383
113.05,90,1.3,0.34082
94.75,90.5,1.3,0.63805
83.25,90.583,1.3,1.2503
115.5,91.093,1.3,0.6334
120.13,91.053,1.3,1.228
116.09,91.25,1.3,0.55771
119.8,91.447,1.3,0.93218
82.296,92.454,1.3,1.2473
118.02,92.53,1.3,1.4515
113.45,92.877,1.3,1.0184
121.63,93.782,1.3,0.81728
84.973,93.981,1.3,0.83359
69.37,94.38,1.3,0.12521
64.389,94.639,1.3,0.43716
116.86,94.893,1.3,0.43209
59.031,95.048,1.3,2.0585
115.12,95.383,1.3,0.33116
116.75,95.166,1.3,0.62433
121.25,95.75,1.3,0.256
117.8,95.822,1.3,2.5288
72.75,96.25,1.3,0.090708
64.5,97.25,1.3,0.25292
70.7,97.25,1.3,0.34207
70.465,97.285,1.3,0.12351
68.976,98.221,1.3,0.57289
68.851,98.209,1.3,0.93971
119.64,98.71,1.3,0.82016
69.189,98.561,1.3,0.56604
120.98,98.73,1.3,1.7626
65,99.848,1.3,0.81922
123.76,101.25,1.3,0.24544
121.36,101.75,1.3,0.3502
68.67,102,1.3,1.8093
74,102.75,1.3,0.085836
74.902,102.75,1.3,0.65066
70.877,103.19,1.3,1.0449
118.5,103.75,1.3,0.37267
66,104,1.3,1.2952
118.5,104.27,1.3,0.08913
121.29,104.28,1.3,0.79988
65.921,104.34,1.3,0.76767
66.232,104.73,1.3,0.27352
78.414,104.43,1.3,0.55298
77.5,105.25,1.3,0.1876
75.25,105.5,1.3,0.042667
77,105.5,1.3,0.12715
123.7,105.55,1.3,0.68822
123.43,105.92,1.3,0.76284
73.886,106.36,1.3,0.27428
63.732,106.73,1.3,1.2192
116.5,106.43,1.3,0.99206
70.788,106.55,1.3,0.88353
56.845,106.63,1.3,0.8495
60.015,107.01,1.3,1.2975
63.422,106.83,1.3,0.97674
94.466,107.25,1.3,0.41213
67.695,107.5,1.3,1.1162
73,107.5,1.3,0.30623
118.5,107.5,1.3,0.019528
77.25,108,1.3,0.13566
123.75,108.5,1.3,0.81656
13.874,109.59,1.3,15.082
53.75,109.41,1.3,0.56158
69.732,109.75,1.3,0.98663
74.035,109.75,1.3,1.6025
78.393,110,1.3,0.77602
14.25,110.25,1.3,0.93522
69.452,110.22,1.3,1.138
74.25,110.29,1.3,1.1232
12.75,110.44,1.3,8.2823
67.181,110.32,1.3,0.64914
112.06,110.29,1.3,0.49518
14.628,110.91,1.3,5.86
14.064,111.11,1.3,6.4252
66.5,111,1.3,0.36322
78,111,1.3,0.34175
68.226,111.3,1.3,1.4706
13.25,111.5,1.3,3.0521
13.933,111.36,1.3,4.5374
18.75,111.5,1.3,0.047551
66,111.5,1.3,0.094985
74,111.5,1.3,0.10482
13.558,111.92,1.3,4.0848
13.936,111.71,1.3,3.5521
65.566,112,1.3,0.51844
68.382,111.88,1.3,1.1282
65.25,112.5,1.3,0.12694
78.75,112.75,1.3,0.60324
101.23,113.02,1.3,0.6386
113.25,113.46,1.3,1.0581
53.383,113.49,1.3,0.4341
72.696,113.55,1.3,0.7282
107.8,113.75,1.3,0.68914
69.5,114.25,1.3,0.016627
73.88,114.37,1.3,0.15959
103.97,114.16,1.3,1.3379
76.25,114.55,1.3,0.74499
69.435,115.31,1.3,0.35059
68.302,115.54,1.3,2.9562
65.448,116.01,1.3,1.4099
70.75,118.05,1.3,0.67472
64.306,118.44,1.3,1.5185
7.5001,118.5,1.3,0.093718
64.192,118.54,1.3,1.4965
86.5,119.24,1.3,0.6383
89.829,119.12,1.3,0.42471
2.25,120.25,1.3,0.12996
68.5,120.6,1.3,0.10371
119.99,120.5,1.3,0.61908
66.377,120.75,1.3,0.25636
60.846,120.78,1.3,0.48166
68.421,120.97,1.3,0.37595
85.873,121.01,1.3,0.47832
63.316,121.69,1.3,1.3946
67.847,121.75,1.3,0.45584
89.25,121.75,1.3,0.018018
83.28,122.35,1.3,1.1463
121.25,122.62,1.3,1.1482
9.4941,123,1.3,1.3844
87,122.97,1.3,1.1415
7.811,123.08,1.3,16.028
65.567,123.18,1.3,0.70333
69.806,123.5,1.3,0.63424
123.77,123.75,1.3,0.32122
