7.4222,1.25,1.3,0.78582
9.0058,1.25,1.3,0.65498
27.25,1.25,1.3,0.27639
106.7,1.25,1.3,0.39395
110,1.578,1.3,0.29622
111.37,1.7531,1.3,1.0879
100.75,2,1.3,0.19871
117,2,1.3,0.62354
11,2.5,1.3,0.98375
30.5,2.6805,1.3,2.5195
81.838,2.8132,1.3,2.0964
3.75,3,1.3,0.56015
7.25,3,1.3,0.63702
11.25,3,1.3,0.24201
62.25,2.9774,1.3,0.055477
79.727,2.8114,1.3,1.7751
80.257,3.0157,1.3,7.8743
80.705,3.186,1.3,6.6962
117.43,3.1762,1.3,0.26869
1.9416,3.25,1.3,2.8248
113.52,3.442,1.3,0.33734
5.007,3.5,1.3,1.807
25.715,3.5903,1.3,2.0634
98.5,3.5,1.3,0.37063
99.396,3.5734,1.3,13.313
107.91,3.3384,1.3,0.67571
122.99,3.5,1.3,1.9612
5.75,3.75,1.3,1.0753
7.985,3.75,1.3,2.3135
8.75,3.75,1.3,0.46317
67.25,4.1346,1.3,2.6405
123.73,4,1.3,5.0684
9.5,4.25,1.3,0.6417
28.258,4.1957,1.3,2.239
97.25,4.25,1.3,0.075218
80.781,4.62,1.3,2.3877
99.661,4.5255,1.3,3.6421
104.36,4.3866,1.3,0.72195
123.5,4.5,1.3,0.64829
85.384,4.6341,1.3,0.32034
80.931,4.9062,1.3,2.8377
10,5.3258,1.3,2.5869
12.75,5.25,1.3,0.21816
11.199,5.75,1.3,1.3052
38.8,5.75,1.3,6.4123
43.25,5.75,1.3,0.095994
43.75,6,1.3,0.45218
74.75,6,1.3,0.33732
112,6.25,1.3,0.2683
13.759,6.509,1.3,1.0399
14.157,6.75,1.3,0.13383
15.176,6.75,1.3,0.1743
41,6.75,1.3,1.5988
73.25,6.75,1.3,0.19349
116.49,6.7293,1.3,0.76233
37.796,7.3342,1.3,1.7542
41.25,7.25,1.3,0.76478
86.355,7.2768,1.3,12.691
97.211,7.0387,1.3,0.30748
105.1,7.3782,1.3,0.95623
112.75,7.4232,1.3,1.1228
45.25,7.5,1.3,0.92859
123.31,7.5884,1.3,0.90395
11,7.75,1.3,1.2745
14,7.75,1.3,1.4715
37.64,7.8064,1.3,5.1118
86.228,7.6885,1.3,15.932
15.75,8,1.3,0.67193
41.01,7.7604,1.3,1.3452
68.352,7.8473,1.3,0.47415
109.18,8.3318,1.3,1.4877
113,7.8525,1.3,0.21144
123.41,7.9125,1.3,0.82873
20.25,8.0716,1.3,0.28132
38.25,8.25,1.3,0.8732
41.75,8.25,1.3,1.1283
50.25,8.25,1.3,0.059979
86.083,8.5181,1.3,5.6426
88.17,8.218,1.3,0.97515
101.38,7.9843,1.3,1.4158
15.5,8.5,1.3,0.04705
115.75,8.5635,1.3,0.38123
39,8.75,1.3,0.25337
45.81,8.8096,1.3,3.8971
42,9,1.3,0.81157
79.5,8.8216,1.3,0.5225
12,9.2725,1.3,1.7953
20.5,9.25,1.3,0.12345
45.975,9.1874,1.3,4.0446
47.901,9.25,1.3,2.7982
49.959,9.082,1.3,12.083
12.75,9.2786,1.3,1.5193
39.179,9.693,1.3,5.1493
71.043,9.5,1.3,0.47465
115.35,9.5,1.3,0.22407
14.854,9.684,1.3,1.8851
15.75,9.5744,1.3,0.50644
28,9.7571,1.3,1.4898
42.424,9.9238,1.3,0.20577
46.056,9.75,1.3,1.975
117.75,9.75,1.3,0.45357
29.75,10,1.3,2.5744
39.247,9.9235,1.3,3.5987
48.75,10,1.3,1.483
52.225,10.025,1.3,1.2904
86.25,10.068,1.3,0.46194
92.75,10,1.3,0.25698
112.25,10,1.3,0.24563
43,10.25,1.3,0.32561
49.75,10.25,1.3,0.68746
51.828,10.25,1.3,0.48472
52.243,10.493,1.3,4.0359
97.25,10.544,1.3,0.21903
20.5,10.75,1.3,0.35758
27.5,10.75,1.3,0.75435
40,10.75,1.3,0.90973
43.56,10.624,1.3,2.5455
44.857,10.607,1.3,0.96923
51.25,10.75,1.3,0.55414
40.911,10.823,1.3,1.728
52,11,1.3,0.72222
27.25,11.306,1.3,0.98523
100.75,11.318,1.3,0.36132
11.864,11.189,1.3,2.6315
15,11.75,1.3,1.6036
88,11.75,1.3,0.033359
114.5,11.75,1.3,1.1172
30.75,12.152,1.3,1.5319
104.68,11.77,1.3,1.842
15.25,12.25,1.3,0.69908
46.5,12.25,1.3,1.0217
49.463,12.277,1.3,3.3836
109.9,12.279,1.3,1.1374
50.109,12.75,1.3,1.0684
108,12.75,1.3,0.74749
123.75,12.864,1.3,4.5624
27.25,13.014,1.3,1.3986
49,13,1.3,0.33112
53.377,12.954,1.3,5.2401
57.75,13.152,1.3,0.21526
11.796,13.546,1.3,1.3747
15.166,13.287,1.3,3.1072
15.832,13.582,1.3,0.23166
20.716,13.506,1.3,0.54122
30.461,13.75,1.3,4.1082
46.75,13.75,1.3,0.28483
48.094,13.812,1.3,2.0899
50.505,13.601,1.3,5.3139
12.206,13.769,1.3,4.1314
15.75,14.285,1.3,1.8201
27.972,14.333,1.3,2.3683
73.287,14.211,1.3,0.5338
124.04,14.402,1.3,5.5649
1.8602,14.787,1.3,4.9321
14.073,14.667,1.3,2.4217
21.122,14.628,1.3,1.2826
73.688,14.5,1.3,0.20016
93.2,14.198,1.3,14.573
28.25,14.668,1.3,1.7909
46,14.75,1.3,1.7193
74.25,14.75,1.3,0.15368
78.89,14.75,1.3,0.4214
19.554,14.787,1.3,1.9701
47,15.25,1.3,0.23108
56.307,15.259,1.3,1.1544
92.455,15.088,1.3,7.3566
98.536,15.324,1.3,0.94327
13.468,15.402,1.3,5.6689
94.75,15.462,1.3,8.4834
101,15.5,1.3,0.52352
17.149,15.73,1.3,2.6144
46.75,15.75,1.3,1.8699
121.86,15.768,1.3,0.52748
103.49,15.988,1.3,1.8108
56,16.25,1.3,0.42853
68.444,16.444,1.3,0.45075
16,16.5,1.3,0.54286
46,16.5,1.3,1.6653
107.16,16.663,1.3,0.85724
47.75,16.868,1.3,3.1614
92.65,17.068,1.3,7.7546
21.5,17.116,1.3,0.99675
94.033,17.25,1.3,2.6718
98.054,17.302,1.3,0.20695
38.499,17.646,1.3,4.6359
75.511,17.665,1.3,0.76012
71.25,17.881,1.3,0.25033
40.25,18.683,1.3,1.2295
68.743,18.507,1.3,0.60514
21.951,19.733,1.3,3.6721
40.5,19.393,1.3,2.9356
63.5,19.5,1.3,0.040134
36.783,19.957,1.3,4.1707
1.586,20.115,1.3,5.7035
21.732,19.784,1.3,2.5588
104.75,19.959,1.3,0.62757
22.5,20.409,1.3,1.1352
40.5,20.25,1.3,0.24481
98.615,20.25,1.3,0.58032
1.2611,20.395,1.3,3.9946
23,20.5,1.3,0.16149
56.193,20.513,1.3,9.9944
37.364,21.061,1.3,2.1707
56.412,20.853,1.3,7.6984
75.928,20.892,1.3,0.98436
92.88,21.209,1.3,9.4492
103.46,21,1.3,0.48814
107.25,21,1.3,0.2304
22.704,21.25,1.3,0.61006
39.036,21.291,1.3,2.1955
40.113,21.292,1.3,3.8318
56.155,21.176,1.3,3.3274
82.5,21.25,1.3,0.027065
35,21.741,1.3,1.5816
92.971,21.452,1.3,13.401
103.2,21.551,1.3,0.82181
37.5,21.828,1.3,1.7188
57.469,21.75,1.3,2.7903
20.675,21.977,1.3,3.1728
25,22,1.3,0.73166
25.775,21.759,1.3,4.7029
34.869,22.084,1.3,4.9043
38.5,22,1.3,1.013
55.209,22,1.3,2.01
68.5,22,1.3,0.18737
91.93,22.392,1.3,3.4813
57.319,22.738,1.3,3.049
92.143,22.48,1.3,5.6143
116.25,23,1.3,0.31792
21.75,23.299,1.3,0.10888
25.176,23.176,1.3,0.49042
92.896,23.462,1.3,7.1884
111.5,23.25,1.3,0.26751
116.93,23.25,1.3,0.51195
55.678,23.5,1.3,1.9779
56.796,23.461,1.3,4.0591
117.38,23.5,1.3,0.39271
112.01,23.616,1.3,0.58613
27,24.241,1.3,1.8833
37.25,24,1.3,2.5017
102.12,24.176,1.3,1.2131
38.247,24.25,1.3,2.5974
106.5,24.25,1.3,0.66346
120.25,24.147,1.3,0.79872
20.5,24.5,1.3,2.0557
21.75,24.5,1.3,0.39803
38.75,24.5,1.3,0.24336
39.605,24.5,1.3,2.2942
41.357,24.458,1.3,3.1747
81.325,24.405,1.3,14.452
122.33,24.5,1.3,0.28104
119.25,24.75,1.3,0.19256
20.25,25,1.3,0.5233
25.25,25.25,1.3,1.0849
26.704,25.204,1.3,0.3813
47.538,25.367,1.3,2.5277
81.193,25.441,1.3,0.23323
106.5,25.229,1.3,0.16841
119.75,25.25,1.3,0.50392
20.118,25.5,1.3,1.8513
27.317,25.766,1.3,1.4464
43.25,25.75,1.3,0.017794
43.75,26,1.3,0.78179
49.989,26.273,1.3,7.0945
80.679,26.007,1.3,3.0154
85.747,25.928,1.3,0.3077
119.5,26.047,1.3,1.0121
19.5,26.25,1.3,1.5733
47.597,26.25,1.3,2.6148
54,26.25,1.3,0.037659
62.478,26.158,1.3,0.74782
102.64,26.32,1.3,11.56
22.578,26.5,1.3,1.8623
24,26.602,1.3,0.37908
27.25,26.685,1.3,1.7654
53.25,26.5,1.3,0.55049
83.282,26.532,1.3,0.56494
101.84,26.5,1.3,1.3892
103.25,26.5,1.3,0.95538
21.972,26.758,1.3,2.93
52.612,26.545,1.3,4.176
55.477,26.977,1.3,1.6039
20.993,26.757,1.3,0.35769
27.381,26.95,1.3,2.6916
45.576,26.994,1.3,9.8342
98.75,27,1.3,0.10156
103.22,27.224,1.3,0.76914
55.806,27.066,1.3,8.5729
55.803,27.191,1.3,9.5568
115.09,27.033,1.3,1.0036
18.445,27.555,1.3,4.0238
27.92,27.42,1.3,0.17703
30.354,27.696,1.3,3.5585
20,27.75,1.3,0.059037
22,27.75,1.3,0.40271
24.25,27.75,1.3,0.23769
55.75,27.656,1.3,1.3095
104.4,27.798,1.3,1.5532
13.725,27.959,1.3,2.7603
16,28,1.3,0.22104
18.5,27.951,1.3,3.7424
24.75,28,1.3,1.5219
47.843,28.004,1.3,2.522
91.2,27.831,1.3,6.6275
104.57,28.103,1.3,2.4863
19.75,28.25,1.3,1.5342
26.884,28.277,1.3,1.5854
101.75,28.25,1.3,0.072655
49.309,28.5,1.3,0.70225
14.422,28.705,1.3,2.1779
31.28,28.75,1.3,2.8019
50.253,28.75,1.3,1.7394
52.25,28.75,1.3,1.9274
104.75,28.75,1.3,0.20848
49.75,29,1.3,3.2209
55.628,29.128,1.3,3.1709
13.25,29.167,1.3,2.8526
20.386,29.238,1.3,2.682
27.906,28.993,1.3,1.2525
51,29.25,1.3,0.063682
14.439,29.5,1.3,3.423
21.55,29.55,1.3,1.6521
54.25,29.5,1.3,1.0659
55.75,29.383,1.3,3.3585
60.949,29.5,1.3,4.0952
16,29.75,1.3,1.4022
21.901,29.75,1.3,0.97958
62.802,30,1.3,4.8029
14.415,30.415,1.3,3.1846
21.897,30.397,1.3,2.5537
23.5,30.5,1.3,0.66472
24.027,30.777,1.3,0.76546
31.75,30.568,1.3,2.2747
63.25,30.711,1.3,3.1025
27.498,31.051,1.3,1.7168
60.03,31.03,1.3,1.6087
2.25,31.25,1.3,0.085961
18,31.25,1.3,0.25135
23.53,31.284,1.3,3.2498
26.844,31.08,1.3,2.9351
32.437,31.048,1.3,6.9489
63.75,31.25,1.3,2.3829
96,31.25,1.3,0.054344
117.75,31.25,1.3,0.2635
25.25,31.5,1.3,1.8107
60.25,31.452,1.3,1.0635
93,31.75,1.3,0.10605
99.5,31.75,1.3,0.36089
118,31.75,1.3,1.0008
26.5,32,1.3,0.18318
64.5,31.958,1.3,8.0254
69.563,32.187,1.3,0.32652
64.75,32.5,1.3,1.1415
114.77,32.576,1.3,4.9606
25.062,32.75,1.3,3.0342
30.25,32.75,1.3,1.4793
99.25,32.75,1.3,0.19677
113.13,32.77,1.3,2.9516
114.32,32.75,1.3,4.1746
61.532,32.799,1.3,7.8425
64.75,33,1.3,0.14757
96.441,32.918,1.3,0.57773
61.823,33.073,1.3,3.4938
64.5,33.5,1.3,2.1935
28,34,1.3,0.5669
53.757,33.99,1.3,4.41
64.5,34,1.3,0.47721
68.25,34,1.3,0.071386
62.5,34.25,1.3,0.52449
119.45,34.408,1.3,3.4002
63,34.5,1.3,4.2422
29.091,34.735,1.3,3.7138
62.482,34.75,1.3,3.8303
63.75,34.75,1.3,2.0403
96.563,34.969,1.3,4.5017
97.904,34.846,1.3,7.1395
117.75,35.399,1.3,3.2509
29.5,35.5,1.3,1.0284
52.035,35.965,1.3,2.3807
54,36,1.3,1.5232
119.67,36.192,1.3,6.2075
84.489,36.5,1.3,3.6747
98.758,36.404,1.3,7.7917
96,36.75,1.3,2.027
110.03,36.943,1.3,12.938
52,37.25,1.3,1.0238
53.967,37.619,1.3,1.6312
61.87,37.38,1.3,0.65239
85.942,37.594,1.3,9.6166
96.454,37.296,1.3,4.6759
97.848,37.897,1.3,14.038
113.98,37.522,1.3,1.8583
91.25,38.071,1.3,0.12431
115.09,38.06,1.3,12.729
53.742,38.261,1.3,4.2205
97.711,38.222,1.3,3.1932
113.5,38.25,1.3,1.4466
1.4768,38.517,1.3,2.0703
83.34,38.569,1.3,8.6248
51.237,38.691,1.3,8.5449
51.037,38.655,1.3,12.201
113.5,38.75,1.3,2.0455
1.682,38.932,1.3,1.1737
86.5,39.182,1.3,8.7997
114.69,39,1.3,4.8092
86.139,39.449,1.3,14.134
114.5,39.5,1.3,3.8012
52.859,39.75,1.3,3.7445
2.5,40,1.3,1.8348
83.25,40,1.3,2.2087
55.25,40.25,1.3,0.028812
2.75,40.5,1.3,2.3725
86.5,40.5,1.3,0.024333
110.35,40.798,1.3,0.8787
29.25,41,1.3,1.1969
33.033,40.718,1.3,6.401
83.598,40.978,1.3,4.2738
47.777,41.173,1.3,5.2062
85.831,41.406,1.3,7.8286
109,41.25,1.3,0.039943
117.75,41.5,1.3,0.28513
31.436,42,1.3,3.1184
4.5,42.5,1.3,3.2893
34.042,42.634,1.3,2.4397
1.25,43.081,1.3,2.7475
4.75,43.25,1.3,0.63129
42,43.5,1.3,3.7371
4.25,43.987,1.3,2.9298
40.75,43.75,1.3,0.84219
47.723,43.628,1.3,2.3512
4.2753,44.025,1.3,3.0106
32.013,44.237,1.3,3.0671
40.5,44.25,1.3,1.3547
1.4506,44.567,1.3,2.6635
34,44.5,1.3,1.0014
41.5,44.502,1.3,4.0576
118.25,44.5,1.3,0.055854
33.25,44.75,1.3,2.112
47.724,44.846,1.3,4.0952
3.75,45,1.3,0.27162
31.25,44.913,1.3,2.2098
33.75,45,1.3,2.3699
74,45,1.3,0.96915
115.71,45,1.3,0.63253
33,45.25,1.3,0.63709
42.507,45.25,1.3,1.2397
72.857,45.227,1.3,10.249
73.138,45.294,1.3,8.2957
77.721,45.475,1.3,7.6609
31.679,46.03,1.3,4.3785
46.554,45.839,1.3,1.898
48.5,45.87,1.3,3.6336
72.5,45.75,1.3,0.33485
3.5,45.937,1.3,3.1688
31.335,45.992,1.3,2.274
41.019,46,1.3,1.9701
8.1566,46.25,1.3,2.0164
75.554,46.346,1.3,1.792
79,46.239,1.3,2.7638
8.3736,46.374,1.3,2.3134
47.25,46.532,1.3,1.5621
3.25,47,1.3,2.9916
75.524,46.654,1.3,6.2789
72.913,47.163,1.3,3.6374
115.87,47.072,1.3,4.3165
9,47.5,1.3,0.84134
116.8,47.295,1.3,3.5936
115,48,1.3,1.362
9.9421,48.403,1.3,5.0348
77.25,48.5,1.3,1.0272
78.539,48.519,1.3,4.5767
9.9596,48.644,1.3,6.3909
8.0527,49.053,1.3,0.20819
117.43,48.738,1.3,5.8428
31.028,49.273,1.3,7.7704
40,49.155,1.3,0.67785
32.75,49.353,1.3,1.5524
2.5001,49.674,1.3,7.3343
31.302,49.403,1.3,2.33
115.92,49.804,1.3,14.515
41.525,50.999,1.3,4.3617
33.25,51.038,1.3,2.8575
39.163,50.951,1.3,4.6435
39.75,51.136,1.3,2.238
57.385,51.281,1.3,15.164
105.15,51.25,1.3,0.29614
31,51.721,1.3,4.7124
33.466,51.466,1.3,3.1268
1.75,51.724,1.3,2.168
32.5,51.67,1.3,1.9963
69.25,51.75,1.3,1.0593
120.75,51.537,1.3,0.73479
68.75,52,1.3,1.1209
121.25,52,1.3,2.6327
1.5,52.25,1.3,0.39354
42.85,52.448,1.3,2.7719
43.5,52.25,1.3,3.5211
68.292,52.688,1.3,4.3087
121.59,52.418,1.3,3.6665
31.75,52.75,1.3,0.28459
31.25,52.915,1.3,1.1887
1.75,53.165,1.3,2.7335
32,53.25,1.3,0.1627
116.75,53.25,1.3,0.10526
120.25,53.5,1.3,0.16558
39.356,53.75,1.3,2.7337
14.284,54.025,1.3,2.1562
67.57,53.96,1.3,4.8991
31.25,54.25,1.3,1.8146
105.66,54.276,1.3,5.2665
32.75,54.5,1.3,0.18537
105.32,54.453,1.3,6.8272
106.63,54.5,1.3,3.0983
31,54.756,1.3,1.9414
38.676,55.17,1.3,0.53409
2.9383,55.438,1.3,3.0814
42.25,55.25,1.3,2.9802
43.25,55.25,1.3,1.6808
107,55.25,1.3,0.22793
33.935,55.685,1.3,0.40329
66.456,55.294,1.3,3.448
69.218,55.454,1.3,6.6929
31.25,55.697,1.3,2.8432
39.25,55.75,1.3,0.048133
104.75,55.75,1.3,1.3157
32.25,56,1.3,0.22973
38.25,56,1.3,0.67045
66.713,56.037,1.3,1.3118
36.772,56.178,1.3,0.54878
69.414,56.047,1.3,4.0669
31.5,56.5,1.3,0.33178
36.092,56.75,1.3,0.75928
38.598,56.598,1.3,2.9015
66.25,56.75,1.3,0.27028
104.34,56.707,1.3,10.618
109.66,56.75,1.3,0.90323
31.25,57.196,1.3,3.6147
41.536,57.003,1.3,3.3811
70,57,1.3,2.0993
107.75,56.94,1.3,11.08
109.46,56.786,1.3,0.53715
2.6847,57.315,1.3,4.5319
40.748,57.308,1.3,2.7907
55.75,57.25,1.3,0.16104
65.5,57.015,1.3,1.6616
87.586,57.214,1.3,20.173
89.155,57.399,1.3,7.7467
104.03,57.223,1.3,12.359
120.75,57.25,1.3,0.017732
64.25,57.5,1.3,2.108
70,57.5,1.3,0.21156
110.13,57.377,1.3,0.96866
2.439,57.724,1.3,5.4916
31.442,57.693,1.3,2.7864
63.75,57.75,1.3,1.8638
34.25,58,1.3,0.57688
40,58,1.3,1.6912
63,58.215,1.3,1.2772
64.25,58,1.3,0.48307
67.108,58,1.3,1.9421
68.5,58,1.3,0.88577
98.25,58,1.3,0.099106
103.75,58,1.3,0.29905
63.75,58.25,1.3,0.62297
71.839,58.118,1.3,6.0037
94.5,58.25,1.3,3.0389
16.75,58.5,1.3,2.2304
62.994,58.413,1.3,3.365
68.25,58.5,1.3,1.9269
93.259,58.603,1.3,2.8701
93.742,58.508,1.3,4.1365
74.232,58.732,1.3,1.195
39.75,59,1.3,0.2271
60.75,59,1.3,2.8771
71.25,59,1.3,0.42136
103.94,58.738,1.3,5.9307
33.702,59.202,1.3,1.6674
60.25,59.25,1.3,0.25405
68.59,59.049,1.3,4.3764
87.469,59.259,1.3,9.2482
89.159,59.091,1.3,2.6453
95.538,59.288,1.3,2.2837
122.77,59.25,1.3,0.099222
55.48,59.601,1.3,3.9043
66,59.5,1.3,1.4619
107.18,59.62,1.3,4.2229
95.75,59.654,1.3,1.0922
30.5,60.073,1.3,3.61
64.75,60,1.3,0.73118
105.75,60.374,1.3,9.234
118,60.056,1.3,0.55488
32.75,60.25,1.3,0.4656
55.551,60.133,1.3,2.8778
58.705,60.295,1.3,0.82906
92.467,60.169,1.3,5.7768
33.75,60.379,1.3,1.9299
58.039,60.326,1.3,4.5429
32.5,61,1.3,0.3451
54.25,61.02,1.3,6.2334
94.75,61.25,1.3,1.2983
94,61.5,1.3,14.002
30.726,61.524,1.3,2.1725
33.25,61.75,1.3,1.5317
109.41,61.75,1.3,1.1359
54.5,62,1.3,0.45855
59.912,62.063,1.3,6.5586
62.408,61.826,1.3,5.4113
120.94,61.809,1.3,0.86012
32.753,62.252,1.3,2.5425
33.5,62.573,1.3,2.5181
62.721,62.517,1.3,9.7738
73.25,62.251,1.3,0.81104
107.98,62.521,1.3,0.62031
32.25,63.095,1.3,0.90455
37.52,63.088,1.3,8.7392
55.127,62.779,1.3,6.9706
57.508,63.13,1.3,9.9192
57.473,62.959,1.3,6.8464
116.5,63,1.3,0.31963
29.75,63.337,1.3,4.7416
33.311,63.263,1.3,1.5154
107.5,63.25,1.3,0.12189
115.75,63.25,1.3,0.12814
4.1142,63.614,1.3,9.0807
35.75,63.5,1.3,0.11273
22.152,63.956,1.3,9.9076
29.616,63.634,1.3,3.862
67.086,63.75,1.3,1.5079
68.126,63.727,1.3,7.8885
111.25,64,1.3,0.32782
33.056,64.287,1.3,3.265
18.527,64.58,1.3,6.0032
39,64.5,1.3,1.5575
69.5,64.5,1.3,2.2414
32.75,65,1.3,0.43221
38.25,65,1.3,2.9611
122.16,64.844,1.3,0.27732
5.25,65.25,1.3,0.12457
36.5,65.25,1.3,1.8894
38.75,65.036,1.3,0.57919
66.5,65.131,1.3,2.2596
29.5,65.75,1.3,2.6753
38.25,65.75,1.3,3.6176
70,65.75,1.3,0.038661
3.5,65.842,1.3,2.3654
5.4368,66,1.3,2.6101
53.49,66,1.3,3.7168
69.5,66,1.3,2.5956
90.925,65.949,1.3,3.2365
32.139,66.278,1.3,6.6944
89.25,66.25,1.3,3.9134
31.5,66.5,1.3,0.063945
69.25,66.5,1.3,0.20781
67.631,66.75,1.3,3.5223
109.25,66.834,1.3,0.60674
68.412,66.873,1.3,5.6679
25.828,67.31,1.3,5.6719
32,67.25,1.3,3.0407
122.25,67.25,1.3,0.056803
27.839,67.583,1.3,2.6926
91.336,67.508,1.3,7.8498
106.25,67.412,1.3,1.2223
25.88,67.624,1.3,1.94
26.25,67.918,1.3,5.0866
89,68,1.3,4.5088
91.503,67.966,1.3,3.2086
112.96,67.812,1.3,0.7354
5.5279,68.478,1.3,3.7164
27.237,68.402,1.3,2.388
109,68.246,1.3,0.48225
26.022,68.5,1.3,2.8797
89.25,68.5,1.3,3.2433
25.5,68.75,1.3,1.7318
61.494,68.744,1.3,0.58309
119.49,68.506,1.3,0.096592
90.165,69.038,1.3,4.8111
90.91,69,1.3,2.3981
7.8849,69.186,1.3,9.459
27.213,69.631,1.3,2.6569
4.5871,69.91,1.3,3.1106
8.1806,69.47,1.3,6.2924
8.75,69.75,1.3,0.82103
26.312,69.376,1.3,5.4049
63.412,69.588,1.3,0.26037
108.75,69.705,1.3,0.47962
116.7,69.75,1.3,0.50499
4.4042,70,1.3,3.1919
97.27,69.87,1.3,9.8838
66.75,70.436,1.3,0.35867
10.505,70.505,1.3,2.7192
122.7,70.75,1.3,0.19048
11.25,71,1.3,1.3396
70.027,71.223,1.3,0.40691
112.22,71,1.3,0.24217
50.75,71.25,1.3,0.33026
29.544,71.348,1.3,2.6251
62,71.483,1.3,0.415
15.5,71.75,1.3,0.27392
50.5,71.75,1.3,0.044998
4.8504,71.798,1.3,2.4709
8,72,1.3,1.226
106.61,72.224,1.3,0.89412
8.75,72.5,1.3,1.1631
9.7744,72.616,1.3,0.94445
12.25,72.75,1.3,2.8121
50.266,73.122,1.3,18.142
6.7729,73.263,1.3,3.606
7.2248,73.311,1.3,3.6112
12.5,73.25,1.3,0.38812
33.074,73.398,1.3,3.861
32.492,73.487,1.3,3.365
1.25,73.75,1.3,0.76791
31.96,73.75,1.3,5.9457
84.864,73.75,1.3,0.061962
12.25,74,1.3,2.8233
32.65,74,1.3,2.5383
44.317,73.933,1.3,2.0723
97.25,74.263,1.3,0.77467
9.0426,74.514,1.3,8.3561
12.081,74.511,1.3,1.6568
61.256,74.5,1.3,0.66405
61.742,74.584,1.3,0.72751
63.75,74.5,1.3,0.080537
92,74.5,1.3,0.11694
9.5555,74.893,1.3,6.2178
44.012,74.519,1.3,14.52
56.495,74.505,1.3,0.15457
63.25,74.75,1.3,0.065215
12.008,75.096,1.3,1.9801
34.25,75,1.3,1.4338
31.664,74.965,1.3,5.8827
44.25,75.373,1.3,1.4852
34.578,75.578,1.3,0.91392
92.75,75.75,1.3,0.30202
32.196,75.946,1.3,3.4054
34.516,75.984,1.3,3.591
52.25,76,1.3,0.1033
84.482,76,1.3,0.29369
11.056,76.25,1.3,2.2491
35.25,77,1.3,2.3243
44,77.007,1.3,0.61437
55.517,77,1.3,0.74624
32.75,77.205,1.3,2.7576
33.274,77.386,1.3,5.043
81.06,77.113,1.3,0.35858
39.593,77.5,1.3,3.5608
99.514,77.514,1.3,0.66135
112.51,77.539,1.3,0.62493
39.931,77.611,1.3,5.4308
95.81,78,1.3,4.4402
9.7053,78.561,1.3,7.4406
12.25,78.501,1.3,1.4501
37.25,78.644,1.3,5.2885
41.5,78.769,1.3,3.9515
63,79,1.3,0.17231
67.336,79,1.3,0.083726
12.5,79.25,1.3,2.2472
37.315,79.298,1.3,7.6377
64.045,79.346,1.3,0.85831
64.584,79.25,1.3,0.3186
95.044,79.369,1.3,6.6396
75.25,79.5,1.3,0.035465
96.021,79.5,1.3,7.8785
10.02,79.712,1.3,4.5314
38.764,80.247,1.3,2.79
56.25,80.016,1.3,0.54646
94,80.25,1.3,0.38758
12.5,80.517,1.3,2.2032
83.75,80.437,1.3,0.041533
99.5,80.71,1.3,0.89292
113.24,80.699,1.3,0.63267
9.8616,80.638,1.3,1.1785
91.75,80.75,1.3,0.017994
39.115,81.094,1.3,10.775
41.838,81.09,1.3,2.5644
83.75,81,1.3,0.068853
113.33,80.997,1.3,0.9369
82.75,81.25,1.3,0.37925
9.5,81.5,1.3,2.977
12.387,81.57,1.3,3.8196
85,81.5,1.3,0.26758
42.138,81.56,1.3,4.1628
59.02,82.055,1.3,0.90793
87.75,82,1.3,0.015996
9.18,82.25,1.3,6.5812
41.75,82.25,1.3,2.2799
6.3147,82.5,1.3,1.1519
106.25,82.75,1.3,0.4759
74.778,83.309,1.3,9.5095
90.75,82.817,1.3,0.97591
12.5,83.25,1.3,2.712
64,83.25,1.3,0.68573
87.267,83.25,1.3,0.28059
92.25,83.03,1.3,0.27661
92.779,83.471,1.3,0.61364
102.25,83.25,1.3,0.037233
38.914,83.424,1.3,6.9352
109.81,83.5,1.3,0.73669
113.47,83.5,1.3,0.61538
57.691,83.559,1.3,0.77559
64.5,83.75,1.3,0.58057
109.45,83.598,1.3,0.41088
39,84,1.3,0.040907
108.75,84,1.3,0.25688
10,84.25,1.3,1.7315
42.75,84.334,1.3,3.495
43.25,84.494,1.3,4.2356
74.5,84.5,1.3,0.32561
39.25,84.75,1.3,4.8483
67.25,84.75,1.3,0.13929
79.25,84.678,1.3,0.2489
13,85.25,1.3,1.0472
13.634,85.282,1.3,5.1922
64.253,85.253,1.3,0.49277
90.836,85.336,1.3,0.39105
96.75,85.25,1.3,0.71839
89.897,85.35,1.3,0.26688
6.5148,85.771,1.3,3.4035
9.6485,85.9,1.3,5.7291
43,85.65,1.3,3.8367
50,85.75,1.3,0.42345
65,85.75,1.3,0.1035
91.5,85.75,1.3,0.35974
106.42,85.462,1.3,1.8614
13.169,86.169,1.3,2.5368
58.75,86,1.3,0.17746
82.841,86.043,1.3,0.57977
9.65,86.195,1.3,5.1879
42.5,86.25,1.3,0.48192
58.5,86.5,1.3,0.069205
82.863,86.377,1.3,0.32633
6.75,86.549,1.3,3.9977
7.75,86.882,1.3,2.4108
12.861,86.75,1.3,4.6742
42.25,86.85,1.3,3.7957
61.191,87.078,1.3,0.18029
111.09,86.931,1.3,1.0148
111.53,87.009,1.3,1.949
11.015,87.097,1.3,3.7025
40.181,86.846,1.3,10.361
92.085,87.095,1.3,0.84187
13.25,87.25,1.3,3.4699
42.18,87.108,1.3,3.5245
67.5,87.25,1.3,1.054
66.794,87.505,1.3,4.9406
113.5,87.5,1.3,0.45247
8.5,87.75,1.3,1.8547
66.42,87.75,1.3,2.3175
108.72,87.973,1.3,1.2263
7.75,88,1.3,3.6416
94.998,88.174,1.3,0.52419
113.25,88,1.3,0.30069
6.5299,88.25,1.3,4.2002
29.5,88.25,1.3,5.7786
73.964,88.041,1.3,0.59697
117.21,88.5,1.3,1.5718
120.75,88.718,1.3,0.76994
29.75,89,1.3,1.7287
59.25,89,1.3,0.41308
61.25,89.543,1.3,0.096094
110.75,89.75,1.3,0.19131
111.57,89.991,1.3,0.46538
112.54,90.008,1.3,0.58658
93.25,90.25,1.3,0.48239
80.25,90.5,1.3,0.3633
116.75,90.5,1.3,0.23563
27.79,90.79,1.3,3.1296
3.6385,91.209,1.3,5.1175
27.25,91,1.3,0.75582
28.205,90.824,1.3,4.4998
80,91,1.3,0.10153
85.379,91.129,1.3,0.26998
3.9579,91.161,1.3,5.1411
26.75,91.25,1.3,0.047216
56.5,91.441,1.3,1.0221
74,91.25,1.3,0.12444
78,91.25,1.3,0.083263
85.565,91.25,1.3,0.21546
2.5635,91.79,1.3,5.0013
44.5,91.599,1.3,0.78959
57,91.5,1.3,0.18575
66.75,91.453,1.3,1.0772
113.5,91.5,1.3,0.58798
40.748,91.75,1.3,0.96453
62.853,92.023,1.3,3.1244
70,92,1.3,0.19027
107,92,1.3,0.24303
28.5,92.011,1.3,1.6213
88.5,92.243,1.3,0.11466
92.531,92.299,1.3,1.5932
106.5,92.25,1.3,0.122
14.089,92.397,1.3,22.571
26.388,92.381,1.3,15.626
91.373,92.373,1.3,0.41125
92.482,92.32,1.3,1.5463
69.75,92.75,1.3,0.89333
108.5,92.75,1.3,0.042866
68.657,93.095,1.3,0.3925
109,93,1.3,0.14223
109.5,93,1.3,0.29682
27.582,93.533,1.3,11.376
32.25,93.25,1.3,0.20988
42,93.25,1.3,0.015803
50.129,93.129,1.3,7.7456
68.463,93.25,1.3,0.23201
31.75,93.5,1.3,0.14686
67.5,93.5,1.3,0.61363
69.249,93.487,1.3,0.47976
110.29,93.66,1.3,1.9708
38.25,93.887,1.3,0.98952
80.584,93.941,1.3,1.1703
110.36,93.863,1.3,1.4462
14.097,94.326,1.3,5.9038
41.703,94.547,1.3,0.047496
98.541,94.635,1.3,0.6603
51.671,94.764,1.3,6.9632
66.437,94.729,1.3,1.0529
74.34,94.512,1.3,0.89482
99.25,94.701,1.3,0.55867
113,94.75,1.3,0.1027
51.802,94.796,1.3,6.2815
53.5,95,1.3,1.2395
57.543,95.135,1.3,0.74742
64.25,95.25,1.3,0.4713
76.25,95.25,1.3,0.56515
88,95.25,1.3,0.12406
92.541,95.388,1.3,1.2127
53.75,95.659,1.3,1.54
61.598,96.073,1.3,0.83852
107,96,1.3,1.0269
114.5,96,1.3,0.50288
53.75,96.25,1.3,2.3268
60.5,96.25,1.3,0.29687
62.454,96.25,1.3,0.48965
69.888,96.234,1.3,2.7189
31.5,96.5,1.3,0.084552
61.75,96.422,1.3,0.5406
86,96.5,1.3,0.21532
96.75,96.54,1.3,0.47469
109.25,96.5,1.3,0.14393
13.544,96.602,1.3,3.4519
103.04,96.75,1.3,0.31613
79.5,97,1.3,0.62127
90.786,97,1.3,0.29256
14.5,97.25,1.3,5.3619
32.163,97.413,1.3,0.46581
52,97.25,1.3,3.3079
53.107,97.268,1.3,6.7704
72.75,97.25,1.3,0.66349
31.266,97.443,1.3,1.4715
41.845,97.345,1.3,0.7525
91.879,97.5,1.3,0.2384
15.114,97.549,1.3,10.156
23.5,97.75,1.3,0.11778
25.031,97.781,1.3,0.60537
31.192,97.654,1.3,1.2045
32.25,97.697,1.3,1.0546
79.25,97.75,1.3,0.4359
91.468,97.737,1.3,0.91999
86,97.864,1.3,0.60445
47.583,98.134,1.3,3.3215
66.81,98.414,1.3,1.1122
88.75,98.25,1.3,0.084844
2.2327,98.639,1.3,7.3377
25.75,98.5,1.3,0.24989
62.5,98.362,1.3,0.54039
82.75,98.333,1.3,0.48796
12.751,98.582,1.3,7.6975
47.75,98.75,1.3,0.055008
70.75,98.75,1.3,0.26718
77,98.75,1.3,0.19487
94.09,98.75,1.3,0.27187
43.25,98.973,1.3,0.63433
76.302,99,1.3,0.90461
78.5,99.139,1.3,0.40946
113,99,1.3,0.058445
113.9,98.755,1.3,1.7467
14.939,99.439,1.3,4.77
60.744,99.25,1.3,0.19537
75.666,99.25,1.3,1.38
93.694,99.25,1.3,0.27588
109.49,99.221,1.3,3.6046
32,99.5,1.3,0.053788
96.44,99.396,1.3,2.8167
15,99.591,1.3,5.2913
57.372,99.77,1.3,1.8322
63.679,99.596,1.3,2.0938
66.25,99.75,1.3,0.2117
76.15,99.75,1.3,0.31511
84.835,99.75,1.3,0.28238
4,100.03,1.3,1.8413
14.484,99.946,1.3,5.5903
32.25,100,1.3,0.11611
37.5,100,1.3,0.024754
53.5,100,1.3,0.76454
60.328,100,1.3,0.15564
50.529,100.28,1.3,0.4057
13.75,100.55,1.3,2.5472
55.93,100.5,1.3,0.72235
81.811,100.44,1.3,1.1105
1.4256,100.68,1.3,2.4718
43.25,100.91,1.3,0.38801
50.899,100.73,1.3,0.67784
111.58,100.75,1.3,0.90749
40.25,101,1.3,0.77451
56,101.14,1.3,0.71129
87.745,101.2,1.3,1.4011
115.35,101.35,1.3,0.28766
3.75,101.5,1.3,4.2974
91.498,101.5,1.3,0.20594
115.67,101.35,1.3,0.49969
117.5,101.5,1.3,0.33556
2.6154,101.75,1.3,1.5773
93.216,101.72,1.3,1.0138
122,101.84,1.3,0.60536
32.25,102,1.3,0.28943
44.106,102.11,1.3,1.2191
118,101.81,1.3,1.2847
13.75,102.25,1.3,0.87087
38.5,102.25,1.3,0.39237
40.5,102.25,1.3,0.080053
46,102.25,1.3,0.33767
86.25,102.32,1.3,0.69063
93.25,102.24,1.3,0.54624
107.08,102.26,1.3,0.40822
51,102.55,1.3,0.77423
70,102.5,1.3,0.42608
95.5,102.82,1.3,0.64229
60.75,103,1.3,0.066904
13,103.25,1.3,3.7657
27.5,103.25,1.3,0.15562
65.926,103.19,1.3,0.63684
58.862,103.5,1.3,0.14475
75.5,103.5,1.3,0.046354
12.75,103.75,1.3,2.4595
14.588,103.48,1.3,14.149
79.907,103.94,1.3,2.6644
84.176,103.57,1.3,1.3895
74.932,103.85,1.3,14.444
76.357,103.86,1.3,4.3169
74.5,104.05,1.3,1.2251
121.37,104.25,1.3,1.2046
76.75,104.53,1.3,5.0019
88.892,104.78,1.3,0.50217
13.473,104.92,1.3,12.52
58,104.5,1.3,0.31337
53.25,105,1.3,0.21081
57.5,105.02,1.3,0.18073
73.706,105.34,1.3,5.5871
118.75,105,1.3,0.067353
119.41,105.16,1.3,0.28768
52.985,105.52,1.3,1.1835
57.333,105.42,1.3,0.057236
86.673,105.47,1.3,4.0141
122.72,105.5,1.3,1.7637
20.265,105.76,1.3,0.66277
73.634,105.98,1.3,13.191
77,105.91,1.3,3.0807
83.25,106.02,1.3,0.56549
30,106.25,1.3,0.080466
76.863,106.18,1.3,4.3377
56.86,106.98,1.3,1.6227
103.5,107,1.3,0.46013
63.867,107.52,1.3,1.6604
80.75,107.38,1.3,1.8731
103.92,107.5,1.3,0.63359
120.25,107.5,1.3,0.21065
67.013,107.92,1.3,0.46256
74.266,107.89,1.3,8.1481
75.75,107.75,1.3,3.0945
121.67,107.63,1.3,1.3232
104.35,107.85,1.3,3.9324
104.95,108.25,1.3,1.8816
27,108.5,1.3,0.33343
61.5,108.5,1.3,0.10362
88.787,108.72,1.3,0.74396
73.692,109.31,1.3,1.5154
77.179,109.45,1.3,1.1565
28,109.5,1.3,0.081914
73.365,109.55,1.3,1.593
18.5,109.75,1.3,0.23406
54.664,110.13,1.3,1.2333
8.4597,110.16,1.3,7.4862
27.75,110,1.3,0.050836
68.564,110.25,1.3,0.19385
7.1522,110.6,1.3,0.76461
8.0827,110.5,1.3,4.4468
8.4629,110.61,1.3,9.7538
80.343,110.87,1.3,2.2061
7.2067,111.18,1.3,3.7968
9.25,111.11,1.3,2.2628
19.162,110.9,1.3,26.083
75.75,111.25,1.3,0.080504
9.3989,111.46,1.3,3.5776
57.768,111.28,1.3,2.8222
60.25,111.5,1.3,0.12143
8.2913,111.96,1.3,5.3446
19.25,112,1.3,1.647
28,112,1.3,0.85509
55.5,112,1.3,0.059548
22.75,112.25,1.3,0.058907
83.454,112.25,1.3,0.90943
7.9872,112.5,1.3,4.7161
35.578,112.29,1.3,0.76129
51.351,112.49,1.3,0.87905
66,112.5,1.3,0.040864
42,112.75,1.3,0.33812
51.546,112.55,1.3,0.57388
41,113,1.3,0.14137
14.174,113.31,1.3,10.184
37.75,113.25,1.3,0.47739
43.371,113.27,1.3,0.74997
54.2,113.5,1.3,0.31156
67.272,113.75,1.3,0.27259
80.25,113.96,1.3,0.71733
32.069,113.91,1.3,1.2703
38.79,113.99,1.3,0.52764
78.75,114.24,1.3,0.32108
39.887,114.62,1.3,0.5517
56.714,115.04,1.3,0.3438
29,115.25,1.3,0.15354
46.907,115.06,1.3,1.5825
63.248,115.19,1.3,11.117
64.785,115.28,1.3,2.8
13.447,115.79,1.3,5.2067
36,115.75,1.3,0.021246
46,115.75,1.3,0.13944
52,115.77,1.3,0.53411
52.5,116,1.3,0.51602
65.25,116,1.3,1.544
22.458,116.25,1.3,1.0129
36.847,116.27,1.3,1.2601
41.368,116.53,1.3,0.68237
62.868,116.5,1.3,7.7728
13.476,116.61,1.3,10.077
56.622,116.87,1.3,1.4865
25.82,116.99,1.3,1.2301
62.949,117.13,1.3,7.6948
73.963,117.16,1.3,1.1404
76.789,117.08,1.3,0.71405
8.25,117.53,1.3,0.25981
14.06,117.69,1.3,11.396
33.112,117.6,1.3,1.6726
43.75,117.4,1.3,0.08823
49.091,117.59,1.3,0.31553
53.766,117.68,1.3,2.6555
62.92,117.26,1.3,5.1574
65.064,117.66,1.3,8.8242
12.5,117.83,1.3,1.784
13.5,117.75,1.3,0.94046
49.25,117.82,1.3,0.19945
64,118.25,1.3,3.4809
13.06,118.94,1.3,2.6334
43.539,118.75,1.3,0.53187
57.5,118.75,1.3,0.08746
106.42,118.75,1.3,0.3028
28.179,119,1.3,0.058634
50.5,119,1.3,0.076211
13,119.01,1.3,2.3182
38.12,119.68,1.3,1.9164
120.92,119.25,1.3,0.52874
13.388,119.83,1.3,2.5725
56.75,119.63,1.3,0.52552
30.25,120.14,1.3,0.12413
76.5,120.11,1.3,0.16061
102.07,119.72,1.3,0.55372
50.795,120.1,1.3,0.73873
33.25,120.67,1.3,0.27099
44.584,120.45,1.3,0.78551
56,120.5,1.3,0.035041
105.42,120.41,1.3,1.8261
22.375,120.56,1.3,1.0178
34.75,120.75,1.3,0.45911
78.75,120.75,1.3,0.52918
8.5442,120.99,1.3,4.662
33.045,120.95,1.3,0.69701
55.75,121,1.3,0.45887
53,121.25,1.3,0.40705
74.75,121.25,1.3,0.15724
8.281,121.47,1.3,4.5911
25.288,121.5,1.3,0.29792
9.75,121.75,1.3,1.0507
7.25,122.24,1.3,4.7705
40.883,122,1.3,0.10262
10,122.25,1.3,1.2337
39.989,122.32,1.3,1.0522
65.75,122.25,1.3,0.71388
66.25,122.25,1.3,3.1738
103,122.25,1.3,0.17256
124,122.25,1.3,0.80553
65.25,122.61,1.3,3.4302
43.202,122.85,1.3,1.0872
74.614,122.52,1.3,1.0533
107.75,122.89,1.3,0.55144
13.746,122.91,1.3,9.4046
57.25,123,1.3,0.62075
101.52,123,1.3,0.42136
20.25,123.22,1.3,0.45881
67,123.25,1.3,2.9609
49.658,123.49,1.3,1.2294
121.19,123.5,1.3,0.63053
10,123.75,1.3,2.3128
53.75,123.8,1.3,0.71291
