77.5,1.25,1.3,2.0853
7.4202,1.4601,1.3,2.5486
122,1.5,1.3,0.47967
8.0759,1.8092,1.3,3.5765
67.317,1.75,1.3,0.23562
78.208,1.8109,1.3,6.5108
122.45,2.1987,1.3,0.39995
1.75,2.614,1.3,1.569
96.313,2.5298,1.3,0.17799
71.5,2.75,1.3,0.034972
37.25,3,1.3,0.58249
5.5,3.25,1.3,0.78721
38.136,3.5,1.3,0.38992
5.25,3.75,1.3,2.1909
8.9113,4.1613,1.3,5.8001
85.75,4.25,1.3,0.22243
119.96,4.4504,1.3,0.45693
2.75,4.5,1.3,0.48226
48.5,4.5,1.3,0.1345
83.444,4.4245,1.3,2.2981
81.94,4.5948,1.3,3.8172
92,5.5,1.3,0.6053
1.75,5.75,1.3,0.20779
7.5166,5.7334,1.3,1.5799
66.5,5.6691,1.3,0.57257
1.25,6,1.3,2.8715
3.6627,6.0496,1.3,2.1251
75.5,6,1.3,0.033085
7.25,6.1203,1.3,0.61466
43.25,6.25,1.3,0.50284
69.104,6.4272,1.3,5.4013
84.344,6.3659,1.3,2.5997
95.179,6.3698,1.3,0.45588
38.181,6.2074,1.3,7.0451
41.75,6.5,1.3,0.49898
86.5,6.6277,1.3,8.4884
7.5,6.75,1.3,3.3154
123.01,6.75,1.3,0.44132
84.75,7.25,1.3,1.6169
6.2328,7.5,1.3,1.5316
5.7628,7.7372,1.3,2.0194
16.5,7.75,1.3,0.84617
37.748,7.7933,1.3,6.4196
65.604,7.4365,1.3,0.53579
68.65,7.7736,1.3,2.2537
15.733,7.6404,1.3,1.7023
37.254,7.9843,1.3,3.5853
82.75,8,1.3,0.27852
4.772,8.25,1.3,3.3488
6.7448,8.3076,1.3,3.8004
18.237,8.4867,1.3,2.1624
38.358,8.2593,1.3,14.848
68.401,8.3125,1.3,7.1309
86.592,8.2544,1.3,30.124
96.061,8.5703,1.3,1.1278
18.275,8.6868,1.3,7.9086
96.734,8.7656,1.3,1.1001
96.19,8.9129,1.3,0.86917
17.417,9.25,1.3,1.1348
18.5,9.25,1.3,0.22124
27.75,9.5,1.3,0.65072
86.25,9.75,1.3,0.074196
95.148,9.6478,1.3,3.3687
93.747,9.999,1.3,0.3953
38,10.479,1.3,0.88536
86.25,10.385,1.3,0.19913
96.381,10.75,1.3,4.0836
27.501,11.363,1.3,7.5562
55.75,11.25,1.3,0.51878
26.793,11.957,1.3,1.4728
59.791,11.75,1.3,0.2799
34.25,12,1.3,2.0639
2.7793,12.279,1.3,2.9005
29.269,12.269,1.3,1.6427
35.125,12.389,1.3,3.1755
44.82,12.25,1.3,0.38481
62.5,12.088,1.3,0.3867
94.5,12.25,1.3,0.6214
26.5,12.5,1.3,0.35763
32.443,12.579,1.3,2.1551
32.642,12.654,1.3,3.1157
1.4681,13.032,1.3,1.2224
49.514,13,1.3,0.96357
3.5073,13.616,1.3,5.582
85.894,13.25,1.3,0.24137
87.814,13.25,1.3,0.63275
15,13.5,1.3,0.2653
49.105,13.5,1.3,0.45322
55.674,13.246,1.3,0.86001
27.358,13.343,1.3,19.405
32.858,14.049,1.3,14.731
35.75,14.5,1.3,0.85121
61.264,14.683,1.3,4.7477
1.6719,14.887,1.3,4.3596
52.203,14.953,1.3,1.0039
95.385,15.057,1.3,1.1703
2.9339,15.208,1.3,6.9913
35.771,15.256,1.3,3.1902
61.25,14.839,1.3,4.9449
71.5,15,1.3,0.10812
92.214,15.274,1.3,0.81127
14,15.163,1.3,0.13949
76.504,15.25,1.3,0.35343
34.45,15.5,1.3,5.7136
35.803,15.398,1.3,4.1591
51.75,15.98,1.3,0.82155
57.573,15.731,1.3,1.5414
60.422,15.828,1.3,3.9857
60.066,16,1.3,4.5116
75.25,16,1.3,0.23262
91.75,16,1.3,0.02531
63.105,16.25,1.3,2.9588
96.14,16.25,1.3,1.5979
63.421,16.523,1.3,4.8044
88.181,16.819,1.3,0.52899
67.25,17,1.3,0.32798
90.75,17.182,1.3,0.23227
60.964,17.5,1.3,3.8515
61.998,17.607,1.3,3.5806
85.5,17.5,1.3,0.3376
38.116,17.707,1.3,8.8828
63.25,17.75,1.3,1.0357
65.608,17.684,1.3,3.7599
74.691,17.744,1.3,0.96131
75.75,17.75,1.3,0.50406
77.723,17.723,1.3,0.35386
20.5,18.25,1.3,1.6216
39.085,18.335,1.3,1.8418
73.241,18.276,1.3,6.7152
88.25,18.25,1.3,0.12326
51.145,18.462,1.3,2.9802
119.12,18.623,1.3,0.079525
91.152,18.902,1.3,0.29019
119.4,18.75,1.3,0.09495
20.621,19.428,1.3,8.9306
64.25,19.117,1.3,1.9792
64.75,19.021,1.3,4.5192
80.09,19.445,1.3,4.259
94.206,19.294,1.3,0.70363
100.77,19.182,1.3,0.70177
48.5,19.649,1.3,0.81605
51.547,19.547,1.3,1.4828
85.259,19.462,1.3,0.88421
89,19.75,1.3,0.21684
20.153,20.097,1.3,2.96
20.07,20.363,1.3,2.2705
51.694,20.026,1.3,5.332
80.048,20.347,1.3,15.862
97.355,20.498,1.3,3.7022
20,20.72,1.3,3.5557
22.802,21.197,1.3,3.2698
1.7289,20.831,1.3,0.1641
55.25,20.844,1.3,0.89824
120.87,21.126,1.3,1.0308
23.141,21.178,1.3,8.3426
78.636,21.677,1.3,5.3796
99.75,21.5,1.3,0.12426
20.591,21.846,1.3,7.9194
78.571,21.723,1.3,4.243
80.371,22.121,1.3,2.9712
87.25,22,1.3,0.40312
21.25,22.25,1.3,0.81884
57.426,22.324,1.3,2.2719
80.631,22.381,1.3,3.0018
115.38,22.5,1.3,0.085015
57.434,22.729,1.3,3.0179
64.75,22.75,1.3,0.11522
76,22.75,1.3,0.48134
91.923,22.75,1.3,0.79597
100.25,22.75,1.3,0.65115
78.75,23,1.3,0.76313
22.481,23.25,1.3,4.2233
40.596,22.928,1.3,3.5379
57.342,23.38,1.3,2.1044
47.702,23.603,1.3,6.6553
79,23.5,1.3,0.84753
95.83,23.615,1.3,0.55166
80.146,23.858,1.3,6.6869
102.2,24.006,1.3,0.68336
110.45,24.022,1.3,0.76215
120,24,1.3,0.17768
40.25,24.285,1.3,3.751
118.25,24.25,1.3,0.080652
104.79,24.54,1.3,0.15265
105.33,24.517,1.3,0.46769
41.854,24.696,1.3,3.3143
15.5,25.068,1.3,4.2492
16,25.446,1.3,5.0405
98.326,25.326,1.3,1.0497
117.25,25.25,1.3,0.20051
15.38,25.553,1.3,3.9474
24.25,25.5,1.3,0.66386
78,25.5,1.3,0.40772
94.026,25.578,1.3,0.75151
21.038,25.788,1.3,0.45306
78.5,25.75,1.3,0.12842
116.5,25.753,1.3,0.15887
16.25,26,1.3,3.5758
24.567,25.963,1.3,2.7021
48.991,26.191,1.3,8.8723
116,26,1.3,0.23154
20.341,26.409,1.3,0.41243
50,26.25,1.3,3.0473
95.299,26.25,1.3,0.10613
15.258,26.714,1.3,9.4891
50.75,26.5,1.3,0.052399
86.13,26.456,1.3,0.68107
101.56,26.413,1.3,0.66315
107.25,26.5,1.3,1.0335
108.25,26.5,1.3,0.20753
109.25,26.5,1.3,0.77412
112.34,26.272,1.3,0.60736
5.0819,27.211,1.3,0.60667
79.25,27,1.3,0.42193
81.856,27,1.3,2.2443
87.643,26.893,1.3,0.75032
120.68,26.972,1.3,0.2732
51.123,27.215,1.3,10.21
79.75,27.287,1.3,1.8469
80.588,27.275,1.3,5.9
81.081,27.101,1.3,20.528
48.839,27.731,1.3,3.6978
97.797,27.812,1.3,1.495
14.48,28,1.3,1.7081
52,27.933,1.3,4.1713
85.25,28,1.3,0.69708
104.19,27.938,1.3,1.9926
110.25,28,1.3,0.88464
3.25,28.5,1.3,0.26047
14.195,28.5,1.3,1.6779
17,28.5,1.3,3.3257
51.5,28.5,1.3,2.893
83,28.75,1.3,1.1484
86,28.75,1.3,1.7237
14.348,29,1.3,5.9311
58.5,29,1.3,0.076653
109.31,29.015,1.3,6.5601
16.75,29.25,1.3,0.74122
117.72,29.328,1.3,0.48833
50.01,29.528,1.3,9.9729
86.823,29.506,1.3,6.4785
10,29.75,1.3,0.14064
15.272,30.022,1.3,4.9515
108.13,29.927,1.3,4.2259
110.99,29.994,1.3,8.0689
15.902,30.209,1.3,4.8742
85.209,30.501,1.3,3.6416
1.7249,30.75,1.3,0.17896
4.75,31.25,1.3,0.16981
15.75,31.25,1.3,0.46089
87.25,31.25,1.3,1.7589
119.33,31.25,1.3,0.8774
36.034,31.749,1.3,2.9865
77.027,31.75,1.3,0.70188
86.777,31.6,1.3,16.589
97.25,31.75,1.3,0.23017
110.53,31.828,1.3,16.935
116.42,31.636,1.3,2.8202
3.7686,31.779,1.3,0.62262
81.776,32.064,1.3,0.19959
94.201,32,1.3,0.9044
108.85,32.018,1.3,9.8978
3.25,32.25,1.3,0.88656
7,32.25,1.3,0.62227
28.25,32.25,1.3,0.2681
33.804,32.25,1.3,1.7641
35.996,32.352,1.3,3.4746
81.97,32.449,1.3,0.24067
86.619,32.381,1.3,2.2335
28,32.75,1.3,0.28191
34.861,32.552,1.3,5.5006
117.13,32.901,1.3,19.902
6.25,33.25,1.3,0.13369
14.128,33.25,1.3,0.21198
43.023,33.666,1.3,2.9407
86.75,33.75,1.3,0.6098
95.316,33.739,1.3,9.3235
35,34,1.3,0.62895
36.063,34.043,1.3,6.6277
85.75,34,1.3,0.078127
97.221,33.979,1.3,3.642
97.257,33.977,1.3,3.4698
3.5,34.25,1.3,0.48182
27,34.25,1.3,0.040647
50.232,34.25,1.3,0.24826
59.5,34.545,1.3,0.61769
81.5,34.5,1.3,0.68921
6,34.75,1.3,0.64966
70,34.75,1.3,0.059584
106.5,34.75,1.3,0.096623
8.25,35,1.3,0.68692
97.756,34.97,1.3,9.9263
116.75,35,1.3,0.015726
1.5,35.5,1.3,0.044585
65.871,35.595,1.3,4.5757
116.5,35.5,1.3,0.59629
32.798,35.952,1.3,0.4816
77.105,35.645,1.3,0.079877
94.234,35.658,1.3,4.2395
27.768,35.723,1.3,2.2175
28.244,35.994,1.3,0.77368
32.618,36,1.3,0.67235
29,36.25,1.3,0.15983
75.893,36.75,1.3,0.18449
61.445,37,1.3,0.74813
63,37,1.3,0.61529
75.632,36.868,1.3,0.15964
4.75,37.25,1.3,0.053147
62.441,37.191,1.3,0.74249
26.351,37.5,1.3,1.0849
65.5,37.5,1.3,0.055872
98.399,37.196,1.3,14.641
64,37.75,1.3,0.14599
94.562,37.874,1.3,4.6997
94.635,37.823,1.3,7.1221
3.5455,37.954,1.3,1.1025
11.5,38,1.3,0.22259
16.5,38,1.3,0.36569
69.941,38.059,1.3,0.23728
96,38,1.3,2.4289
105.5,38,1.3,0.39919
44.778,38.013,1.3,19
63.5,38.25,1.3,0.39518
97.183,38.477,1.3,6.5196
6.5202,38.27,1.3,0.42134
16.25,38.5,1.3,0.21205
64,38.75,1.3,0.096787
69.824,38.756,1.3,0.56184
73.295,38.75,1.3,0.26275
73.723,38.75,1.3,0.41509
24,39.144,1.3,0.10437
93.295,39.11,1.3,1.0275
107.75,38.802,1.3,0.50259
10.39,39.571,1.3,0.45452
15.372,39.106,1.3,1.0129
75,39.25,1.3,0.49032
83.5,39.25,1.3,0.19661
87.5,39.25,1.3,0.39855
44.008,39.824,1.3,6.1516
93.605,39.355,1.3,0.31483
8.3925,39.905,1.3,1.1457
46.5,39.75,1.3,2.1515
104.4,40.125,1.3,1.5762
37.75,40,1.3,0.079422
20.488,40.358,1.3,0.57378
46.75,40.382,1.3,1.4577
69.799,40.208,1.3,1.2507
97.858,40.04,1.3,2.026
99,40.25,1.3,0.35808
44.283,40.283,1.3,4.6433
46.934,40.684,1.3,2.4118
74.75,41.25,1.3,0.084207
21.283,41.75,1.3,0.3625
28,41.75,1.3,0.32039
45.843,41.764,1.3,1.1615
80,41.545,1.3,0.10287
47,42.24,1.3,3.0879
106.35,41.836,1.3,0.72288
123,42,1.3,0.10967
49.25,42.25,1.3,0.59994
85,42.254,1.3,0.32337
123.88,42.5,1.3,0.70845
11.5,42.75,1.3,0.17038
25,42.654,1.3,0.56628
3.5,43.25,1.3,0.19937
21.487,43.473,1.3,0.14171
29.75,43.457,1.3,0.06574
70.7,43.25,1.3,1.0835
118.5,43.25,1.3,0.55439
46,43.565,1.3,0.61101
120.58,43.418,1.3,0.71639
8.7693,43.75,1.3,0.29996
36.75,43.741,1.3,0.18317
77.25,43.75,1.3,0.4902
79.55,43.8,1.3,0.63641
8.25,44,1.3,0.23974
10.25,44.419,1.3,0.20936
15.553,44.352,1.3,2.3218
45.75,44.5,1.3,0.66519
80.081,44.45,1.3,0.27147
10.5,45.149,1.3,0.11318
52.543,44.837,1.3,10.828
63.75,45,1.3,0.13466
48.128,45.15,1.3,7.5189
1.7949,45.326,1.3,7.3728
19.326,45.508,1.3,1.7965
49.562,45.244,1.3,7.3257
50.968,45.337,1.3,7.7475
66.75,45.5,1.3,0.26619
89.25,45.5,1.3,0.62261
4,45.826,1.3,0.52914
52.596,45.904,1.3,3.3858
19.25,45.789,1.3,1.137
74.116,45.945,1.3,1.164
64,46.25,1.3,0.065925
85.974,46.25,1.3,0.4316
92.918,46.25,1.3,1.2946
121.44,46.25,1.3,0.51119
31.26,46.5,1.3,0.4349
51.25,46.516,1.3,2.4532
96.365,46.615,1.3,0.10044
9.157,46.593,1.3,0.60605
63.75,46.75,1.3,0.29057
13.7,47.233,1.3,0.20804
50.782,47.219,1.3,4.7042
73.026,47.25,1.3,0.58613
47.5,47.5,1.3,2.6411
69.763,47.32,1.3,0.54249
115.78,47.689,1.3,1.8901
79.5,47.75,1.3,0.39446
21.961,47.961,1.3,0.92388
47.75,48,1.3,1.1371
115.62,47.751,1.3,1.9044
119.07,47.918,1.3,0.42644
11.75,48.269,1.3,0.6171
117.38,48.12,1.3,1.5843
2.25,48.475,1.3,4.5872
17.536,48.416,1.3,0.44869
116.75,48.5,1.3,2.5581
37.232,48.768,1.3,5.5629
8.4973,49,1.3,0.94949
15.328,49.172,1.3,1.1916
39.286,49.407,1.3,6.4797
39.713,49.264,1.3,5.5831
49.574,49.207,1.3,14.988
24.25,49.572,1.3,0.51187
79.242,49.454,1.3,2.6752
116.42,49.441,1.3,5.0238
14.615,49.635,1.3,0.62722
54.25,49.753,1.3,0.45737
40,49.988,1.3,3.5022
116.17,49.926,1.3,5.7435
1.9922,50.483,1.3,11.592
33.214,50.311,1.3,1.1951
3.5,50.5,1.3,0.32594
36.5,50.5,1.3,0.082712
85.519,50.533,1.3,1.0906
88.597,50.5,1.3,0.84625
9.75,50.742,1.3,0.35346
50.25,50.75,1.3,0.13915
80.317,51.264,1.3,6.5074
85.593,50.956,1.3,1.2511
10.5,51.25,1.3,0.19975
36.903,51.174,1.3,11.609
120.25,51.25,1.3,0.1996
12.287,51.613,1.3,3.0617
44.805,51.695,1.3,0.39159
71.163,51.191,1.3,0.27822
81.678,51.772,1.3,7.1177
32,51.75,1.3,0.19169
40.25,51.68,1.3,5.9538
80.737,51.876,1.3,9.7176
120,51.75,1.3,0.063776
1.8445,52.066,1.3,0.72206
21,52,1.3,0.34563
24.25,52,1.3,0.12479
39.215,52.697,1.3,7.0771
80.378,52.642,1.3,1.9853
80.845,52.344,1.3,5.2021
10.25,52.645,1.3,0.45163
119.11,52.641,1.3,0.24843
81,53,1.3,3.4705
115.96,52.816,1.3,1.1262
31.9,53.5,1.3,0.23015
70.209,53.724,1.3,1.3561
123.75,53.574,1.3,0.27915
14.313,53.813,1.3,0.68094
42.106,53.677,1.3,3.4765
86.169,53.793,1.3,0.80528
70.249,53.96,1.3,4.7205
63.316,54.316,1.3,0.32066
15.506,54.506,1.3,0.52949
19.5,54.75,1.3,0.32022
39.877,54.627,1.3,2.759
68.708,55.384,1.3,12.739
71,55.324,1.3,2.0349
73.75,55.252,1.3,0.6572
7.0969,55.383,1.3,0.32475
41.305,55.578,1.3,5.2197
68.935,55.417,1.3,8.6135
81.25,55.943,1.3,0.32923
1.25,55.792,1.3,0.59256
41.284,55.852,1.3,3.8991
10.082,56.246,1.3,1.8803
79,56.25,1.3,0.041638
84.019,56.259,1.3,0.60623
12.924,56.443,1.3,0.74915
12.25,56.75,1.3,0.16523
71,56.757,1.3,3.8286
21,57,1.3,0.040344
21.5,57,1.3,0.20109
4.3379,57.162,1.3,0.093464
56,57.065,1.3,0.16752
71,57.447,1.3,4.7265
82,57.703,1.3,0.37722
88.5,57.719,1.3,0.91174
4,57.75,1.3,0.22044
58.948,58,1.3,0.25354
67.849,57.752,1.3,17.394
71.25,57.932,1.3,1.9431
55.25,58.259,1.3,0.3995
18.75,58.5,1.3,2.0161
74.479,58.5,1.3,0.70474
81.737,58.513,1.3,1.0685
18.25,58.75,1.3,1.9879
37.75,58.748,1.3,0.38595
71.5,58.75,1.3,0.46799
85.828,58.867,1.3,0.45869
20.087,58.969,1.3,7.3447
20.456,59.243,1.3,4.1533
68.475,59.288,1.3,6.4636
89.25,60,1.3,0.043632
70.788,60.25,1.3,4.7917
18.25,60.5,1.3,3.2119
62.398,60.602,1.3,0.19881
84.5,60.451,1.3,0.4082
18.5,61,1.3,2.0837
19.852,61.145,1.3,6.7571
55.5,61,1.3,0.25876
94.41,61,1.3,0.30847
4.0871,61.337,1.3,0.294
23.5,61.25,1.3,0.52564
52.75,61.25,1.3,0.085545
70.25,61.25,1.3,2.6357
74.25,61.25,1.3,0.73965
91.264,61.422,1.3,0.90723
6.25,61.474,1.3,0.34418
90.841,61.5,1.3,0.38298
86.25,62,1.3,0.021128
95.845,62.095,1.3,0.55047
12,62.199,1.3,0.29499
23.5,62.25,1.3,0.49621
58.532,62.487,1.3,1.3917
80.153,62.712,1.3,0.68713
74.002,63.002,1.3,0.20189
80.67,63,1.3,0.44315
37.913,63.43,1.3,11.378
87.899,63.49,1.3,2.0345
44.75,63.565,1.3,0.13604
73,63.5,1.3,0.56879
37.566,63.55,1.3,11.787
2,64,1.3,0.20239
3.8667,64,1.3,0.65544
39.09,64.09,1.3,1.9987
87.864,63.996,1.3,0.99386
81.75,64.25,1.3,0.23352
36.757,64.507,1.3,1.9393
38.592,64.783,1.3,3.975
75.613,64.485,1.3,0.54037
72.25,64.75,1.3,0.43534
24.336,65,1.3,5.0183
37,64.993,1.3,1.7137
65.5,65.238,1.3,0.031131
91.528,65.256,1.3,0.82017
56.199,65.301,1.3,0.12741
68.798,65.029,1.3,1.6403
72,65.25,1.3,0.068831
18.668,65.582,1.3,3.8209
37.951,65.734,1.3,7.4469
81.5,65.432,1.3,0.066104
4.9685,66,1.3,5.0568
18.5,65.884,1.3,2.9828
90.996,65.754,1.3,0.71865
25.944,66.289,1.3,9.1621
58.5,66.25,1.3,0.32444
72,66.331,1.3,0.22573
23.25,66.5,1.3,1.3601
81.975,66.363,1.3,0.33464
23.5,67,1.3,1.6729
43.5,67,1.3,0.18815
68.01,66.792,1.3,0.14825
100.11,67.032,1.3,0.59114
68.75,67.25,1.3,0.75241
24.39,67.655,1.3,7.7379
25.384,67.415,1.3,3.6445
58.25,67.29,1.3,0.86953
73.604,67.454,1.3,1.5895
76.778,67.75,1.3,0.44725
77.111,67.75,1.3,0.12721
88.045,67.973,1.3,2.5337
90.104,67.554,1.3,11.154
25.017,67.908,1.3,2.0198
73.36,67.89,1.3,0.39459
63.731,68.689,1.3,2.1475
91.25,68.75,1.3,1.0634
63.302,69.08,1.3,1.6561
91.5,69.25,1.3,0.34734
98.425,69.026,1.3,5.7009
5.5,69.727,1.3,7.4687
61.836,69.336,1.3,0.46649
78.942,69.712,1.3,0.99962
29,69.75,1.3,0.34264
59.5,69.75,1.3,0.1233
79.708,69.75,1.3,0.41695
46.5,69.982,1.3,0.92154
55.545,70,1.3,0.88856
66.75,70.274,1.3,0.58159
71.501,70.751,1.3,0.81488
91.692,70.808,1.3,0.24296
68.281,71.238,1.3,1.5289
71.988,71,1.3,0.079797
64.75,71.25,1.3,0.070972
91.286,71.224,1.3,0.49964
46.038,71.342,1.3,11.3
100.28,71.526,1.3,0.90547
58.997,71.753,1.3,0.53914
60.019,71.75,1.3,0.68148
73.75,72.5,1.3,0.22544
75.783,72.5,1.3,1.4054
86.951,72.549,1.3,0.54102
76.699,73.346,1.3,0.82755
80,73.5,1.3,0.14205
96.25,74,1.3,0.17179
50,74.035,1.3,0.77994
80.39,74.17,1.3,1.4787
27.55,74.5,1.3,0.12495
47.25,74.5,1.3,1.2914
76.5,74.5,1.3,0.071876
86,74.683,1.3,0.47793
92,74.5,1.3,0.01686
8.5,74.75,1.3,0.25277
86.532,74.782,1.3,0.21747
22.5,74.998,1.3,0.020497
46.5,75.137,1.3,1.1967
82.705,75.192,1.3,1.359
52.75,75.584,1.3,0.57616
89.065,75.5,1.3,0.45931
86.75,75.723,1.3,0.093688
48.127,75.695,1.3,11.547
76.75,76,1.3,0.12484
92.515,76.122,1.3,0.83948
34.058,76.564,1.3,13.463
85.312,76.812,1.3,0.10094
86.945,76.854,1.3,0.25315
76.5,77,1.3,0.033949
5.3185,77.25,1.3,4.1768
5.9336,77.184,1.3,1.2384
86.75,77.218,1.3,0.41818
95.479,77.273,1.3,0.77604
21.572,77.819,1.3,0.76313
78.084,78.25,1.3,0.50653
7.25,78.622,1.3,1.0287
8,78.5,1.3,3.8081
10.064,78.448,1.3,7.2418
13.719,78.462,1.3,1.0183
45.75,78.521,1.3,0.39564
4.7163,78.597,1.3,3.9384
53.5,79,1.3,0.50946
40.786,79.377,1.3,5.7264
45.5,79.25,1.3,0.27501
80.697,79.305,1.3,1.008
82,79.25,1.3,0.43429
5.4237,79.459,1.3,5.2333
8.9114,79.669,1.3,7.1581
40.75,79.686,1.3,6.5446
89.5,79.75,1.3,0.087738
84.5,80.028,1.3,0.94959
6,80.546,1.3,2.0534
40.963,80.537,1.3,3.2755
45.528,80.278,1.3,0.69614
51.323,81.065,1.3,1.107
6.2191,80.969,1.3,2.8916
8.6552,81,1.3,5.7903
40.961,80.961,1.3,3.107
78.968,81,1.3,0.3333
8.3381,80.959,1.3,9.766
19.475,81.077,1.3,1.2289
8.75,81.52,1.3,3.1184
79,81.5,1.3,0.21226
32.156,81.576,1.3,0.52388
6.6968,81.929,1.3,6.5539
22.75,82.25,1.3,0.13028
29,82.5,1.3,0.13205
48.25,82.59,1.3,0.36904
51.603,82.603,1.3,0.33624
87.257,82.284,1.3,0.29197
84.341,83.025,1.3,0.54409
10.5,83.25,1.3,3.9331
18.75,83.25,1.3,0.86632
54.5,83.25,1.3,0.16861
28.5,83.588,1.3,0.38152
40.75,83.5,1.3,1.5149
80.052,83.68,1.3,0.74748
120.75,83.5,1.3,0.34214
15.928,83.928,1.3,0.35696
23,85,1.3,0.22027
32.651,85,1.3,0.2026
79.425,85.191,1.3,0.9319
8.25,85.25,1.3,0.48686
25.5,85.465,1.3,0.15189
122.34,85.845,1.3,0.35644
39.013,85.75,1.3,0.3551
122.25,86.243,1.3,0.16886
27.649,86.616,1.3,0.3829
82.957,86.5,1.3,0.40681
37.034,86.672,1.3,0.19225
54.416,86.77,1.3,0.23064
16,87,1.3,0.097509
27.299,86.962,1.3,0.50609
121.75,87,1.3,0.23547
19,87.25,1.3,0.21531
26.81,87.283,1.3,0.33224
15.5,87.56,1.3,0.54783
119.36,87.644,1.3,0.23285
119.72,87.5,1.3,0.46834
121.25,87.5,1.3,0.23757
11,87.801,1.3,0.58046
89,87.75,1.3,0.44637
23.433,88,1.3,0.32336
30.726,88,1.3,0.55911
80.342,87.971,1.3,0.59045
80.626,87.842,1.3,0.62776
7.5237,88.024,1.3,0.33789
35.248,88.25,1.3,0.19876
8.3681,88.433,1.3,0.57627
3.5,89.75,1.3,0.085531
58.092,89.578,1.3,0.55587
81.5,90.031,1.3,0.4354
122.5,90.181,1.3,0.58698
13.504,90.755,1.3,6.8533
120.52,90.75,1.3,0.50657
14.502,91,1.3,2.2033
14.964,91.3,1.3,3.6968
35.75,91.25,1.3,0.11793
27.38,91.252,1.3,10.662
52.871,91.5,1.3,0.38749
15.013,92,1.3,7.0999
39.03,92.215,1.3,0.46744
12.75,92.568,1.3,7.3571
14.75,92.563,1.3,4.808
26.896,92.681,1.3,14.114
29.179,92.422,1.3,9.637
34.975,92.742,1.3,1.6306
57.812,92.734,1.3,14.998
81.736,92.268,1.3,16.128
14.455,93.174,1.3,11.684
41.75,93.238,1.3,0.29053
13,93.25,1.3,1.7192
86.021,93.229,1.3,0.2549
80.137,93.245,1.3,22.587
27.77,93.762,1.3,13.16
42.112,93.862,1.3,0.43322
56.892,93.894,1.3,12.28
85.25,93.75,1.3,0.19911
13.952,93.531,1.3,10.358
59.039,93.829,1.3,8.7738
82.868,94.118,1.3,3.1414
56.801,94.154,1.3,7.7107
82.75,94.598,1.3,3.2571
57.529,95.25,1.3,4.3203
31.75,95.651,1.3,1.8487
58.5,95.685,1.3,3.9401
79.96,95.834,1.3,8.9351
16.25,96,1.3,0.053954
37.93,95.904,1.3,0.67019
38.141,96,1.3,0.70495
81.874,96,1.3,4.4896
13.482,96.109,1.3,1.7559
23.514,96.25,1.3,0.15007
40.25,96.285,1.3,0.79487
81.661,96.089,1.3,3.8287
1.75,96.672,1.3,3.0664
27.5,96.75,1.3,0.22549
35.75,96.801,1.3,0.26273
62.296,97.109,1.3,1.2273
68.463,96.879,1.3,1.1286
85.5,96.75,1.3,0.040801
25.371,97,1.3,1.0507
53.25,97,1.3,0.12212
1.9629,97.25,1.3,10.666
56.226,97.476,1.3,0.90619
32.25,97.8,1.3,0.65908
54,97.75,1.3,0.074686
74.188,97.75,1.3,0.54037
83.75,97.75,1.3,0.045337
54.5,98,1.3,0.25223
32.25,98.368,1.3,0.98394
56.012,98.262,1.3,0.19768
59.5,98.25,1.3,0.19347
82.5,98.25,1.3,0.32245
24.25,98.5,1.3,0.20462
23.5,98.74,1.3,0.39624
66.5,98.75,1.3,0.13406
61.982,98.907,1.3,1.438
70.77,98.967,1.3,0.26256
89.113,99.113,1.3,0.96572
62.182,99.272,1.3,0.79968
67.25,99.5,1.3,0.17355
3.5,99.75,1.3,0.27121
5.75,100,1.3,0.17479
23.25,99.962,1.3,0.64944
53.054,99.923,1.3,0.48529
80.644,100.11,1.3,0.07673
57.503,100.34,1.3,1.4931
85.439,100.44,1.3,1.1924
34.794,100.54,1.3,0.20968
19.297,100.75,1.3,0.3906
2.75,101.2,1.3,0.7379
120.02,100.98,1.3,0.4342
33,101.25,1.3,0.41626
31.935,102.06,1.3,0.13421
35.982,102.25,1.3,0.26131
53,102.25,1.3,0.18934
123.93,102.07,1.3,0.60257
58.25,102.5,1.3,0.10047
67.75,102.5,1.3,0.34985
60.876,102.88,1.3,0.69288
66.75,102.75,1.3,0.17145
88.352,102.9,1.3,0.45557
22.48,103,1.3,5.365
58,103,1.3,0.72172
77.367,103.07,1.3,5.9582
6.3143,103.25,1.3,1.0048
32,103.25,1.3,0.05911
54.375,103.25,1.3,0.58855
62,103.25,1.3,0.073135
81.357,103.37,1.3,0.75106
4.4493,103.56,1.3,9.1256
63,103.75,1.3,0.059564
64.844,103.75,1.3,1.2233
21.405,103.85,1.3,8.0464
63.322,104.13,1.3,1.0945
69.419,103.92,1.3,1.108
120.25,104,1.3,0.92996
20.917,104.36,1.3,5.9187
21.192,104.67,1.3,8.3226
23.51,104.65,1.3,9.3417
28.208,104.54,1.3,0.16703
3.8067,105.19,1.3,1.0037
32.25,105.56,1.3,0.3054
32.75,105.64,1.3,0.072022
35,105.75,1.3,0.57368
55.774,106,1.3,2.1329
83.545,105.84,1.3,0.61667
14.652,106.1,1.3,14.804
21.741,105.6,1.3,9.9009
60.804,106,1.3,0.28714
79.5,106.02,1.3,0.42241
121.5,106.15,1.3,0.94373
12.5,106.25,1.3,0.10579
22.704,106.25,1.3,2.7426
73.887,106.32,1.3,6.8805
61.75,106.5,1.3,0.095237
67,106.38,1.3,0.068716
62.012,107.16,1.3,0.85579
6.805,107.3,1.3,0.50538
73.97,107.65,1.3,11.826
53.377,107.75,1.3,0.19766
73.486,107.51,1.3,2.2598
10,108,1.3,0.05301
58,108,1.3,0.22841
81.314,107.98,1.3,0.95185
65.75,108.25,1.3,0.67722
65.25,108.5,1.3,0.34255
1.5,108.67,1.3,0.80088
123.25,108.75,1.3,0.24835
23.25,109.25,1.3,0.16594
36.053,109.54,1.3,1.1544
122.5,109.25,1.3,0.091261
23.75,109.28,1.3,1.1853
33.026,109.62,1.3,1.0992
121.9,109.55,1.3,0.37415
15.575,109.75,1.3,0.72564
69.75,109.75,1.3,0.11646
71.25,109.75,1.3,0.2908
65.192,110.02,1.3,0.72741
6.394,109.94,1.3,1.794
12.29,110.29,1.3,0.56226
30.169,110.03,1.3,0.48521
20.5,110.5,1.3,0.13219
23.53,110.28,1.3,0.41102
12.514,110.62,1.3,0.29669
68.862,111.14,1.3,0.47208
1.25,111.33,1.3,0.54267
21.187,111.19,1.3,0.20927
75.084,111.4,1.3,0.7084
120.88,111.19,1.3,1.1465
21.75,111.5,1.3,0.072977
24.5,111.75,1.3,0.18584
67.349,111.82,1.3,1.9048
22,112,1.3,0.4956
118.8,112.25,1.3,0.41163
34,112.5,1.3,0.24138
54.5,112.5,1.3,0.27834
101.65,112.65,1.3,0.69108
123.02,112.92,1.3,0.55081
26.25,113,1.3,0.084449
31.744,113.01,1.3,0.098226
2.7429,113.49,1.3,0.83506
22.111,113.69,1.3,15.186
23.75,114,1.3,0.030384
5.4561,114.25,1.3,0.5503
13.25,114.26,1.3,0.57291
15.62,114.13,1.3,0.28169
74.608,114.25,1.3,0.22574
78.25,114.04,1.3,0.25357
7,114.51,1.3,0.79076
34,114.5,1.3,0.30347
66.334,114.44,1.3,0.77285
70,114.36,1.3,0.93648
64.415,114.75,1.3,0.46419
112.99,114.76,1.3,0.75395
30.25,115.25,1.3,0.21671
122.64,116.19,1.3,1.4598
25.5,116.5,1.3,0.31636
30,116.27,1.3,0.10462
10.5,116.71,1.3,0.69265
10.5,117.25,1.3,0.12943
66.706,117.55,1.3,1.294
30.25,117.96,1.3,0.666
5.25,118,1.3,0.52197
27.303,118.25,1.3,0.63683
119.32,118.93,1.3,0.84367
123.59,119.02,1.3,0.79293
83,119.25,1.3,0.5645
65.5,120.5,1.3,0.021452
9.5588,120.52,1.3,1.7129
11,121.01,1.3,2.0749
26.25,121.23,1.3,0.29465
119.75,121.75,1.3,0.33764
123.5,122.4,1.3,0.9596
28.5,122.75,1.3,0.20428
84.294,122.75,1.3,0.71145
119.25,123,1.3,0.11672
7.25,124,1.3,0.17324
