10.129,1.25,1.3,0.6308
103.25,1.25,1.3,3.9097
124,1.25,1.3,0.28459
14.729,1.6188,1.3,1.0616
7.5,1.9602,1.3,0.92355
8.0085,2,1.3,1.0451
14.985,1.7889,1.3,1.191
102.27,2.0722,1.3,2.216
75.25,3,1.3,0.30376
102.15,3.6017,1.3,0.72327
2.25,4,1.3,0.24202
9.1882,4.5995,1.3,8.4818
7.0825,5,1.3,0.88658
118.75,5.5,1.3,0.060119
16.334,5.9664,1.3,0.38637
18.75,5.75,1.3,0.32596
10.25,6.5262,1.3,0.3537
88,6.5,1.3,0.023961
3.4328,7.25,1.3,0.47265
1.5,7.5,1.3,0.5181
91.683,7.5237,1.3,0.99432
91.317,7.7065,1.3,0.99853
75.274,8.1057,1.3,0.6574
72.5,9.5887,1.3,1.8963
81.372,10.25,1.3,0.16573
90.657,10.668,1.3,3.8639
72.43,10.851,1.3,6.0006
88.919,11.081,1.3,3.3248
4.8025,11.25,1.3,0.68494
94.96,11.327,1.3,3.4927
88.75,11.428,1.3,3.6131
73.085,12.5,1.3,2.8195
95.5,12.288,1.3,1.2326
70.802,12.805,1.3,0.77022
91.583,13,1.3,9.3596
89.75,13.25,1.3,6.0535
95.5,13.29,1.3,0.86647
71.425,13.75,1.3,0.54741
85,13.516,1.3,0.43253
93,13.786,1.3,0.29902
92.5,15.48,1.3,1.0608
93.09,15.736,1.3,1.1948
95.959,16.055,1.3,3.8077
88.199,16.037,1.3,0.43108
74.75,16.608,1.3,0.39315
81.985,16.751,1.3,0.70579
87.25,16.772,1.3,0.29703
74.75,17.25,1.3,0.12625
84.736,17.878,1.3,0.42751
80,18.5,1.3,0.21808
29.087,18.785,1.3,0.36723
74.181,18.944,1.3,0.22971
73.502,19.252,1.3,0.38846
30.261,19.5,1.3,0.46539
76,19.382,1.3,0.15063
87,20,1.3,0.17137
74.75,20.5,1.3,0.09072
81.716,20.966,1.3,1.0196
87.5,21.5,1.3,0.041146
82,21.808,1.3,0.42344
87.75,22,1.3,0.059663
73.5,22.598,1.3,0.26441
81.872,22.628,1.3,0.19632
17,23,1.3,0.047044
15.75,23.5,1.3,0.33708
14.15,24,1.3,0.14393
14.527,24,1.3,0.801
31.521,24.021,1.3,0.48552
77.25,24.174,1.3,5.6775
31.75,24.483,1.3,0.60809
87.25,24.82,1.3,0.30877
31.771,25.077,1.3,4.1517
77.25,25.25,1.3,0.95631
82.917,25.25,1.3,7.4776
15.995,25.811,1.3,7.7957
17.291,25.766,1.3,9.5834
77.75,26.218,1.3,1.1402
15.119,26.631,1.3,1.3488
21.522,26.772,1.3,0.30958
84.14,26.597,1.3,8.9539
21.75,27.21,1.3,0.1798
81.935,27.271,1.3,20.526
88.491,27.509,1.3,0.17392
14.719,27.706,1.3,16.86
17.961,27.929,1.3,5.0945
32.208,28.091,1.3,16.015
83.586,28.414,1.3,2.3996
14.751,28.977,1.3,6.1222
32.75,29.5,1.3,0.17449
17.25,29.75,1.3,1.3555
15.891,30.141,1.3,9.3432
16.75,30,1.3,1.5027
28.23,30.23,1.3,4.3681
32.593,30.203,1.3,1.6377
81.33,30.92,1.3,0.62389
32.219,31.031,1.3,1.3611
19,31.25,1.3,0.35967
27.404,31.583,1.3,23.666
15.837,32.23,1.3,0.8543
14.142,32.392,1.3,0.57082
28.795,32.41,1.3,5.2815
14.445,32.5,1.3,1.1534
84.505,32.75,1.3,1.1304
21.5,33.194,1.3,0.31528
30.176,33.5,1.3,1.0116
31.25,34,1.3,0.06994
28.75,34.25,1.3,0.10922
16.75,34.743,1.3,0.39577
20.25,34.75,1.3,0.3125
17,35.25,1.3,0.03653
12,36.5,1.3,0.24727
83.101,36.609,1.3,0.72194
30.327,37.228,1.3,5.1134
24.947,37.447,1.3,0.18509
29.186,39.127,1.3,12.604
31.913,38.893,1.3,26.413
29.925,40.675,1.3,2.9239
7.0339,40.636,1.3,0.23502
31.255,40.348,1.3,8.6637
26.25,41.75,1.3,0.12509
77.5,42.05,1.3,0.25296
6,42.75,1.3,0.32562
34.746,42.754,1.3,0.27313
1.5606,43.5,1.3,0.41581
3.2112,45.167,1.3,0.52167
9,44.859,1.3,1.1251
9.25,46,1.3,0.15433
8.758,46.258,1.3,3.1107
9.75,46.25,1.3,0.7522
8.2396,46.51,1.3,5.4829
9.2293,46.5,1.3,1.2604
7.5001,47,1.3,3.9127
7.75,47.5,1.3,1.7617
9.5,47.75,1.3,2.2591
84.324,47.75,1.3,0.72649
8.8229,48.5,1.3,8.3476
8.75,49.25,1.3,2.2405
8.7524,49.75,1.3,1.1309
9.5,50,1.3,0.073308
108.42,50.235,1.3,4.8909
9,50.25,1.3,0.1623
10,50.25,1.3,0.10781
6.75,51,1.3,0.10995
104.75,52.75,1.3,0.20051
103.19,53,1.3,0.66842
104.25,53,1.3,0.098646
103.75,53.25,1.3,0.042465
70.019,53.766,1.3,1.22
72.75,54.75,1.3,0.12943
103.25,54.828,1.3,0.12823
103.76,55.822,1.3,0.82702
69.585,56.248,1.3,0.63771
72.5,56.5,1.3,0.28689
101.75,56.411,1.3,0.18976
104,56.802,1.3,0.33181
68.332,57.636,1.3,0.60351
71.25,57.487,1.3,1.8916
67.849,57.944,1.3,0.74672
103.28,57.929,1.3,0.37034
69.509,58.25,1.3,1.1686
70.793,58.234,1.3,3.1694
56.725,58.651,1.3,0.20376
66,59.25,1.3,0.085184
108.25,59.25,1.3,0.10941
66.5,60,1.3,0.082252
95.463,60,1.3,0.8171
62.731,60.731,1.3,0.15788
66.75,60.5,1.3,0.032276
53.474,60.776,1.3,0.31212
75.256,60.743,1.3,0.43229
102.86,60.857,1.3,4.6434
97.263,61.013,1.3,0.038163
97.747,61.25,1.3,0.1587
101.13,61.124,1.3,4.5448
103.5,61.5,1.3,0.30196
99.75,61.75,1.3,0.82188
103.52,62.104,1.3,6.8981
101.23,62.667,1.3,7.0255
95.954,62.652,1.3,0.17795
103.26,62.758,1.3,4.1089
101.18,62.877,1.3,8.4784
103.15,63.492,1.3,7.6925
68.463,64.25,1.3,9.7538
69.25,65.25,1.3,2.0994
103.55,65.25,1.3,0.52412
70,65.442,1.3,3.0754
69.25,65.75,1.3,2.3314
67.396,66.146,1.3,2.9335
68.031,66.25,1.3,4.9485
68.471,66.471,1.3,5.214
98.288,68.115,1.3,0.81867
102.29,68.542,1.3,0.47844
105.93,69.975,1.3,0.45781
45.893,70.942,1.3,0.75188
60.119,71.55,1.3,0.49189
99.75,71.5,1.3,0.38367
106,71.75,1.3,0.36281
63.5,72.027,1.3,1.383
92.5,72,1.3,0.11795
102.2,71.945,1.3,0.26581
62.75,72.25,1.3,0.046732
92.75,72.5,1.3,0.2621
48.029,73.25,1.3,0.94139
44.798,74.021,1.3,0.51022
41.444,74.306,1.3,0.9677
45.183,74.025,1.3,0.54254
61.639,74.172,1.3,17.192
94.173,74.458,1.3,6.4502
63.091,75.341,1.3,1.0935
93.904,75.605,1.3,11.762
43.643,77.451,1.3,3.4546
7.1057,78.32,1.3,4.8609
5.75,78.961,1.3,4.708
43.302,78.971,1.3,17.303
8.25,79.25,1.3,0.14146
7.3985,80.244,1.3,10.32
90.284,79.812,1.3,0.18678
10.031,80.024,1.3,19.237
88.75,80.25,1.3,0.098483
10.25,81.25,1.3,3.191
83.836,83.164,1.3,0.96609
88.75,83.851,1.3,0.34657
86.405,84.194,1.3,0.30405
86.403,84.2,1.3,0.67258
83.75,95.25,1.3,0.29843
77.357,95.357,1.3,0.7571
81.5,95.75,1.3,0.18629
60.085,98.585,1.3,0.3441
59.439,98.808,1.3,0.55673
80.5,98.75,1.3,0.087727
79.182,98.701,1.3,2.8985
84.176,99.577,1.3,0.21076
77.75,100.17,1.3,3.0821
101.75,100.61,1.3,0.45993
106.09,101.51,1.3,0.92195
66.477,102.52,1.3,1.1343
77.84,103.36,1.3,3.2247
104.07,104.13,1.3,0.55713
65.156,105.29,1.3,1.5316
108.5,106,1.3,0.28835
104.69,106.41,1.3,2.2733
62.539,106.45,1.3,1.4685
59.5,107,1.3,0.031953
77.5,107,1.3,0.8719
101,107,1.3,0.58323
64.25,108.5,1.3,0.21507
110.55,108.44,1.3,0.6301
105.1,108.7,1.3,1.6577
15,119.47,1.3,0.41711
15.5,119.6,1.3,0.48334
35.22,120.42,1.3,0.43073
39.869,120.26,1.3,0.92282
11.4,120.5,1.3,0.58022
18.5,122,1.3,0.017268
41.25,122.05,1.3,0.84228
37.224,122.84,1.3,3.0207
11.75,122.97,1.3,0.45494
95.472,123.25,1.3,0.47709
15,123.75,1.3,0.15284
