28.993,1.5,1.3,4.6594
31.33,3.0932,1.3,10.231
28.533,3.7286,1.3,5.5632
34.25,3.75,1.3,0.32596
30.526,4.1927,1.3,3.2999
26.838,4.6894,1.3,0.6334
17.47,11.47,1.3,0.24102
16.75,13.863,1.3,1.0418
16.462,14.37,1.3,2.6083
18.682,16.254,1.3,5.4587
36.75,23,1.3,0.18707
92.214,39.5,1.3,3.1732
93.5,39.5,1.3,0.79638
92.91,39.363,1.3,20.578
93.871,40.5,1.3,1.3857
91.553,40.959,1.3,5.5533
93.303,41.786,1.3,5.9486
32.326,41.936,1.3,6.2487
31.251,42.315,1.3,3.8678
32,43.449,1.3,18.951
32.5,43.25,1.3,1.2603
31.5,43.75,1.3,0.12461
31,44.75,1.3,0.42164
30.445,48.055,1.3,4.6592
33.504,50.386,1.3,0.61448
35,51.5,1.3,0.076413
52.75,52.5,1.3,0.32455
32.279,53.471,1.3,0.21802
34,53.25,1.3,0.26893
52.5,53.208,1.3,0.31111
32.25,53.684,1.3,0.48915
58.605,53.849,1.3,5.9154
31.673,54.25,1.3,0.65625
31.325,54.455,1.3,0.73153
60.517,56.509,1.3,0.84208
64.174,58.5,1.3,1.119
66.75,58.442,1.3,0.94356
114.18,58.25,1.3,0.24274
31.886,59.088,1.3,7.5994
117.79,60.11,1.3,1.8604
120.34,60.039,1.3,8.1077
32.592,60.221,1.3,8.9946
59.627,60.623,1.3,0.23039
118.67,60.662,1.3,0.42957
31.25,60.75,1.3,1.4045
31.881,61.539,1.3,13.307
120.52,61.915,1.3,0.778
59.237,62.037,1.3,1.1247
121.25,62.75,1.3,0.51762
36,63,1.3,0.10192
56.75,64.713,1.3,0.28768
51.679,65.179,1.3,0.91809
20.441,65.25,1.3,0.68519
39.25,65.25,1.3,0.23527
42.259,65.991,1.3,0.36783
55,66,1.3,0.080533
58.75,66.5,1.3,0.26899
45.04,66.618,1.3,0.26223
30,67,1.3,4.3583
25.573,67.345,1.3,7.1614
26.874,67.75,1.3,5.5913
48.789,67.781,1.3,0.72184
28.372,68.44,1.3,9.1218
31.213,68.675,1.3,9.1649
48.842,68.158,1.3,0.35189
29,70,1.3,0.27701
31,70,1.3,1.919
48.75,70,1.3,0.45706
29.628,70.75,1.3,3.6286
32.113,72.064,1.3,8.4326
29.949,73.08,1.3,9.5814
31.25,73.25,1.3,1.7895
71.975,73.25,1.3,0.5157
30.75,73.5,1.3,2.6973
34.25,74,1.3,0.15356
72.75,74,1.3,0.096577
28,74.5,1.3,0.72844
27.417,74.75,1.3,0.27525
24.25,76.25,1.3,0.13536
31.75,77.066,1.3,2.3955
70.717,77.093,1.3,0.3788
2.0629,89.313,1.3,0.68057
108.5,89.567,1.3,0.55488
106.78,89.983,1.3,0.84723
2.25,94.25,1.3,0.52059
59.25,94.604,1.3,0.28686
3.75,95,1.3,0.052223
59.082,94.918,1.3,0.3409
58.75,95.5,1.3,0.17498
81.75,101.75,1.3,0.084698
77.065,102,1.3,4.7463
82.75,102,1.3,0.26422
75.719,103.51,1.3,12.019
78.5,103.25,1.3,3.9184
75.57,103.43,1.3,12.838
78.5,103.95,1.3,1.921
71.5,104.55,1.3,0.27048
78.25,104.5,1.3,3.8606
82,104.75,1.3,0.04391
83.25,104.98,1.3,0.36403
78.25,105,1.3,3.9898
76.615,105.47,1.3,9.6565
81.5,105.46,1.3,0.28655
6.3125,106.69,1.3,0.74207
1.83,107.92,1.3,0.20567
3.3715,108,1.3,0.11145
11.615,108.62,1.3,0.20907
7.7753,108.76,1.3,8.4438
75.651,108.75,1.3,0.39969
7,109.25,1.3,0.89633
80.619,110.72,1.3,0.68602
7.9845,111.73,1.3,0.041165
10,112.25,1.3,0.13096
80.33,113.58,1.3,0.35698
77.5,116,1.3,0.40956
76.997,116.38,1.3,0.60434
59.75,120.52,1.3,0.52902
