33.911,1.5715,1.3,1.7742
105.49,2,1.3,0.42402
105,2.2463,1.3,0.6022
31.604,2.8927,1.3,0.83156
123.25,2.9733,1.3,1.2073
2.5,3.25,1.3,0.058539
5.5091,3.1278,1.3,0.8908
103.25,3.5951,1.3,0.35501
35.25,4.5,1.3,0.23353
104.76,4.6355,1.3,0.60038
104.78,4.7525,1.3,0.42744
123.35,5.1455,1.3,3.666
33,5.5,1.3,0.16058
6.75,5.7969,1.3,5.0992
122.75,6,1.3,0.97293
102.25,6.4961,1.3,0.27883
122.5,6.5,1.3,2.3185
5.4953,6.803,1.3,4.3047
107.46,6.75,1.3,0.060819
12,7.25,1.3,0.10261
5.6582,7.8402,1.3,6.1981
7.1813,7.9313,1.3,6.9033
122.72,7.6364,1.3,13.454
5.6247,8.0484,1.3,4.0121
9.0412,9.0048,1.3,0.81069
2.7349,9.4186,1.3,0.68931
12.75,10.5,1.3,0.077323
7.4168,11.5,1.3,0.47586
6.75,11.75,1.3,0.32162
5.745,12,1.3,0.67163
11.29,12.21,1.3,0.19961
57.227,28.62,1.3,6.9868
58.5,29,1.3,0.4584
56.981,29.856,1.3,2.3174
36.012,30.102,1.3,0.35777
57.01,30.01,1.3,1.3397
35.495,32.745,1.3,1.4034
35.25,35.5,1.3,0.16114
39.243,35.75,1.3,3.1367
92.141,35.672,1.3,0.99849
38.216,36.326,1.3,10.399
39.522,37.789,1.3,7.7195
93.587,37.688,1.3,0.80162
35.258,38.25,1.3,0.35447
35.733,38.25,1.3,0.16741
36.25,38.5,1.3,0.055537
93.568,38.798,1.3,2.3962
88.5,39,1.3,0.063166
96.25,39,1.3,0.46753
41,40,1.3,0.1165
89,39.782,1.3,0.50853
94.244,40.856,1.3,2.2273
93.5,41,1.3,2.2689
37.792,41.233,1.3,0.38934
89,41.233,1.3,0.37423
93.413,41.502,1.3,11.203
43.46,41.596,1.3,0.63831
93.713,43.155,1.3,8.5578
46.71,43.36,1.3,0.78903
96.643,44.143,1.3,0.78866
88.5,45.25,1.3,0.25753
89,45.5,1.3,0.29456
93.523,45.668,1.3,1.4849
89.738,45.512,1.3,0.36217
48,46.829,1.3,0.28108
96.222,48.367,1.3,0.31157
51.58,48.723,1.3,1.2934
93.75,48.75,1.3,0.44687
2.5,49.152,1.3,2.3276
6,49.75,1.3,0.17571
1.9921,50.059,1.3,9.2373
5.368,51.126,1.3,0.074017
2.7719,52,1.3,0.20082
66.5,53,1.3,0.18237
69.264,53.278,1.3,1.6537
2.25,53.622,1.3,0.24415
72.364,54,1.3,0.83472
5.7474,54.087,1.3,0.39854
53.25,56.5,1.3,0.073455
53.5,57,1.3,2.7086
65.261,58.239,1.3,1.7018
97.519,59.455,1.3,0.14728
51.214,59.5,1.3,2.0249
35.081,59.75,1.3,0.24952
98,59.75,1.3,0.10692
48,60.071,1.3,1.0959
17.5,60.411,1.3,0.090021
97.616,60.866,1.3,0.76017
97.25,61.25,1.3,0.077465
95.676,61.926,1.3,0.2974
96.5,62,1.3,0.071831
95.824,62.074,1.3,0.29782
101.01,62.279,1.3,1.0007
102.75,63.75,1.3,0.1184
96.75,64,1.3,0.44989
95.5,64.25,1.3,0.13844
101.5,65,1.3,0.29357
94.75,65.25,1.3,0.018905
101.22,66.034,1.3,0.33684
98.454,66.51,1.3,1.8501
21.568,70.682,1.3,0.22464
20.705,72.584,1.3,2.3567
119,83.194,1.3,0.54837
115.13,83.5,1.3,0.4217
121.75,83.75,1.3,0.28925
116.25,85.062,1.3,0.26276
116.25,85.448,1.3,0.3023
121.46,86.5,1.3,0.70375
115.47,87.628,1.3,2.9955
119.25,87.414,1.3,0.85898
122.89,87.888,1.3,0.79967
118.5,89,1.3,0.56881
122.75,90.25,1.3,0.23498
114.67,91.365,1.3,0.3062
109.46,96.099,1.3,0.24887
114.69,96.297,1.3,0.4225
111.05,98.848,1.3,1.264
64.851,99.129,1.3,0.60361
111.1,99.085,1.3,0.98822
106.78,99.716,1.3,0.9671
110.24,99.75,1.3,0.45329
108,100.25,1.3,0.57498
112.98,101.04,1.3,0.68424
112,101.75,1.3,0.31659
11.572,102.43,1.3,0.06084
61.279,103.81,1.3,0.51651
60.75,104.25,1.3,0.1641
60,104.5,1.3,0.3361
61.127,104.63,1.3,2.0729
64.75,104.71,1.3,1.3047
59.25,105.83,1.3,0.37795
13.75,106.75,1.3,0.22504
14.25,106.75,1.3,0.024919
59.954,106.8,1.3,2.9722
65.388,106.58,1.3,0.21757
12.154,106.9,1.3,0.30744
61.054,107.18,1.3,4.1514
18.458,107.79,1.3,0.37759
14.25,108.07,1.3,0.27046
14.25,108.44,1.3,0.29247
59.232,108.87,1.3,6.1793
55,109.25,1.3,0.36044
61.197,108.9,1.3,4.772
64,109.25,1.3,0.031721
60.25,109.75,1.3,0.74654
55.75,110,1.3,0.17377
62.474,110.34,1.3,0.47787
52.457,112.01,1.3,0.26404
57.238,112.64,1.3,0.86756
59.738,112.45,1.3,0.69119
64.684,113.3,1.3,0.33816
101.75,113.63,1.3,0.29323
