19.25,1.25,1.3,0.35629
32.5,2.75,1.3,0.32027
10.422,3.1608,1.3,0.34552
10.074,3.4256,1.3,0.28596
5.75,5.25,1.3,0.10104
28.941,5.8782,1.3,0.65746
38.621,6.0944,1.3,0.44612
9,6.25,1.3,0.35091
39,6.5,1.3,0.10507
9.25,6.75,1.3,0.7819
19.5,6.75,1.3,1.0225
31.542,7.0177,1.3,1.6746
13.736,7.5715,1.3,0.63015
31.517,7.4827,1.3,1.5761
5.5006,7.75,1.3,0.13247
40.559,7.7875,1.3,3.4688
29.928,7.9483,1.3,7.0321
31.359,9.1896,1.3,2.2416
9.4392,9.6184,1.3,1.5056
30.809,9.1383,1.3,4.6379
31.287,9.0167,1.3,10.804
8.4367,9.208,1.3,1.288
39.695,9.7305,1.3,27.642
10.792,9.9427,1.3,3.8832
21.25,9.8016,1.3,1.0059
40.25,10.748,1.3,2.1064
17.5,11,1.3,0.24092
28.759,11.259,1.3,0.45865
122.71,11.215,1.3,0.11948
7.7648,11.5,1.3,0.35314
33.622,11.5,1.3,0.24297
45,11.5,1.3,0.17664
30.832,12.108,1.3,0.48486
48.237,11.763,1.3,0.20165
10.5,12.25,1.3,0.56164
10,12.75,1.3,0.36601
14.083,12.75,1.3,0.53777
17.875,12.56,1.3,3.5797
19.298,13.201,1.3,3.1079
49.25,13.25,1.3,0.28769
51.5,13.25,1.3,0.074389
19.307,13.247,1.3,2.754
123.6,13.75,1.3,2.1019
48.626,13.876,1.3,0.75909
52.5,14.25,1.3,0.27395
17.5,14.512,1.3,7.5202
19.313,14.782,1.3,6.1982
52.75,14.75,1.3,0.04417
19.644,14.645,1.3,7.4626
38.75,15,1.3,0.1181
123.21,15.8,1.3,1.4231
20.566,15.825,1.3,3.043
43,16,1.3,0.37817
18.773,16.163,1.3,5.0869
20.5,16.386,1.3,0.47585
48.75,16.5,1.3,3.5474
49.689,17.108,1.3,9.1583
20,17.25,1.3,0.25595
39.25,17.449,1.3,0.68811
45.25,17.5,1.3,0.28473
47.75,17.5,1.3,1.695
48.987,18.812,1.3,4.6501
49.775,18.725,1.3,3.0445
121.54,18.837,1.3,4.9525
121.74,19.393,1.3,2.0542
41.836,19.88,1.3,6.2032
42.949,19.75,1.3,4.6377
41.839,20.131,1.3,6.3043
120,20.424,1.3,1.6446
121.88,20.465,1.3,13.965
38.346,21.088,1.3,0.19927
41.958,21.533,1.3,5.8126
38.028,21.5,1.3,0.47101
50.25,21.75,1.3,0.029575
22.799,21.913,1.3,0.49467
42.75,25.25,1.3,0.039184
22.728,26.255,1.3,0.85717
40.056,26.672,1.3,0.86892
36.25,28,1.3,0.05581
35.75,28.25,1.3,0.38142
40.75,29.5,1.3,0.42912
114.5,29.5,1.3,0.24683
40.25,30.75,1.3,0.065618
23.25,31.5,1.3,0.35518
116.54,31.597,1.3,1.4511
35.5,31.887,1.3,0.35079
40,32.889,1.3,0.58261
39.83,33.315,1.3,1.5923
24.725,33.571,1.3,0.1473
114.41,33.921,1.3,0.54223
115.5,33.75,1.3,0.27917
118.09,34.909,1.3,1.2165
39.5,35,1.3,0.033191
117.68,35.429,1.3,2.2963
117.89,35.304,1.3,3.652
39.75,35.5,1.3,1.0302
28.5,36.178,1.3,4.408
40,36.25,1.3,0.94072
52.871,36.44,1.3,2.397
28,36.5,1.3,1.1599
29.135,36.635,1.3,0.83036
117.25,36.75,1.3,0.10797
40.25,37,1.3,2.2176
28.791,37.291,1.3,1.6694
24.5,37.713,1.3,0.22399
40.5,37.5,1.3,0.76257
52.899,37.643,1.3,8.6858
53.698,38.458,1.3,1.4396
29,38.75,1.3,0.40228
123.65,39.24,1.3,2.7702
123.87,39.25,1.3,2.4725
41.75,39.75,1.3,0.11064
54.124,40.112,1.3,0.3411
29.583,40.333,1.3,0.32795
56.5,40.5,1.3,0.29314
76.75,40.75,1.3,0.063996
82.25,40.923,1.3,1.4126
25.281,41.092,1.3,0.29871
38.087,41.087,1.3,0.86318
40.5,41.317,1.3,0.72825
7.4816,41.476,1.3,0.29275
27.25,41.634,1.3,0.62856
32.852,41.132,1.3,7.0815
47.25,41.75,1.3,0.2006
12,42,1.3,0.057308
44.001,42.32,1.3,0.66442
44.499,42.25,1.3,0.59925
46.302,42.448,1.3,0.14094
51.5,42.25,1.3,0.18834
83.096,42.431,1.3,4.031
87.784,42.096,1.3,0.9882
46.063,42.5,1.3,0.30944
79.284,42.578,1.3,0.69544
122.92,42.424,1.3,0.49572
11.75,42.712,1.3,0.037419
83.045,42.315,1.3,2.6689
3,43.25,1.3,0.032829
8.25,43.25,1.3,0.476
33.317,43.443,1.3,7.5731
81.913,43.202,1.3,10.175
8.5,43.803,1.3,1.2759
35.75,44,1.3,0.4078
35.5,44.658,1.3,0.68299
82.5,45,1.3,0.20395
30.25,45.25,1.3,0.10104
40.737,45.25,1.3,0.57902
8.1055,45.451,1.3,1.8408
8.2642,45.99,1.3,4.3055
33.884,46,1.3,0.6835
9.1957,46.696,1.3,8.6532
30.221,46.529,1.3,0.53505
9.5,47.171,1.3,0.9363
78.75,47.5,1.3,0.082887
37,47.792,1.3,0.584
7.3867,48,1.3,0.094403
9,48,1.3,0.47258
8.0724,48.25,1.3,1.689
8.3782,48.25,1.3,1.1579
77.135,48.25,1.3,0.44311
81.1,48.164,1.3,0.61675
6,49.25,1.3,0.17422
11.626,49.724,1.3,0.51159
8.6576,50.223,1.3,1.278
36.25,51.281,1.3,0.93799
37.936,51.158,1.3,1.5078
36.889,51.92,1.3,1.9225
37.737,52,1.3,1.3771
37.333,52.776,1.3,5.7222
10.243,53.872,1.3,0.69748
40.75,53.867,1.3,0.077741
39.5,56.5,1.3,0.41787
42.876,56.874,1.3,0.11974
37,58,1.3,0.33315
100.5,58,1.3,0.046935
32.75,59,1.3,0.67695
102.5,59,1.3,0.12912
37.75,60.5,1.3,0.037921
32.123,62.755,1.3,11.65
31.978,62.925,1.3,9.7434
30.905,63.797,1.3,11.525
36.752,63.514,1.3,14.546
33.978,64.139,1.3,6.577
33.524,64.25,1.3,4.3128
75.523,64.727,1.3,0.66957
72.73,65.27,1.3,0.32472
31.088,65.588,1.3,4.1911
31.959,65.751,1.3,5.6798
36,65.501,1.3,0.54317
82.3,66.5,1.3,0.70945
76.953,66.953,1.3,0.48158
78.935,66.815,1.3,0.24844
72.003,67.763,1.3,0.96969
35.5,68,1.3,0.59938
73.849,68.463,1.3,0.61295
74.358,68.335,1.3,1.0608
78.75,69,1.3,1.0949
82.325,68.984,1.3,1.0769
37.677,69.256,1.3,0.33968
38.285,69.75,1.3,0.7587
78.404,69.722,1.3,0.34787
73.175,70.575,1.3,0.49737
5.8734,70.75,1.3,0.35327
42.738,70.75,1.3,0.18943
82,70.75,1.3,0.40311
85.75,70.766,1.3,1.043
34.819,71,1.3,0.28811
44.25,71,1.3,0.03541
90.39,70.791,1.3,0.86892
9.7383,71.25,1.3,0.50016
79.611,72.06,1.3,1.074
49.568,72.25,1.3,0.40198
3.7822,72.718,1.3,0.74113
81.844,72.895,1.3,14.14
13.948,72.894,1.3,1.4644
13.865,72.793,1.3,1.0669
46,73.25,1.3,0.20429
72.993,73.5,1.3,0.47422
15.34,74,1.3,1.467
16.695,74.057,1.3,11.528
8.5885,74.5,1.3,0.42677
8.0112,74.739,1.3,0.50917
10.13,74.75,1.3,0.29625
51.71,75.039,1.3,0.5296
52.943,74.75,1.3,0.2424
53.12,74.994,1.3,0.50735
10.659,75.029,1.3,0.56326
75,75.118,1.3,0.67471
81.232,75.482,1.3,0.26651
45.975,75.775,1.3,2.2477
47.766,75.978,1.3,5.2677
3.8263,75.826,1.3,9.5246
4.5204,76.02,1.3,3.5677
46.43,75.862,1.3,6.2684
76,76,1.3,0.02048
16.811,76.076,1.3,2.7676
84.543,76.14,1.3,0.17619
3,76.652,1.3,3.6077
108.57,76.685,1.3,0.80127
112.78,76.778,1.3,0.60842
47.117,77,1.3,5.4846
58.5,77.006,1.3,0.63598
43.75,77.25,1.3,0.078014
82,77.535,1.3,0.2666
4.2452,77.75,1.3,3.7279
50.25,77.75,1.3,0.057624
63.577,77.642,1.3,0.78121
73.25,77.75,1.3,0.51542
54.5,78,1.3,0.43982
73.75,78,1.3,0.069779
74.5,78.25,1.3,0.35597
81.75,78.25,1.3,0.19096
13,78.592,1.3,0.1339
61,78.626,1.3,0.16818
73.5,78.5,1.3,0.29124
10.25,78.75,1.3,0.034556
72.169,80.169,1.3,0.3097
76,80.399,1.3,0.44802
48.217,80.75,1.3,0.18864
50.1,80.85,1.3,0.98611
54,81.5,1.3,0.037697
18.932,82.115,1.3,1.4784
74.969,82.75,1.3,3.4994
75.433,82.75,1.3,3.9181
74.361,82.904,1.3,6.2368
51.25,83.25,1.3,0.15669
51.75,83.5,1.3,0.095262
52.827,83.511,1.3,0.55791
74.078,83.613,1.3,3.6644
73.886,83.864,1.3,0.86745
75.261,84.75,1.3,9.3511
72.5,86.5,1.3,0.10327
54.25,87,1.3,0.61615
74.968,88.25,1.3,0.2851
64.77,88.48,1.3,0.32657
104.75,88.5,1.3,0.16856
58.122,88.75,1.3,0.98499
75.5,88.608,1.3,0.99824
61.205,89.582,1.3,0.76438
101.25,89.723,1.3,0.42189
61.22,89.945,1.3,1.052
64.998,91.299,1.3,1.9502
105.06,91.494,1.3,0.89705
108.47,91.538,1.3,0.65438
104.78,91.995,1.3,0.36743
57.013,92.331,1.3,17.485
101.53,92.855,1.3,0.40328
58.5,93.188,1.3,4.8361
56.113,93.348,1.3,9.0359
56.211,93.319,1.3,11.817
58.585,93.386,1.3,5.8955
62.25,93.395,1.3,0.59565
55.75,94,1.3,0.45473
58.75,94.503,1.3,2.411
65.987,94.625,1.3,0.48149
58.505,94.995,1.3,1.4813
62,94.841,1.3,0.58592
56.825,95.304,1.3,12.55
104.01,96.78,1.3,1.3179
106.54,96.542,1.3,0.33271
66.517,97.988,1.3,1.3566
65,98.75,1.3,0.17022
52.848,98.952,1.3,0.67078
57.007,98.964,1.3,0.12031
62.75,98.81,1.3,0.53155
55.795,99.234,1.3,1.5566
63.25,99.25,1.3,0.29179
55.735,99.723,1.3,0.14883
61.934,99.878,1.3,0.27993
62,100.71,1.3,0.1441
62,101.5,1.3,0.66075
72.5,101.5,1.3,0.32606
57.491,102.01,1.3,0.19074
65.305,102.66,1.3,0.71481
70.75,102.5,1.3,0.095798
67.951,102.75,1.3,1.822
67.5,103.25,1.3,0.20904
95.901,103.61,1.3,0.46801
70.5,103.79,1.3,1.3636
64,104,1.3,0.097648
95.544,103.93,1.3,0.40249
62.367,104.79,1.3,0.67491
63.452,105,1.3,0.27374
65.5,105.09,1.3,1.7777
68.5,105.25,1.3,0.31518
94.73,105.5,1.3,0.34525
67.888,106.29,1.3,2.2854
63.914,106.66,1.3,0.14529
62.75,107,1.3,0.23476
61,108.5,1.3,0.14704
66,108.52,1.3,0.82274
71.844,108.66,1.3,0.59617
94.953,109.48,1.3,1.8901
60,112.75,1.3,0.59289
12.098,114.25,1.3,0.20439
16.384,114.78,1.3,0.61733
96.619,116.09,1.3,0.6245
11.5,116.05,1.3,0.33976
96.674,116.09,1.3,0.96495
13.907,117.59,1.3,2.9258
5.8158,118.5,1.3,0.22898
13.628,119.52,1.3,15.233
13.741,120.26,1.3,3.0995
90.75,120.5,1.3,0.49947
92.525,120.5,1.3,0.1094
94,120.63,1.3,0.27343
6.032,120.75,1.3,0.29318
10,121,1.3,0.60214
1.5154,121.82,1.3,0.51821
96.11,121.75,1.3,0.62492
7.5017,123.72,1.3,4.8096
