71.25,2.25,1.3,0.21007
3.5,2.5,1.3,0.0291
3.25,3,1.3,0.45788
31,3.25,1.3,0.058932
29.881,3.5,1.3,0.58548
33.5,3.5,1.3,0.23579
2.25,4,1.3,0.036972
46.75,4.0691,1.3,0.96367
38,4.25,1.3,0.23072
71.78,4.75,1.3,0.34855
1.7425,5.4461,1.3,3.837
42.25,5.5,1.3,0.16468
43.5,5.4947,1.3,0.33549
37.75,6.4877,1.3,1.8707
38.088,6.8378,1.3,7.57
39.203,7.9364,1.3,23.301
36.41,8.5482,1.3,0.33754
2.4402,8.4402,1.3,1.4702
38.25,8.8933,1.3,6.6597
31.982,9.2457,1.3,0.71365
38.246,9.0733,1.3,5.8339
3.0021,10.002,1.3,0.18533
3.25,10.483,1.3,0.02411
39.663,10.945,1.3,0.62389
25.5,11.25,1.3,0.35524
3.5462,12.796,1.3,4.1373
25.895,13.107,1.3,2.0746
26.849,12.984,1.3,7.2717
6.25,14,1.3,0.10648
26.588,14.142,1.3,21.231
5.75,14.25,1.3,0.096759
33.75,14.25,1.3,0.28285
34.25,14.5,1.3,0.29821
34.75,14.5,1.3,0.043805
4.75,15,1.3,0.03032
5.25,15,1.3,0.48646
39.978,14.876,1.3,0.96186
5,15.5,1.3,0.050351
1.4626,16.543,1.3,1.1257
24.997,16.5,1.3,0.59267
37.701,16.137,1.3,1.0219
32.09,17.187,1.3,0.42207
41.25,17.25,1.3,0.34135
5.7247,17.975,1.3,0.37015
40.622,17.878,1.3,0.023304
36.006,18.244,1.3,0.60124
9.1305,18.886,1.3,1.1076
40.935,19.435,1.3,0.29327
33.149,20.69,1.3,0.98053
37.592,20.809,1.3,0.73118
33.1,21.4,1.3,0.18904
37.579,21.211,1.3,0.78901
39,22,1.3,0.26416
39.5,22,1.3,0.5196
28,22.396,1.3,0.2048
17.75,22.75,1.3,0.043005
69.114,22.75,1.3,0.40358
23.453,25,1.3,0.22978
32.138,24.997,1.3,4.4621
19.875,25.558,1.3,2.1837
20.099,25.401,1.3,1.4054
69.25,25.28,1.3,0.39174
19.767,25.651,1.3,4.2338
65.25,26,1.3,0.19297
19.258,26.097,1.3,6.4542
41,26.25,1.3,0.21848
36.348,26.447,1.3,9.4007
41,26.75,1.3,0.4311
67.152,26.593,1.3,4.167
64.5,27,1.3,0.22718
19.5,27.611,1.3,9.408
21.742,27.508,1.3,0.3469
34.791,27.285,1.3,6.8236
40.75,27.401,1.3,0.21132
26.75,27.895,1.3,0.076914
20.433,27.814,1.3,5.3356
21,28,1.3,0.29509
34.5,28,1.3,1.9893
34.75,28.5,1.3,0.85032
37.25,28.5,1.3,6.5521
2.5,28.75,1.3,0.30225
5.8776,29,1.3,0.12409
66.365,29,1.3,4.6148
41,29.5,1.3,0.077651
35.858,29.759,1.3,4.7837
67.426,30.395,1.3,11.711
62.699,30.461,1.3,0.63844
65.997,31.003,1.3,1.7645
67.75,31.482,1.3,1.6537
32.286,31.819,1.3,0.32081
65.602,31.978,1.3,1.5763
67.5,32.193,1.3,0.63189
1.5468,32.453,1.3,1.3218
34.75,32.368,1.3,0.25862
29.49,32.74,1.3,0.55088
5.25,33.219,1.3,0.54957
67.624,33.37,1.3,0.57266
7.3855,35.936,1.3,15.45
2.75,37.25,1.3,0.44432
29.93,38.386,1.3,5.4132
3.5,40,1.3,3.1116
1.25,40.5,1.3,0.30282
3.6407,40.897,1.3,4.2833
2.25,41.75,1.3,0.70745
3.5509,43.051,1.3,1.1471
3.6471,44.076,1.3,1.7103
74.113,46.646,1.3,0.41003
71.75,48.75,1.3,0.32343
74.787,50.729,1.3,12.955
73.5,50.75,1.3,0.75155
74,50.75,1.3,0.67414
74.244,52.533,1.3,2.5185
71,53.099,1.3,0.13875
29.831,59.919,1.3,0.49019
122.1,59.75,1.3,3.5738
121,60.25,1.3,2.2762
120.75,60.75,1.3,1.5279
33,61.25,1.3,0.5041
123.46,61.245,1.3,7.3277
34,61.75,1.3,0.093102
120.79,61.918,1.3,6.803
122.04,62.722,1.3,9.0512
35.75,63.222,1.3,0.39243
32.825,63.185,1.3,22.113
31.028,64.353,1.3,5.092
31,65.25,1.3,0.059449
34.794,65.294,1.3,2.8618
40.5,65.262,1.3,0.85624
35,65.701,1.3,2.6048
31.25,65.967,1.3,3.8185
32.075,66.336,1.3,5.0802
32.833,67,1.3,4.711
72.75,67,1.3,0.54287
33.614,67.25,1.3,1.8112
34.401,67.312,1.3,11.34
39.346,68.617,1.3,1.0813
71.139,68.611,1.3,0.25721
42.407,69.146,1.3,0.87787
70.418,69.826,1.3,0.41325
31.5,70.5,1.3,0.21427
34,70.5,1.3,0.46231
78.669,70.765,1.3,0.79374
72.973,71.982,1.3,0.78174
37.25,72.75,1.3,0.048682
41.75,73.25,1.3,0.5181
78.608,73.75,1.3,0.28844
41.25,74,1.3,0.17561
40.75,74.25,1.3,0.13254
40.25,74.5,1.3,0.28899
34.5,75.99,1.3,2.786
39.75,76,1.3,1.14
47.684,77.063,1.3,0.70802
43.607,77.607,1.3,0.54762
39.505,77.854,1.3,9.9399
44.5,77.75,1.3,0.22139
40.359,78.996,1.3,1.9999
38.403,79.521,1.3,15.63
39.607,80.066,1.3,5.3638
39.864,79.977,1.3,13.409
77.652,80.603,1.3,0.5341
77.752,80.944,1.3,1.0021
78.906,82.52,1.3,0.97395
77,84,1.3,0.24158
59.814,100.57,1.3,0.61228
23.815,101.37,1.3,0.49011
13.5,101.26,1.3,0.15704
22.335,104.46,1.3,16.366
59.143,104.64,1.3,1.2139
19.28,105.05,1.3,1.6405
14.281,105.83,1.3,26.304
15.75,106,1.3,0.85851
14.531,106.47,1.3,1.602
13.74,106.72,1.3,9.3044
65.311,106.94,1.3,0.26409
104.64,106.59,1.3,1.5041
24.417,107.5,1.3,0.31993
107.5,108,1.3,0.27434
102.5,108.51,1.3,0.24655
64.742,108.76,1.3,2.5779
77.487,113.26,1.3,0.3803
80.413,113.27,1.3,1.4025
74.008,114.03,1.3,2.2608
76.5,114,1.3,0.026859
71,114.52,1.3,1.0726
84.676,115.5,1.3,0.61885
83.111,115.69,1.3,1.0676
70.99,117.4,1.3,0.84523
71.291,119,1.3,0.5016
84.036,122.01,1.3,0.37309
70.919,122.67,1.3,0.38668
72.531,123.03,1.3,0.30991
