21.5,1.75,1.3,0.18178
99.212,1.7124,1.3,0.79206
101.03,2,1.3,4.1503
19.325,2.4134,1.3,2.6845
106.25,2.52,1.3,0.25775
100.21,3.1705,1.3,3.7134
100.72,3.4653,1.3,3.4692
104.75,5.5,1.3,0.11198
107,6.75,1.3,0.14036
28.149,6.7668,1.3,0.15878
46.8,7.25,1.3,0.62973
25.5,8,1.3,1.0063
24.773,8.0228,1.3,1.0232
25.398,10.381,1.3,5.9613
25.201,10.266,1.3,5.7393
43.25,10.484,1.3,2.5147
24.841,10.659,1.3,3.2545
24.5,11.25,1.3,0.59001
47.5,11.75,1.3,0.13733
14.761,12.105,1.3,0.91755
121.75,12,1.3,0.1854
44.217,12.467,1.3,0.45392
17.25,12.75,1.3,0.028643
42.345,12.75,1.3,0.37571
27.261,13.992,1.3,1.1367
14.334,14.167,1.3,1.7927
14.78,14.164,1.3,1.2327
18.25,14,1.3,0.21845
27.347,13.952,1.3,1.0442
121.52,14.518,1.3,0.31018
12.825,14.885,1.3,1.3347
15.504,14.595,1.3,8.1789
22.783,14.999,1.3,8.1497
121.75,14.96,1.3,0.15636
18.25,15.25,1.3,0.292
122,15.5,1.3,0.10904
122.25,16,1.3,0.22471
122.75,16.25,1.3,0.14373
22,16.5,1.3,0.85877
78.689,16.5,1.3,0.31393
123.5,16.5,1.3,0.12321
19.064,16.814,1.3,0.3243
21.25,17,1.3,0.16972
119.29,17.205,1.3,0.52947
15.25,17.25,1.3,1.4921
27.346,17.75,1.3,0.6638
123.5,18.5,1.3,0.12001
74.25,19,1.3,0.66566
75.301,19.051,1.3,0.55623
15.256,19.256,1.3,1.0395
19.25,19.04,1.3,2.8956
67.215,19.25,1.3,0.84606
76.75,19.25,1.3,0.5013
12.048,19.567,1.3,0.48355
75.045,19.5,1.3,0.79764
68.25,20.25,1.3,0.016614
15.75,20.443,1.3,0.10285
71.5,20.691,1.3,0.9722
69.5,20.75,1.3,0.38936
27.455,20.783,1.3,1.2691
68.25,21.7,1.3,0.42041
75,21.794,1.3,0.22288
69.25,22,1.3,0.88873
19.25,22.5,1.3,0.60251
14.501,22.692,1.3,1.0646
71.506,22.988,1.3,6.4015
67.25,23.25,1.3,1.635
68.07,23.067,1.3,8.1274
77,23.25,1.3,0.037732
67.75,23.5,1.3,1.954
71.5,23.5,1.3,1.3008
71.25,24,1.3,0.16584
11.5,24.25,1.3,0.15259
27.501,23.788,1.3,0.34786
30.5,24.25,1.3,0.65051
68.182,24.25,1.3,3.9808
74.982,24.452,1.3,0.31788
13.538,25.436,1.3,0.56782
19.5,25.419,1.3,0.99614
66.25,25.25,1.3,0.16052
68.5,25.25,1.3,0.8349
73.5,25.5,1.3,0.40008
19.856,26.427,1.3,23.713
24.75,26.25,1.3,0.096841
13.411,26.393,1.3,0.8013
74,26.949,1.3,0.56799
68.838,27.093,1.3,0.41855
71.5,27,1.3,0.082287
19.216,27.216,1.3,1.5307
10.949,27.449,1.3,0.36919
13.903,27.653,1.3,0.74554
27.71,27.71,1.3,2.9934
19.549,27.924,1.3,9.379
66.049,27.799,1.3,0.30859
27.992,28.009,1.3,12.272
33,29.5,1.3,0.8315
75.5,30,1.3,0.12022
67.25,30.65,1.3,0.23952
28.143,31,1.3,2.0989
32.887,31.352,1.3,7.8089
13.241,31.397,1.3,0.21011
28.179,31.757,1.3,2.2832
20.017,31.943,1.3,0.71464
32.019,32.093,1.3,1.7194
20.017,32.055,1.3,0.71043
33.405,32.655,1.3,0.82418
23,32.75,1.3,0.46323
33.5,33.122,1.3,0.42312
66,33.25,1.3,0.56742
17.251,33.524,1.3,0.57949
13.426,34.111,1.3,0.48957
25.75,35,1.3,0.40376
71.25,35.25,1.3,0.1118
70.704,35.546,1.3,2.8857
5.25,35.75,1.3,0.35724
70,36,1.3,0.51444
6.7931,36.72,1.3,0.35749
20.471,36.46,1.3,0.87049
68.25,36.75,1.3,0.65119
7.128,39.833,1.3,9.2367
5.25,40.207,1.3,5.0733
7.4346,41.315,1.3,2.2886
6.2327,41.849,1.3,4.6223
11.548,44.458,1.3,0.54133
1.9766,44.825,1.3,1.5451
10.143,45.107,1.3,0.36809
5.25,45.946,1.3,0.31427
6,47.5,1.3,0.089356
9.4374,48.25,1.3,1.084
73.25,48.5,1.3,0.035991
76.604,48.456,1.3,0.20827
11.5,51.232,1.3,0.37494
71.262,51.477,1.3,0.95715
74.874,51.374,1.3,1.1077
76.98,51.5,1.3,1.18
12.013,52.013,1.3,0.11639
69.85,53.515,1.3,4.7378
70.182,53.692,1.3,6.3279
75.661,53.589,1.3,0.32265
79.75,53.944,1.3,0.10288
69.182,55.155,1.3,8.8427
70.052,55.366,1.3,7.771
78.05,57.217,1.3,12.031
83.5,57.438,1.3,0.45283
76.25,57.885,1.3,2.8177
79.25,58.5,1.3,1.0366
78.75,58.789,1.3,2.64
80.007,58.75,1.3,0.73183
80.426,58.926,1.3,0.087465
77.252,59.5,1.3,5.2316
38.051,59.75,1.3,2.1411
36.25,60.75,1.3,0.018982
80.553,60.871,1.3,0.41426
77.627,63.873,1.3,0.87386
77.75,66.5,1.3,0.68583
75.633,76.367,1.3,0.59035
72.5,76.847,1.3,0.62672
75.75,77,1.3,0.052436
77,77.75,1.3,0.27348
11,90.735,1.3,0.45293
113.86,101.98,1.3,0.49903
120.75,108.75,1.3,0.87317
66.49,113.86,1.3,0.84877
