9.25,1.25,1.3,0.042249
19.737,1.4844,1.3,1.7968
31.5,2.5839,1.3,0.47614
80,3.009,1.3,0.31491
6.6616,3.4535,1.3,0.52272
8.2483,3.4926,1.3,4.8037
98.416,3.5167,1.3,2.9267
81.614,3.9667,1.3,2.9709
81.924,3.8262,1.3,3.0951
99.226,3.4697,1.3,7.0138
82.25,4.6083,1.3,1.3882
9.4534,4.6043,1.3,5.4369
82.359,4.9303,1.3,2.3558
8.498,5.7589,1.3,2.8974
31.194,6.5385,1.3,1.2844
34,6,1.3,0.49377
29.5,6.25,1.3,0.29517
98.653,6.347,1.3,0.4137
98.338,6.5,1.3,0.44537
22.5,7.48,1.3,0.52801
11.336,7.6641,1.3,0.74821
96.579,7.3536,1.3,0.92154
9.1857,8,1.3,0.41938
17.5,8,1.3,0.33007
29.828,7.973,1.3,6.1508
8.2523,8.25,1.3,0.52103
26.366,8.4398,1.3,1.1122
34,8.25,1.3,0.13465
7.75,8.75,1.3,0.079786
14.779,8.8347,1.3,1.1251
31.214,8.8921,1.3,19.837
18.549,9.25,1.3,0.49197
94.8,9.4497,1.3,0.83554
23,9.75,1.3,0.303
31,10.131,1.3,1.2502
21.514,10.25,1.3,0.37214
28.5,10.25,1.3,0.84165
10.647,10.95,1.3,0.51606
94.5,10.712,1.3,2.0185
14.25,11,1.3,0.057082
93.924,11.076,1.3,1.958
18,11.301,1.3,1.1188
29.839,11.522,1.3,0.87155
93.25,11.5,1.3,0.58266
24.75,11.711,1.3,0.40304
27.5,11.75,1.3,0.80903
40.25,11.75,1.3,0.15281
43.547,11.721,1.3,2.5699
96,12,1.3,2.146
18.5,12.5,1.3,0.9752
20.296,12.715,1.3,1.116
21,12.5,1.3,0.81939
15.461,12.905,1.3,0.87078
34.692,13.271,1.3,0.54997
47,13.25,1.3,0.06412
34.603,13.066,1.3,0.23631
93.279,13.661,1.3,15.673
17.852,13.68,1.3,5.8901
44.624,13.828,1.3,17.133
28.903,13.847,1.3,0.034068
93.332,13.782,1.3,11.707
21.5,14.452,1.3,0.86174
44.353,14.437,1.3,6.2359
95,14.5,1.3,1.3414
48,14.75,1.3,0.14096
44.049,14.994,1.3,4.4099
21.15,15.1,1.3,0.95524
95.423,15.338,1.3,5.56
24.5,15.85,1.3,0.45147
92.457,15.405,1.3,22.752
38.951,15.761,1.3,1.0294
32.687,16.166,1.3,0.64104
43.81,16.2,1.3,1.7943
95.965,16.444,1.3,2.1658
102.53,16.528,1.3,0.46678
19.25,16.832,1.3,0.28061
44,16.75,1.3,0.4333
93.75,16.552,1.3,7.2022
47.679,17,1.3,0.18314
19.478,17.232,1.3,1.0483
26.75,18.75,1.3,0.19562
25.25,19.25,1.3,0.073304
27,19.25,1.3,0.17182
43.266,19.476,1.3,2.2603
19.819,20.578,1.3,1.801
33.5,20.529,1.3,0.35383
46.25,20.5,1.3,0.13456
33.28,20.97,1.3,0.33733
28.75,21.5,1.3,0.41935
17,21.75,1.3,0.182
24.946,21.796,1.3,1.9849
39.75,22,1.3,0.089827
45.879,22.121,1.3,0.57243
17.084,22.5,1.3,0.29042
40,22.5,1.3,0.18468
25.392,23.108,1.3,7.5348
43.875,23.112,1.3,0.69646
25.518,23.194,1.3,5.6544
40,23.25,1.3,0.11675
83.699,23.688,1.3,0.56751
80.312,23.829,1.3,11.927
26.783,24,1.3,6.8007
39.75,24.058,1.3,0.32068
23.5,24.5,1.3,3.3125
79,24.75,1.3,0.66892
81.5,24.75,1.3,0.15458
21.573,25.014,1.3,2.8371
23,25.25,1.3,5.4818
27.791,25.26,1.3,3.0048
78.75,25.316,1.3,3.8428
81.311,25.439,1.3,3.2639
18.976,25.297,1.3,0.88922
32.033,25.357,1.3,3.7628
22.75,25.75,1.3,0.18366
27.568,25.924,1.3,5.8208
78.839,25.677,1.3,4.5347
81.198,25.813,1.3,15.211
39,26.205,1.3,0.64969
25.933,26.704,1.3,7.3321
80.271,26.557,1.3,12.995
23,27.072,1.3,9.3081
28.73,27,1.3,0.42847
31.554,27.088,1.3,3.7276
77.5,27.25,1.3,0.27771
27.378,27.625,1.3,5.7846
31.454,27.401,1.3,3.7663
39.75,27.5,1.3,0.17409
77.5,27.75,1.3,0.51424
83.75,27.75,1.3,0.1232
24.615,28.25,1.3,1.6671
32.588,28.677,1.3,6.3777
37.49,28.5,1.3,0.41593
25.42,29.92,1.3,4.7717
80.189,29.948,1.3,1.4919
26.879,30.038,1.3,6.1316
19.318,30.318,1.3,1.2735
27.5,30.497,1.3,4.6156
33.857,31.579,1.3,1.2142
40.101,31.282,1.3,0.60061
42.5,31.25,1.3,0.26514
28,31.5,1.3,0.20424
24,31.758,1.3,0.94092
33,32,1.3,0.39842
32.5,32.25,1.3,0.37296
32.25,32.75,1.3,1.8086
25.5,33.75,1.3,0.42442
37.5,34.156,1.3,0.50879
40.5,34,1.3,0.094021
41,34.25,1.3,0.45382
37.952,34.384,1.3,4.3807
41.611,34.5,1.3,0.15994
32.169,36.669,1.3,0.47154
40.765,37.265,1.3,0.36876
36.305,37.686,1.3,0.69354
31,38.058,1.3,0.79562
31.369,38.75,1.3,2.9426
37.25,38.75,1.3,0.047638
41.42,39.285,1.3,0.67173
31.75,39.5,1.3,0.36305
40.75,40,1.3,0.22281
30.25,40.5,1.3,0.12466
38,40.705,1.3,0.51928
30.435,41.685,1.3,0.11017
32.988,41.644,1.3,10.871
42.25,43.25,1.3,0.29154
34,44.5,1.3,0.23739
33.113,44.829,1.3,2.7017
32.537,44.975,1.3,0.6411
37.177,45.246,1.3,0.35762
40.5,46,1.3,0.60531
59.25,46.555,1.3,0.60521
63.75,46.5,1.3,0.68465
59.366,46.866,1.3,0.31433
66.382,47.71,1.3,0.78604
37.75,48.5,1.3,0.57233
44,48.252,1.3,0.23836
60.379,48.879,1.3,0.27633
44.429,49.97,1.3,18.206
62.5,50,1.3,0.43482
59.303,50.238,1.3,1.1537
43.165,51.309,1.3,4.0839
64.989,51.147,1.3,16.462
43.096,51.357,1.3,6.5309
45.463,51.535,1.3,11.457
63.104,51.354,1.3,0.25864
64,51.5,1.3,3.4087
45.891,51.499,1.3,7.9551
43,52.259,1.3,4.1393
24.5,52.706,1.3,0.35072
64.434,52.733,1.3,3.7726
83.981,52.312,1.3,0.2231
108.58,52.709,1.3,0.67355
19.25,52.837,1.3,0.70127
113.09,52.754,1.3,0.56322
49.854,52.841,1.3,0.10873
77.512,52.988,1.3,0.17093
19.872,53.25,1.3,0.77344
44.88,53.601,1.3,11.481
77,53.25,1.3,0.11047
21.75,53.5,1.3,0.88696
73.953,55.039,1.3,0.21194
106.72,54.75,1.3,0.37567
68.349,55.151,1.3,0.53349
70,55.25,1.3,0.39584
46,55.5,1.3,1.958
49.001,55.251,1.3,0.19617
65.5,55.5,1.3,0.15782
82.175,55.425,1.3,0.71309
60.709,55.642,1.3,0.26893
82.725,55.75,1.3,0.16537
55.25,55.95,1.3,0.12151
18.167,56.743,1.3,0.61213
67.75,56.5,1.3,0.44534
83,56.5,1.3,0.15611
18.342,56.658,1.3,0.60509
42,56.75,1.3,0.063269
78.5,56.622,1.3,0.51046
76,57,1.3,0.24857
63.6,58.082,1.3,2.0648
76.323,57.69,1.3,3.815
101.22,58,1.3,0.29616
43,58.25,1.3,0.31325
57.75,58.077,1.3,0.75892
2.25,58.864,1.3,0.23897
76.555,58.628,1.3,7.0951
16.827,59.304,1.3,0.94284
57.517,59.263,1.3,1.628
57.968,59.12,1.3,1.3971
81.25,59.467,1.3,0.72675
57.25,59.75,1.3,1.0267
84.42,59.955,1.3,0.68089
69,60,1.3,0.1845
54.812,59.998,1.3,0.28005
68.5,60.25,1.3,0.36333
58.25,60.54,1.3,1.4151
58.376,60.876,1.3,0.59229
49.696,61.25,1.3,0.47045
67,61.25,1.3,0.46851
61.25,61.5,1.3,0.23081
61.944,61.349,1.3,0.21915
57.954,61.869,1.3,1.7195
65.25,61.75,1.3,0.089066
64.75,62,1.3,0.40952
57.865,61.993,1.3,1.1719
50.75,63.064,1.3,0.57729
57,63.25,1.3,0.35422
55.258,63.933,1.3,1.8051
63.5,64.806,1.3,0.23906
64,64.863,1.3,0.23988
68.085,64.583,1.3,10.984
69.43,64.93,1.3,4.0997
70,65.036,1.3,3.1462
99.5,65.144,1.3,8.4019
53.991,65.475,1.3,3.9846
47.25,65.75,1.3,0.18362
100.5,65.799,1.3,3.2532
48.75,66.25,1.3,0.087068
55.23,66.434,1.3,0.73828
98.337,66.25,1.3,2.3723
98.709,66.25,1.3,4.3662
67.914,66.534,1.3,5.251
69.25,66.5,1.3,0.79823
68.738,66.75,1.3,5.2498
99.704,67.446,1.3,21.314
71,68.25,1.3,0.50883
102.9,68.835,1.3,0.69237
71.648,69.398,1.3,0.32298
96.75,69.25,1.3,0.11371
70.786,70.551,1.3,0.71617
72.176,75.964,1.3,0.57356
75.5,77.784,1.3,0.39525
75.413,78.087,1.3,0.12055
75.659,81.2,1.3,1.7434
75.426,83.127,1.3,7.2262
75.5,84.175,1.3,0.84867
78.25,85.5,1.3,0.12429
75.308,86.492,1.3,0.79779
75.501,87.501,1.3,1.3075
72.373,88,1.3,0.63481
1.8185,92.561,1.3,12.181
2.25,93.025,1.3,3.1494
2.25,94.25,1.3,3.3404
2,95,1.3,0.21174
59.5,95.5,1.3,0.59136
59,95.75,1.3,0.068575
1.2525,96.247,1.3,4.9046
5.9,99.464,1.3,0.37537
60.784,100,1.3,0.22861
52.739,100.52,1.3,0.36583
57.61,100.42,1.3,1.1803
56.544,102.2,1.3,5.1164
2,102.69,1.3,0.55434
70.259,119.25,1.3,0.5234
72.25,119.74,1.3,0.23049
