36.5,1.25,1.3,0.12802
71.605,1.25,1.3,0.37446
74.75,1.6074,1.3,0.25831
74,1.75,1.3,0.020322
31.796,2.971,1.3,0.99659
29.75,3.75,1.3,0.06341
75.451,3.75,1.3,0.076521
29.25,4,1.3,0.34371
35.049,4,1.3,0.40639
13.77,5.3779,1.3,0.26545
73.24,6.1913,1.3,1.2279
17.593,6.5,1.3,0.19076
13.628,7.4532,1.3,3.1165
33.646,7.6526,1.3,0.27328
76,8,1.3,0.42376
32.75,8.75,1.3,0.06175
36.5,8.75,1.3,0.074331
18.75,9,1.3,0.077399
70.66,8.8567,1.3,0.58907
15.172,9.7538,1.3,28.209
31.5,9.7932,1.3,0.59755
76.934,9.7815,1.3,0.84072
13.596,10.306,1.3,3.0615
31.25,10.5,1.3,0.79874
22.75,11,1.3,0.27174
16.5,11.663,1.3,0.26011
31.295,11.672,1.3,0.51429
73.985,12.165,1.3,12.186
15.112,12.388,1.3,0.59984
26.249,12.47,1.3,7.4933
31.75,12.941,1.3,1.2492
20.419,13.407,1.3,0.45794
27.383,13.249,1.3,1.8717
31.374,13.567,1.3,27.017
74.926,13.738,1.3,5.7798
26.316,14.047,1.3,28.54
73.423,14.33,1.3,9.2696
75.329,13.625,1.3,12.627
73.873,14.546,1.3,9.0185
16.967,14.671,1.3,0.40109
32.133,14.879,1.3,1.7847
33.198,15.154,1.3,2.2126
33.841,15.441,1.3,1.5793
30.75,15.75,1.3,0.40923
22,16.149,1.3,0.42498
74.254,17.533,1.3,4.5203
50.896,17.885,1.3,8.3725
52.278,18.38,1.3,4.9393
36.25,18.5,1.3,0.23173
72.5,18.5,1.3,0.26645
23.25,19.652,1.3,0.58773
50.305,19.5,1.3,3.9875
72.872,19.5,1.3,4.0351
50.984,19.882,1.3,13.356
51.88,20,1.3,1.6191
72.794,20.044,1.3,3.784
73.533,20,1.3,3.9271
51.263,19.996,1.3,8.686
73.867,20.117,1.3,1.332
36.75,20.5,1.3,0.017365
76.507,20.743,1.3,0.042218
73.483,20.908,1.3,9.221
33.5,21.25,1.3,0.23325
29.25,21.5,1.3,0.30201
74,21.34,1.3,2.072
72.25,21.771,1.3,9.6095
73.372,22.066,1.3,5.336
30.75,22.25,1.3,0.32615
84.282,22.5,1.3,0.36648
25.135,22.635,1.3,0.52968
44.25,22.75,1.3,0.15926
51.493,22.514,1.3,0.876
26.75,23.25,1.3,0.18796
33.936,23.582,1.3,1.0569
37.257,23.389,1.3,0.34697
38.92,23.67,1.3,1.6293
63.118,23.637,1.3,4.3262
79.5,23.625,1.3,0.47242
61.196,24.054,1.3,0.72437
31.5,24.75,1.3,0.4521
32.227,25.05,1.3,4.7584
32.75,25.25,1.3,1.0374
64.75,25.75,1.3,0.090938
44.968,26.026,1.3,0.27206
70.17,26.25,1.3,0.40496
69.556,26.445,1.3,0.99066
36.339,26.888,1.3,13.986
33.747,27.003,1.3,0.21014
64.75,27.208,1.3,0.5452
33.5,27.498,1.3,0.32898
43.5,27.75,1.3,0.086267
34.75,27.859,1.3,6.3504
40.937,27.937,1.3,0.38209
66.75,28.25,1.3,0.89919
72.16,28.16,1.3,0.21599
36.843,28.968,1.3,5.3263
66.746,29.106,1.3,1.0988
35.237,29.141,1.3,3.9375
3.7748,30.101,1.3,0.31658
48.272,30.593,1.3,0.36244
45,30.75,1.3,0.21335
28.725,31.475,1.3,0.48557
31.987,31.971,1.3,0.27456
32.691,31.97,1.3,0.54979
29,32.25,1.3,0.059044
35.04,32.47,1.3,0.91391
29,33,1.3,0.017988
5.25,33.5,1.3,0.54873
28.75,33.5,1.3,0.55106
7.1663,35.084,1.3,4.0764
12.5,35,1.3,0.068461
6.8052,35.445,1.3,5.6542
8.1383,36.054,1.3,10.747
29.942,36.5,1.3,0.39355
32.571,36.5,1.3,0.14513
33.243,36.5,1.3,0.22601
6.9049,37,1.3,2.6163
11.675,38.25,1.3,1.2528
5.75,39.25,1.3,0.067758
2,40,1.3,0.43748
1.75,40.69,1.3,0.60304
3.9802,40.52,1.3,1.5505
1.5,41.138,1.3,1.4904
110.16,42.25,1.3,0.7221
111.25,43.75,1.3,0.12188
108.25,44.237,1.3,0.6825
112.86,45.489,1.3,0.38691
109.44,47,1.3,7.2928
33,47.323,1.3,0.32964
79,47.25,1.3,0.23615
30.75,47.5,1.3,0.053216
34.107,47.857,1.3,0.26711
108.25,47.75,1.3,2.9614
34.438,48,1.3,0.40406
110.7,48.518,1.3,10.085
83.75,48.75,1.3,0.5986
108.25,49,1.3,0.81449
108.92,49.675,1.3,3.8738
109.33,50.085,1.3,15.217
110,51.25,1.3,0.36406
29.119,60.14,1.3,0.12546
77.24,65.01,1.3,1.0101
47.989,66.25,1.3,0.29897
28.974,67.52,1.3,0.26792
28.52,67.751,1.3,0.43593
33.368,70.618,1.3,0.48326
5.4564,71.206,1.3,0.22767
76.803,71.303,1.3,0.41169
41.454,71.5,1.3,0.74255
2.25,72.75,1.3,0.32731
7,73.5,1.3,0.62539
10.5,73.964,1.3,0.35977
2.75,74.275,1.3,0.22821
10,74.75,1.3,0.068864
11.25,76.25,1.3,1.7647
12.076,76.236,1.3,2.5749
76.609,77.141,1.3,0.30485
78.362,77.362,1.3,0.46297
10.75,77.554,1.3,1.2921
12.75,77.65,1.3,3.5425
10.981,77.981,1.3,3.1808
12.25,78.25,1.3,2.4426
16.75,78.5,1.3,0.13924
6.4851,78.992,1.3,9.2193
6,80.75,1.3,0.30258
17.15,80.65,1.3,0.35591
18.5,82.149,1.3,0.71909
18.531,82.389,1.3,0.94706
15.484,83.484,1.3,0.23204
7,84,1.3,0.068369
16.968,101.61,1.3,0.62375
68.5,106.75,1.3,0.35674
67.185,107.06,1.3,0.89267
72.661,108.75,1.3,0.41584
66.14,111.07,1.3,1.6023
89.262,121.76,1.3,0.52671
