21,1.25,1.3,0.14241
22.75,1.5,1.3,1.1516
20.988,1.75,1.3,0.25836
20.503,1.9967,1.3,0.90688
19.821,2.25,1.3,1.0061
19.04,2.5,1.3,2.297
48,2.5,1.3,0.020699
47.75,3,1.3,0.12705
16.789,3.3203,1.3,1.0527
43.5,3.5,1.3,0.034096
23.75,4,1.3,0.33498
36.121,4.0386,1.3,0.79212
123,4.25,1.3,0.03348
46.5,4.5,1.3,0.062319
121,5.6925,1.3,0.29209
21.789,6.2892,1.3,0.67354
38.948,6.9342,1.3,7.1554
37.5,7.25,1.3,0.32342
120.25,7.287,1.3,0.042535
18.186,7.736,1.3,0.29718
37.292,7.7917,1.3,0.78959
38.701,7.7672,1.3,4.2308
40.385,8.1309,1.3,1.76
18.25,8.1215,1.3,0.25604
38.583,9.25,1.3,1.9764
22.023,9.5423,1.3,1.4753
35.074,9.7238,1.3,0.62985
35.341,9.5905,1.3,0.32141
121.75,9.75,1.3,0.025196
18.827,10.318,1.3,0.27734
121.45,10.3,1.3,0.25152
20.5,11.179,1.3,0.066029
37.857,10.984,1.3,0.76709
42.018,11,1.3,0.54492
17.75,12.75,1.3,0.11556
124,12.75,1.3,3.5519
24.25,13.75,1.3,0.21601
17.607,14.513,1.3,1.4142
17.626,14.546,1.3,0.70487
20.688,14.307,1.3,2.1343
122.5,16.25,1.3,0.26047
20.75,17,1.3,0.31671
20.25,17.615,1.3,0.75152
22.507,17.51,1.3,0.42657
19.356,18.144,1.3,1.223
68.847,18.643,1.3,1.662
72.775,19,1.3,0.36091
18,19.181,1.3,0.35367
19.568,19.374,1.3,12.525
65.867,20.19,1.3,0.46534
22.749,20.893,1.3,0.65576
71.943,21.443,1.3,0.28436
72,21.643,1.3,0.41253
68.892,22,1.3,0.98733
18.757,22.507,1.3,0.6796
20.431,23.283,1.3,1.8463
67.949,23.374,1.3,13.378
68.5,24.35,1.3,1.3125
20.346,25.706,1.3,7.4656
18.521,26.25,1.3,2.7486
19.25,26.472,1.3,3.0969
20.5,26.293,1.3,1.4127
71.507,26.452,1.3,0.84186
20.116,26.866,1.3,8.4678
23,26.75,1.3,0.30689
23.009,27.25,1.3,0.90294
20.126,27.868,1.3,10.991
23.575,28.069,1.3,0.68699
17.5,29.25,1.3,0.51542
72.033,29.5,1.3,0.088562
71.25,29.75,1.3,0.33002
30.381,30.197,1.3,0.48829
36.615,35.201,1.3,0.65926
101.25,36.75,1.3,0.18842
54.964,37.144,1.3,0.95348
104.8,37.508,1.3,1.691
105.08,38.335,1.3,2.1856
53.518,39.324,1.3,0.98384
52.5,39.75,1.3,0.43761
101,40,1.3,0.048394
104.58,40,1.3,3.749
106.65,40.172,1.3,1.2606
55.25,40.5,1.3,0.21278
35.25,41.5,1.3,0.42084
39.943,41.997,1.3,1.4354
58.5,42,1.3,0.22224
108.31,42.119,1.3,1.9133
39.603,42.159,1.3,1.8219
35,42.5,1.3,0.45975
105.29,42.575,1.3,0.43699
39.492,42.508,1.3,0.12114
104.75,42.75,1.3,0.48404
38.75,43,1.3,0.44934
54.59,43.156,1.3,1.1008
60.016,43,1.3,0.44788
55.914,44.873,1.3,2.1892
57.986,45.121,1.3,0.49484
36.499,45.254,1.3,1.5969
41.525,45.523,1.3,1.0895
55.795,45.056,1.3,1.9397
39.244,45.462,1.3,3.1797
33.25,46.5,1.3,0.12713
60.75,46.298,1.3,0.77236
5.5283,46.528,1.3,0.39766
59.196,46.804,1.3,0.41343
64.638,46.888,1.3,0.16543
52.5,47,1.3,0.055133
53,47.25,1.3,0.50431
69.75,47.25,1.3,0.061338
34,47.5,1.3,0.18211
65.5,47.5,1.3,0.45577
63.5,47.75,1.3,0.443
55.285,47.917,1.3,1.1738
70.25,48,1.3,0.26426
58.986,48.25,1.3,0.72237
35.165,48.831,1.3,0.7598
39.137,48.991,1.3,1.5428
41.25,48.75,1.3,0.3099
62.495,49,1.3,0.15719
61.369,49.455,1.3,2.0219
3.0303,49.926,1.3,0.34188
70.857,49.977,1.3,1.1623
6.5,51.25,1.3,0.39364
68.571,51.611,1.3,1.0138
60.075,52.205,1.3,0.70312
63.73,52.825,1.3,1.3131
87.75,52.939,1.3,0.31354
69.734,53.742,1.3,9.6584
88.75,54,1.3,0.49811
59.5,54.5,1.3,0.39003
69.096,55.117,1.3,6.6826
70.311,55.222,1.3,7.9713
7.8402,56.668,1.3,32.341
67,56.75,1.3,0.22221
85.377,56.431,1.3,1.5875
89.259,56.82,1.3,2.1452
6.75,57.25,1.3,0.20249
77.279,57.007,1.3,6.5958
8.3932,57.613,1.3,3.4995
68.75,57.5,1.3,0.016473
78.763,57.298,1.3,8.856
82.486,57.5,1.3,0.38958
6.75,57.75,1.3,0.18585
8.5,57.845,1.3,3.0889
82.5,58,1.3,0.34522
86,58,1.3,0.36352
9,58.331,1.3,0.87969
68.794,58.384,1.3,0.47615
76.555,58.73,1.3,4.5987
78.25,59.268,1.3,4.5672
44.997,59.983,1.3,0.18094
40.75,60.5,1.3,0.36622
87.5,60.5,1.3,0.29881
48.5,60.75,1.3,4.9568
49.504,60.73,1.3,7.1838
49.938,60.514,1.3,3.9742
89.208,60.886,1.3,0.40958
48.711,61.991,1.3,9.7599
49.252,62.002,1.3,2.8992
49.763,63.154,1.3,0.93268
52,64.25,1.3,0.038245
40.25,79.25,1.3,1.2901
38.404,79.904,1.3,0.59733
39.881,79.994,1.3,0.79453
41.75,80.5,1.3,0.21944
40.5,81.75,1.3,0.15896
38.382,82.958,1.3,7.7623
39,82.75,1.3,3.419
39.795,83.056,1.3,4.9725
37.332,84.69,1.3,3.9774
40.25,85.101,1.3,4.9152
38.766,85.717,1.3,22.388
41.65,88.35,1.3,0.98708
77.506,88.75,1.3,0.68146
37,89.25,1.3,0.12664
39.662,89.338,1.3,0.3749
38.945,89.926,1.3,0.9264
59.75,94.487,1.3,1.6945
113.75,96.75,1.3,0.15649
59.367,97.117,1.3,0.90216
114.27,97.516,1.3,0.37491
114.28,97.972,1.3,0.22534
113.58,99.75,1.3,0.56652
75.551,100.5,1.3,0.14303
70.577,100.53,1.3,0.57377
58.49,101.99,1.3,0.55066
95.416,102.25,1.3,0.24327
74,102.36,1.3,1.6348
71.75,103.25,1.3,0.18491
78.552,104.77,1.3,0.38771
94.644,105.54,1.3,0.81363
73.721,106.04,1.3,4.0791
74.574,106.15,1.3,9.6199
74.523,106.61,1.3,7.2296
95.75,106.5,1.3,0.016653
65.841,107.23,1.3,0.52665
13.372,107.37,1.3,0.21401
73.635,107.72,1.3,6.8691
69,107.75,1.3,0.52864
122.5,108,1.3,0.48004
16.234,109.27,1.3,0.41441
14.5,109.85,1.3,0.61557
15,109.75,1.3,0.32534
95.753,109.85,1.3,1.0299
72.495,110.25,1.3,0.25579
71.94,110.5,1.3,0.27736
71.25,110.75,1.3,0.23761
75.163,110.91,1.3,0.91237
14.25,111.5,1.3,0.043619
76.503,112.5,1.3,0.31534
16.75,113.5,1.3,3.8792
78,113.5,1.3,0.12953
17.823,114.16,1.3,6.0693
47,113.77,1.3,0.76875
88.858,113.89,1.3,0.1786
90.065,114.06,1.3,0.46656
99.26,114,1.3,0.22446
104.14,114,1.3,0.77548
81.581,114.46,1.3,0.87901
85.931,114.5,1.3,0.65235
23.798,114.75,1.3,0.20186
71.122,114.75,1.3,0.56695
73.753,114.75,1.3,0.18455
16.527,115.61,1.3,2.8148
19.355,116.25,1.3,0.5194
21.325,116.57,1.3,0.60491
11.89,117.89,1.3,2.5951
11.483,118.27,1.3,2.8552
13.08,118.77,1.3,5.3866
16.148,119.35,1.3,0.32055
10.5,119.77,1.3,5.0506
13.5,121.25,1.3,4.4134
11.477,121.63,1.3,4.8559
16,121.5,1.3,0.60544
16.25,122,1.3,4.8794
21.709,122.04,1.3,0.27237
112.5,122.5,1.3,0.37837
14.999,122.75,1.3,0.85188
15.888,123,1.3,5.7281
16.5,123.27,1.3,4.052
16.75,124,1.3,0.18613
