7.6523,1.25,1.3,0.39962
78.671,1.3688,1.3,1.6432
10,2.1349,1.3,0.77334
25.284,1.9932,1.3,0.4524
13.024,2.3212,1.3,0.12405
27.5,2.7638,1.3,0.070285
19.825,3.0314,1.3,1.5464
20.5,3.75,1.3,0.55554
6.2594,4.2406,1.3,0.38241
78.5,4.25,1.3,0.077268
14.826,4.6741,1.3,0.12392
32.04,4.5,1.3,0.52337
40.176,4.5736,1.3,0.81333
21.418,4.7638,1.3,13.827
12.908,5.9392,1.3,3.1308
13.011,6,1.3,2.5739
37.75,6.1634,1.3,0.72628
19.393,6.25,1.3,0.8809
27.75,6.75,1.3,0.26045
37.5,6.75,1.3,0.97093
3.75,7,1.3,0.10357
18,7,1.3,0.73664
12.226,7.2112,1.3,1.4862
20,7.3125,1.3,0.79249
7.4834,7.4468,1.3,1.5131
27.5,7.402,1.3,0.31111
37.909,7.6595,1.3,1.4846
13.5,7.593,1.3,0.40391
17.631,8.2384,1.3,1.4324
19.937,8.0631,1.3,2.3568
38.16,8.1877,1.3,5.5275
11.993,8.0069,1.3,0.81304
5.6912,8.8088,1.3,0.17743
19.8,9.0623,1.3,24.347
34.582,8.9181,1.3,1.0193
1.5,9.25,1.3,0.034323
32.282,9.7498,1.3,2.5491
38.615,9.3426,1.3,1.8483
42.301,9.702,1.3,0.30743
5.25,10,1.3,0.2754
15.577,9.7996,1.3,2.0305
4.75,10.25,1.3,0.50025
33.5,10.25,1.3,0.034601
58.25,10.75,1.3,0.33125
22.078,11.25,1.3,0.21464
33.984,11.82,1.3,1.3268
4.75,11.593,1.3,0.077346
18.75,12,1.3,0.3802
15.285,12.25,1.3,0.62151
17.374,12.376,1.3,2.9584
31.659,12.591,1.3,1.532
35.25,12.75,1.3,5.8818
56.165,12.561,1.3,10.884
31.849,13.464,1.3,5.4174
32.535,13.29,1.3,5.3454
18.997,13.747,1.3,2.4922
32.405,13.374,1.3,6.4508
31.733,13.682,1.3,5.1622
33.695,13.515,1.3,9.956
55.747,13.78,1.3,10.71
17.311,14.075,1.3,8.3054
19.019,13.83,1.3,3.4473
60.5,13.776,1.3,0.21364
13.25,14.25,1.3,0.33907
17.635,14.099,1.3,6.0759
34.691,14.494,1.3,9.3645
55.656,14.102,1.3,6.9199
56.578,14.526,1.3,11.311
56.835,14.596,1.3,6.65
22,15,1.3,0.18482
31.252,14.909,1.3,1.5682
55.341,15.159,1.3,0.32064
39.25,15.25,1.3,0.031054
18,15.5,1.3,1.0943
37.25,15.75,1.3,0.13314
38,15.75,1.3,0.03169
35.5,16,1.3,0.30755
38.75,16,1.3,0.09066
33.25,16.25,1.3,0.073555
15,16.5,1.3,0.85452
21.75,17.75,1.3,0.050296
66.413,18.5,1.3,1
63.25,19.25,1.3,0.73832
17.734,19.628,1.3,0.90844
42.25,20.75,1.3,0.09775
20.15,21.275,1.3,0.71786
59.5,21.25,1.3,0.073868
37,21.678,1.3,3.1836
66.055,22.568,1.3,4.2387
59.25,22.749,1.3,0.095662
23.814,23.083,1.3,1.4072
25.892,23,1.3,0.3231
37.328,23.147,1.3,6.0814
31.25,23.25,1.3,0.15156
35.209,23.285,1.3,1.1845
45.5,23.5,1.3,0.035925
70.25,23.75,1.3,0.256
64.997,23.849,1.3,1.5862
67.202,23.944,1.3,1.2208
24.261,25.082,1.3,3.7003
49.728,25.009,1.3,0.47933
21.502,25.51,1.3,3.1951
31.823,25.358,1.3,2.6577
32.137,25.07,1.3,1.6678
26.497,25.496,1.3,2.5204
26.494,25.538,1.3,2.4641
37.25,25.5,1.3,0.030764
31.969,25.524,1.3,2.5823
21.5,25.958,1.3,1.5458
37,26.504,1.3,0.59445
47.273,27.023,1.3,6.6985
42.75,27.25,1.3,0.02165
66.281,27.219,1.3,0.69266
28,27.583,1.3,0.13835
48.25,27.75,1.3,0.82091
24.272,27.883,1.3,7.6795
28.158,27.979,1.3,0.56212
20.953,28.23,1.3,0.60064
48.5,28.547,1.3,1.803
22.924,28.75,1.3,1.4981
25.56,28.83,1.3,3.2528
25.5,29.5,1.3,2.0253
35.84,30.115,1.3,0.29686
20.448,30.698,1.3,0.31721
38.5,30.5,1.3,0.16607
117.53,30.873,1.3,0.78301
24,30.75,1.3,0.1853
29.5,30.75,1.3,0.10483
51.602,30.914,1.3,0.45826
51.782,31,1.3,0.24168
28.181,31.819,1.3,0.86042
118.75,32,1.3,0.34086
27.43,31.889,1.3,4.322
51.846,32.14,1.3,0.68467
26.961,32.289,1.3,0.97419
23.234,32.897,1.3,0.72308
112.75,33.25,1.3,0.92444
118.48,33.461,1.3,4.4692
116.66,34.104,1.3,15.105
118.45,33.633,1.3,7.0396
29.724,34.224,1.3,0.40374
43.5,33.865,1.3,1.0107
47.25,34,1.3,0.343
113,34,1.3,1.0012
116.64,33.804,1.3,9.3681
24.5,34.25,1.3,0.043393
53.5,34.414,1.3,0.43609
12,34.5,1.3,0.10773
43.75,34.51,1.3,0.12356
115.95,35.28,1.3,8.2205
119,35.25,1.3,0.91484
9.565,35.609,1.3,0.76298
118.75,35.75,1.3,4.9734
50.709,36.25,1.3,0.56511
68.478,36.272,1.3,9.4483
117.41,36.483,1.3,8.2121
6.4919,37.039,1.3,0.44357
49.25,37.021,1.3,0.748
44.473,37.628,1.3,27.401
68.091,37.595,1.3,8.2203
8.8103,37.75,1.3,0.4042
44.059,37.753,1.3,4.408
67.894,37.554,1.3,7.1234
69.645,37.695,1.3,8.0289
68.599,38.449,1.3,16.297
49.25,38.5,1.3,0.053735
117.78,38.289,1.3,1.7358
8.7526,38.645,1.3,0.70768
45.426,38.794,1.3,3.7263
46,38.981,1.3,3.6241
114.48,38.75,1.3,0.33291
53.162,38.838,1.3,0.71207
10.155,39.608,1.3,0.51974
49.25,39.5,1.3,0.19962
52.857,39.519,1.3,0.40521
5.2077,39.75,1.3,1.0354
114.75,39.904,1.3,0.042198
52.25,39.991,1.3,0.6321
116.9,39.899,1.3,0.13243
5.5568,40.75,1.3,2.488
44.25,40.75,1.3,0.20541
119.25,40.75,1.3,0.15537
68.808,41.107,1.3,0.19999
6.4607,41.211,1.3,3.9996
78.443,41.557,1.3,0.34229
73.428,41.865,1.3,0.54826
106.59,41.911,1.3,0.63082
67.75,42,1.3,0.031061
106,41.988,1.3,0.15874
5.0315,42.748,1.3,4.9841
101,42.391,1.3,0.20388
104.91,42.842,1.3,0.21591
6.75,42.959,1.3,3.9638
104,43,1.3,0.1312
104.56,43,1.3,0.28429
108.25,43.25,1.3,0.092147
102,43.5,1.3,0.18984
106.97,43.507,1.3,1.6687
44.981,43.86,1.3,1.6365
51.015,43.821,1.3,1.1457
51.481,44,1.3,0.42052
48,44.905,1.3,0.42095
106.31,45.228,1.3,5.9281
102.03,45.995,1.3,1.5652
4.4999,46,1.3,0.20518
54.6,46.5,1.3,0.6207
3.75,47,1.3,0.25921
37.75,47.148,1.3,0.36327
50.377,47.318,1.3,1.173
42.679,47.679,1.3,0.27927
35.494,48.006,1.3,0.25864
44.25,48.284,1.3,0.35771
54.443,48.087,1.3,7.5448
55.601,48.161,1.3,4.049
56.5,48.25,1.3,0.81182
38.75,48.71,1.3,1.0005
50.75,48.5,1.3,0.16169
108.18,48.568,1.3,0.17364
46.708,49.462,1.3,0.21547
36.466,50.414,1.3,0.067082
50.25,50.25,1.3,0.38364
36.672,50.481,1.3,0.13108
44.545,51.25,1.3,0.84331
52.276,51.776,1.3,0.3855
54.973,51.973,1.3,0.47613
59.75,52.394,1.3,0.33276
39.75,53.227,1.3,0.73081
55.653,52.939,1.3,0.89373
39.74,53.26,1.3,0.71028
43.75,53.989,1.3,0.37705
50.812,54.688,1.3,5.3692
60.25,55.096,1.3,0.48799
50.754,55.534,1.3,10.806
58.32,56.035,1.3,0.8292
40.287,56.076,1.3,12.289
58.233,55.927,1.3,0.81563
39.633,56.44,1.3,1.3527
55.34,57,1.3,0.95707
39.358,57.385,1.3,8.2134
53.612,57.361,1.3,0.82792
41.074,57.553,1.3,7.7167
40,58.149,1.3,3.4599
59.736,58.25,1.3,0.27272
44.956,58.899,1.3,0.63983
96.242,59.008,1.3,0.38043
56.196,60.407,1.3,1.1744
58.75,60.25,1.3,0.57529
72.468,60.5,1.3,0.38221
37.75,60.75,1.3,0.57046
56.407,60.657,1.3,1.0975
58.775,61.942,1.3,2.4544
35.536,62.25,1.3,0.68011
59.296,63.236,1.3,8.6721
101.09,65,1.3,0.50588
60.042,66.505,1.3,0.40538
6.7979,66.75,1.3,0.31705
11.5,68,1.3,0.018485
7.5572,68.631,1.3,1.382
4.25,68.69,1.3,2.2029
4.75,68.75,1.3,1.6568
5.5401,69.648,1.3,9.463
36.75,70,1.3,0.32506
5.75,70.25,1.3,0.43036
31.25,70.5,1.3,1.2859
47.5,70.75,1.3,0.056256
48.5,70.749,1.3,0.76286
31,71,1.3,1.1696
33.5,71,1.3,1.3891
33.75,71.5,1.3,2.1316
51.072,71.43,1.3,0.08908
4,71.753,1.3,4.8974
6.75,72,1.3,3.1105
9.5,72.023,1.3,2.7703
10,72.326,1.3,2.7447
30.946,72.322,1.3,4.2559
5.5885,73.302,1.3,11.753
9.25,73.238,1.3,1.1292
50.517,73.386,1.3,10.706
49.516,74.118,1.3,12.293
50.882,74.568,1.3,8.6604
50.942,74.407,1.3,8.5538
49.908,74.655,1.3,5.3964
54.75,75.5,1.3,0.16468
4.6682,76.5,1.3,0.29754
113,76.515,1.3,0.34289
35.876,76.626,1.3,0.74347
49.145,76.926,1.3,1.0985
52.5,78.25,1.3,0.17811
6.9112,78.642,1.3,7.035
6.8534,79.364,1.3,6.5359
48.25,80.824,1.3,0.33469
10.718,81.614,1.3,0.62196
8,82,1.3,0.1909
103.72,82.511,1.3,1.652
11.5,83.25,1.3,2.4273
103.42,83.578,1.3,0.16658
101.25,83.75,1.3,0.18554
11,84.376,1.3,0.80672
46.543,84.457,1.3,0.3079
96.495,94.573,1.3,0.69092
60.189,95.311,1.3,1.1511
62,96,1.3,0.4248
65.25,96.494,1.3,0.79095
63.49,96.928,1.3,0.87088
63.543,96.849,1.3,1.1238
59.991,99.477,1.3,0.70972
60.487,99.75,1.3,0.18044
64.709,99.766,1.3,0.74229
66.25,100.5,1.3,0.15552
102.49,100.85,1.3,0.34407
62.75,101.78,1.3,0.56034
60.25,102.92,1.3,0.78023
65.831,103.83,1.3,0.6313
63.134,104.39,1.3,3.154
63.25,105.5,1.3,0.15041
70.705,106.5,1.3,1.0669
63.75,107.25,1.3,0.75309
61.5,107.56,1.3,0.43094
20.062,108.54,1.3,5.5727
54.935,108.49,1.3,0.66713
60.641,108.73,1.3,8.0609
64.5,108.51,1.3,3.0027
64.394,108.86,1.3,0.34737
54.75,109.22,1.3,0.28458
62.75,109.25,1.3,1.1693
63.466,109.52,1.3,13.979
19.631,110.29,1.3,14.649
20.279,110.03,1.3,14.928
20.695,110,1.3,10.278
56.75,111.25,1.3,1.5411
66.877,112.42,1.3,0.40496
120.86,112.92,1.3,1.0248
124,112.75,1.3,0.089228
53.5,114.25,1.3,0.26979
64.866,120.13,1.3,0.15981
114.63,120.87,1.3,0.1647
65,122.75,1.3,0.42334
114.25,124,1.3,0.63191
