%!PS-Adobe-3.0 EPSF-3.0
%%Creator: MATLAB, The MathWorks, Inc. Version 7.13.0.564 (R2011b). Operating System: Microsoft Windows 7.
%%Title: C:\Users\Martin\Desktop\microscopy\Thesis\images\matlab_fig\DoG_kernel.eps
%%CreationDate: 12/13/2012  18:06:29
%%DocumentNeededFonts: Helvetica
%%DocumentProcessColors: Cyan Magenta Yellow Black
%%LanguageLevel: 2
%%Pages: 1
%%BoundingBox:    63   306   530   534
%%EndComments

%%BeginProlog
% MathWorks dictionary
/MathWorks 160 dict begin
% definition operators
/bdef {bind def} bind def
/ldef {load def} bind def
/xdef {exch def} bdef
/xstore {exch store} bdef
% operator abbreviations
/c  /clip ldef
/cc /concat ldef
/cp /closepath ldef
/gr /grestore ldef
/gs /gsave ldef
/mt /moveto ldef
/np /newpath ldef
/cm /currentmatrix ldef
/sm /setmatrix ldef
/rm /rmoveto ldef
/rl /rlineto ldef
/s {show newpath} bdef
/sc {setcmykcolor} bdef
/sr /setrgbcolor ldef
/sg /setgray ldef
/w /setlinewidth ldef
/j /setlinejoin ldef
/cap /setlinecap ldef
/rc {rectclip} bdef
/rf {rectfill} bdef
% page state control
/pgsv () def
/bpage {/pgsv save def} bdef
/epage {pgsv restore} bdef
/bplot /gsave ldef
/eplot {stroke grestore} bdef
% orientation switch
/portraitMode 0 def /landscapeMode 1 def /rotateMode 2 def
% coordinate system mappings
/dpi2point 0 def
% font control
/FontSize 0 def
/FMS {/FontSize xstore findfont [FontSize 0 0 FontSize neg 0 0]
  makefont setfont} bdef
/ISOLatin1Encoding where {pop /WindowsLatin1Encoding 256 array bdef
ISOLatin1Encoding WindowsLatin1Encoding copy pop
/.notdef/.notdef/quotesinglbase/florin/quotedblbase/ellipsis/dagger
/daggerdbl/circumflex/perthousand/Scaron/guilsinglleft/OE/.notdef/.notdef
/.notdef/.notdef/quoteleft/quoteright/quotedblleft/quotedblright/bullet
/endash/emdash/tilde/trademark/scaron/guilsinglright/oe/.notdef/.notdef
/Ydieresis WindowsLatin1Encoding 128 32 getinterval astore pop}
{/WindowsLatin1Encoding StandardEncoding bdef} ifelse
/reencode {exch dup where {pop load} {pop StandardEncoding} ifelse
  exch dup 3 1 roll findfont dup length dict begin
  { 1 index /FID ne {def}{pop pop} ifelse } forall
  /Encoding exch def currentdict end definefont pop} bdef
/isroman {findfont /CharStrings get /Agrave known} bdef
/FMSR {3 1 roll 1 index dup isroman {reencode} {pop pop} ifelse
  exch FMS} bdef
/csm {1 dpi2point div -1 dpi2point div scale neg translate
 dup landscapeMode eq {pop -90 rotate}
  {rotateMode eq {90 rotate} if} ifelse} bdef
% line types: solid, dotted, dashed, dotdash
/SO { [] 0 setdash } bdef
/DO { [.5 dpi2point mul 4 dpi2point mul] 0 setdash } bdef
/DA { [6 dpi2point mul] 0 setdash } bdef
/DD { [.5 dpi2point mul 4 dpi2point mul 6 dpi2point mul 4
  dpi2point mul] 0 setdash } bdef
% macros for lines and objects
/L {lineto stroke} bdef
/MP {3 1 roll moveto 1 sub {rlineto} repeat} bdef
/AP {{rlineto} repeat} bdef
/PDlw -1 def
/W {/PDlw currentlinewidth def setlinewidth} def
/PP {closepath eofill} bdef
/DP {closepath stroke} bdef
/MR {4 -2 roll moveto dup  0 exch rlineto exch 0 rlineto
  neg 0 exch rlineto closepath} bdef
/FR {MR stroke} bdef
/PR {MR fill} bdef
/L1i {{currentfile picstr readhexstring pop} image} bdef
/tMatrix matrix def
/MakeOval {newpath tMatrix currentmatrix pop translate scale
0 0 1 0 360 arc tMatrix setmatrix} bdef
/FO {MakeOval stroke} bdef
/PO {MakeOval fill} bdef
/PD {currentlinewidth 2 div 0 360 arc fill
   PDlw -1 eq not {PDlw w /PDlw -1 def} if} def
/FA {newpath tMatrix currentmatrix pop translate scale
  0 0 1 5 -2 roll arc tMatrix setmatrix stroke} bdef
/PA {newpath tMatrix currentmatrix pop	translate 0 0 moveto scale
  0 0 1 5 -2 roll arc closepath tMatrix setmatrix fill} bdef
/FAn {newpath tMatrix currentmatrix pop translate scale
  0 0 1 5 -2 roll arcn tMatrix setmatrix stroke} bdef
/PAn {newpath tMatrix currentmatrix pop translate 0 0 moveto scale
  0 0 1 5 -2 roll arcn closepath tMatrix setmatrix fill} bdef
/vradius 0 def /hradius 0 def /lry 0 def
/lrx 0 def /uly 0 def /ulx 0 def /rad 0 def
/MRR {/vradius xdef /hradius xdef /lry xdef /lrx xdef /uly xdef
  /ulx xdef newpath tMatrix currentmatrix pop ulx hradius add uly
  vradius add translate hradius vradius scale 0 0 1 180 270 arc 
  tMatrix setmatrix lrx hradius sub uly vradius add translate
  hradius vradius scale 0 0 1 270 360 arc tMatrix setmatrix
  lrx hradius sub lry vradius sub translate hradius vradius scale
  0 0 1 0 90 arc tMatrix setmatrix ulx hradius add lry vradius sub
  translate hradius vradius scale 0 0 1 90 180 arc tMatrix setmatrix
  closepath} bdef
/FRR {MRR stroke } bdef
/PRR {MRR fill } bdef
/MlrRR {/lry xdef /lrx xdef /uly xdef /ulx xdef /rad lry uly sub 2 div def
  newpath tMatrix currentmatrix pop ulx rad add uly rad add translate
  rad rad scale 0 0 1 90 270 arc tMatrix setmatrix lrx rad sub lry rad
  sub translate rad rad scale 0 0 1 270 90 arc tMatrix setmatrix
  closepath} bdef
/FlrRR {MlrRR stroke } bdef
/PlrRR {MlrRR fill } bdef
/MtbRR {/lry xdef /lrx xdef /uly xdef /ulx xdef /rad lrx ulx sub 2 div def
  newpath tMatrix currentmatrix pop ulx rad add uly rad add translate
  rad rad scale 0 0 1 180 360 arc tMatrix setmatrix lrx rad sub lry rad
  sub translate rad rad scale 0 0 1 0 180 arc tMatrix setmatrix
  closepath} bdef
/FtbRR {MtbRR stroke } bdef
/PtbRR {MtbRR fill } bdef
/stri 6 array def /dtri 6 array def
/smat 6 array def /dmat 6 array def
/tmat1 6 array def /tmat2 6 array def /dif 3 array def
/asub {/ind2 exch def /ind1 exch def dup dup
  ind1 get exch ind2 get sub exch } bdef
/tri_to_matrix {
  2 0 asub 3 1 asub 4 0 asub 5 1 asub
  dup 0 get exch 1 get 7 -1 roll astore } bdef
/compute_transform {
  dmat dtri tri_to_matrix tmat1 invertmatrix 
  smat stri tri_to_matrix tmat2 concatmatrix } bdef
/ds {stri astore pop} bdef
/dt {dtri astore pop} bdef
/db {2 copy /cols xdef /rows xdef mul dup 3 mul string
  currentfile 
  3 index 0 eq {/ASCIIHexDecode filter}
  {/ASCII85Decode filter 3 index 2 eq {/RunLengthDecode filter} if }
  ifelse exch readstring pop
  dup 0 3 index getinterval /rbmap xdef
  dup 2 index dup getinterval /gbmap xdef
  1 index dup 2 mul exch getinterval /bbmap xdef pop pop}bdef
/it {gs np dtri aload pop moveto lineto lineto cp c
  cols rows 8 compute_transform 
  rbmap gbmap bbmap true 3 colorimage gr}bdef
/il {newpath moveto lineto stroke}bdef
currentdict end def
%%EndProlog

%%BeginSetup
MathWorks begin

0 cap

end
%%EndSetup

%%Page: 1 1
%%BeginPageSetup
%%PageBoundingBox:    63   306   530   534
MathWorks begin
bpage
%%EndPageSetup

%%BeginObject: obj1
bplot

/dpi2point 12 def
portraitMode 0756 6408 csm

    0     0  5612  2728 rc
86 dict begin %Colortable dictionary
/c0 { 0.000000 0.000000 0.000000 sr} bdef
/c1 { 1.000000 1.000000 1.000000 sr} bdef
/c2 { 0.900000 0.000000 0.000000 sr} bdef
/c3 { 0.000000 0.820000 0.000000 sr} bdef
/c4 { 0.000000 0.000000 0.800000 sr} bdef
/c5 { 0.910000 0.820000 0.320000 sr} bdef
/c6 { 1.000000 0.260000 0.820000 sr} bdef
/c7 { 0.000000 0.820000 0.820000 sr} bdef
c0
1 j
1 sg
   0    0 5613 2729 rf
6 w
0 2223 4349 0 0 -2223 730 2428 4 MP
PP
-4349 0 0 2223 4349 0 0 -2223 730 2428 5 MP stroke
4 w
DO
SO
6 w
0 sg
 730  205 mt 5079  205 L
 730 2428 mt 5079 2428 L
5079 2428 mt 5079  205 L
 730 2428 mt  730  205 L
 730 2428 mt 5079 2428 L
 730 2428 mt  730  205 L
 730 2428 mt  730 2384 L
 730  205 mt  730  248 L
%%IncludeResource: font Helvetica
/Helvetica /WindowsLatin1Encoding 120 FMSR

 697 2573 mt 
(0) s
1164 2428 mt 1164 2384 L
1164  205 mt 1164  248 L
1098 2573 mt 
(20) s
1599 2428 mt 1599 2384 L
1599  205 mt 1599  248 L
1533 2573 mt 
(40) s
2034 2428 mt 2034 2384 L
2034  205 mt 2034  248 L
1968 2573 mt 
(60) s
2469 2428 mt 2469 2384 L
2469  205 mt 2469  248 L
2403 2573 mt 
(80) s
2904 2428 mt 2904 2384 L
2904  205 mt 2904  248 L
2804 2573 mt 
(100) s
3339 2428 mt 3339 2384 L
3339  205 mt 3339  248 L
3239 2573 mt 
(120) s
3774 2428 mt 3774 2384 L
3774  205 mt 3774  248 L
3674 2573 mt 
(140) s
4209 2428 mt 4209 2384 L
4209  205 mt 4209  248 L
4109 2573 mt 
(160) s
4644 2428 mt 4644 2384 L
4644  205 mt 4644  248 L
4544 2573 mt 
(180) s
5079 2428 mt 5079 2384 L
5079  205 mt 5079  248 L
4979 2573 mt 
(200) s
 730 2428 mt  773 2428 L
5079 2428 mt 5035 2428 L
 392 2472 mt 
(-0.02) s
 730 2181 mt  773 2181 L
5079 2181 mt 5035 2181 L
 629 2225 mt 
(0) s
 730 1934 mt  773 1934 L
5079 1934 mt 5035 1934 L
 462 1978 mt 
(0.02) s
 730 1687 mt  773 1687 L
5079 1687 mt 5035 1687 L
 462 1731 mt 
(0.04) s
 730 1440 mt  773 1440 L
5079 1440 mt 5035 1440 L
 462 1484 mt 
(0.06) s
 730 1193 mt  773 1193 L
5079 1193 mt 5035 1193 L
 462 1237 mt 
(0.08) s
 730  946 mt  773  946 L
5079  946 mt 5035  946 L
 529  990 mt 
(0.1) s
 730  698 mt  773  698 L
5079  698 mt 5035  698 L
 462  742 mt 
(0.12) s
 730  451 mt  773  451 L
5079  451 mt 5035  451 L
 462  495 mt 
(0.14) s
 730  205 mt 5079  205 L
 730 2428 mt 5079 2428 L
5079 2428 mt 5079  205 L
 730 2428 mt  730  205 L
gs 730 205 4350 2224 rc
/c8 { 0.000000 0.000000 1.000000 sr} bdef
c8
1 0 22 0 22 0 22 0 21 0 22 0 22 0 22 0 
21 0 22 0 22 0 22 0 21 0 22 0 22 1 22 0 
21 0 22 0 22 0 22 0 21 0 22 0 22 0 22 0 
21 0 22 0 22 0 22 0 21 0 22 0 22 0 22 0 
21 0 22 0 22 0 22 0 21 0 22 0 22 0 22 0 
21 0 22 0 22 0 22 0 21 0 22 0 22 0 22 0 
21 0 22 0 22 0 21 0 22 0 22 0 22 0 21 0 
22 0 22 0 22 0 21 0 22 0 22 1 22 1 21 1 
22 1 22 2 22 2 21 3 22 5 22 5 22 8 21 9 
22 13 22 15 22 20 21 24 22 29 22 35 22 42 21 50 
22 57 22 65 22 75 21 83 22 92 22 99 22 107 21 112 
22 117 22 119 22 118 21 117 22 111 22 103 22 93 21 80 
22 65 22 47 22 29 21 10 22 -10 22 -29 21 -47 22 -65 
22 -80 22 -93 21 -103 22 -111 22 -117 22 -118 21 -119 22 -117 
22 -112 22 -107 21 -99 22 -92 22 -83 22 -75 21 -65 22 -57 
22 -50 22 -42 21 -35 22 -29 22 -24 22 -20 21 -15 22 -13 
22 -9 22 -8 21 -5 22 -5 22 -3 22 -2 21 -2 22 -1 
22 -1 22 -1 21 -1 22 0 22 0 22 0 21 0 22 0 
22 0 22 0 21 0 22 0 22 0 22 0 21 0 22 0 
22 0 21 0 22 0 22 0 22 0 21 0 22 0 22 0 
22 0 21 0 22 0 22 0 22 0 21 0 22 0 22 0 
22 0 21 0 22 0 22 0 22 0 21 0 22 0 22 0 
22 0 21 0 22 0 22 0 22 0 21 0 22 0 22 0 
22 0 21 -1 22 0 22 0 22 0 21 0 22 0 22 0 
22 0 21 0 22 0 22 0 22 0 21 0 22 0 22 0 
751 2181 201 MP stroke
/c9 { 0.000000 1.000000 0.000000 sr} bdef
c9
1 0 22 0 22 0 22 0 21 0 22 0 22 0 22 0 
21 0 22 0 22 0 22 0 21 0 22 0 22 0 22 0 
21 0 22 0 22 0 22 0 21 0 22 0 22 0 22 0 
21 0 22 0 22 0 22 0 21 0 22 1 22 0 22 0 
21 0 22 1 22 0 22 0 21 1 22 1 22 0 22 1 
21 1 22 1 22 1 22 1 21 2 22 1 22 2 22 2 
21 3 22 2 22 3 21 3 22 4 22 3 22 5 21 4 
22 5 22 6 22 6 21 6 22 7 22 7 22 8 21 9 
22 9 22 9 22 10 21 11 22 11 22 12 22 12 21 13 
22 13 22 14 22 13 21 15 22 14 22 15 22 15 21 15 
22 14 22 15 22 15 21 14 22 14 22 14 22 13 21 13 
22 12 22 11 22 11 21 9 22 9 22 7 22 7 21 5 
22 4 22 3 22 2 21 1 22 -1 22 -2 21 -3 22 -4 
22 -5 22 -7 21 -7 22 -9 22 -9 22 -11 21 -11 22 -12 
22 -13 22 -13 21 -14 22 -14 22 -14 22 -15 21 -15 22 -14 
22 -15 22 -15 21 -15 22 -14 22 -15 22 -13 21 -14 22 -13 
22 -13 22 -12 21 -12 22 -11 22 -11 22 -10 21 -9 22 -9 
22 -9 22 -8 21 -7 22 -7 22 -6 22 -6 21 -6 22 -5 
22 -4 22 -5 21 -3 22 -4 22 -3 22 -3 21 -2 22 -3 
22 -2 21 -2 22 -1 22 -2 22 -1 21 -1 22 -1 22 -1 
22 -1 21 0 22 -1 22 -1 22 0 21 0 22 -1 22 0 
22 0 21 0 22 -1 22 0 22 0 21 0 22 0 22 0 
22 0 21 0 22 0 22 0 22 0 21 0 22 0 22 0 
22 0 21 0 22 0 22 0 22 0 21 0 22 0 22 0 
22 0 21 0 22 0 22 0 22 0 21 0 22 0 22 0 
751 2180 201 MP stroke
/c10 { 1.000000 0.000000 0.000000 sr} bdef
c10
1 0 22 0 22 0 22 0 21 0 22 0 22 0 22 0 
21 0 22 0 22 0 22 0 21 0 22 0 22 0 22 0 
21 0 22 0 22 0 22 0 21 0 22 0 22 0 22 0 
21 0 22 0 22 0 22 0 21 0 22 -1 22 0 22 0 
21 0 22 -1 22 0 22 0 21 -1 22 -1 22 0 22 -1 
21 -1 22 -1 22 -1 22 -1 21 -2 22 -1 22 -2 22 -2 
21 -3 22 -2 22 -3 21 -3 22 -4 22 -3 22 -5 21 -4 
22 -5 22 -5 22 -6 21 -6 22 -7 22 -7 22 -7 21 -8 
22 -7 22 -8 22 -8 21 -7 22 -7 22 -6 22 -5 21 -3 
22 -1 22 2 22 6 21 10 22 14 22 21 22 27 21 34 
22 43 22 51 22 59 21 69 22 78 22 86 22 93 21 100 
22 104 22 108 22 108 21 107 22 103 22 96 22 86 21 74 
22 61 22 44 22 27 21 10 22 -10 22 -27 21 -44 22 -61 
22 -74 22 -86 21 -96 22 -103 22 -107 22 -108 21 -108 22 -104 
22 -100 22 -93 21 -86 22 -78 22 -69 22 -59 21 -51 22 -43 
22 -34 22 -27 21 -21 22 -14 22 -10 22 -6 21 -2 22 1 
22 3 22 5 21 6 22 7 22 7 22 8 21 8 22 7 
22 8 22 7 21 7 22 7 22 6 22 6 21 5 22 5 
22 4 22 5 21 3 22 4 22 3 22 3 21 2 22 3 
22 2 21 2 22 1 22 2 22 1 21 1 22 1 22 1 
22 1 21 0 22 1 22 1 22 0 21 0 22 1 22 0 
22 0 21 0 22 1 22 0 22 0 21 0 22 0 22 0 
22 0 21 0 22 0 22 0 22 0 21 0 22 0 22 0 
22 0 21 0 22 0 22 0 22 0 21 0 22 0 22 0 
22 0 21 0 22 0 22 0 22 0 21 0 22 0 22 0 
751 2181 201 MP stroke
gr

c10
0 sg
 713 2471 mt 
( ) s
5063  247 mt 
( ) s
1 sg
0 516 1753 0 0 -516 3267 781 4 MP
PP
-1753 0 0 516 1753 0 0 -516 3267 781 5 MP stroke
4 w
DO
SO
6 w
0 sg
3267  265 mt 5020  265 L
3267  781 mt 5020  781 L
5020  781 mt 5020  265 L
3267  781 mt 3267  265 L
3267  781 mt 5020  781 L
3267  781 mt 3267  265 L
3267  265 mt 5020  265 L
3267  781 mt 5020  781 L
5020  781 mt 5020  265 L
3267  781 mt 3267  265 L
3730  408 mt 
(Gaussian G1 with ) s
%%IncludeResource: font Symbol
/Symbol /WindowsLatin1Encoding 120 FMSR

4710  408 mt 
(s) s
%%IncludeResource: font Helvetica
/Helvetica /WindowsLatin1Encoding 120 FMSR

4782  408 mt 
( = 1) s
gs 3267 265 1754 517 rc
c8
356 0 3338 365 2 MP stroke
gr

c8
0 sg
3730  571 mt 
(Gaussian G2 with ) s
%%IncludeResource: font Symbol
/Symbol /WindowsLatin1Encoding 120 FMSR

4710  571 mt 
(s) s
%%IncludeResource: font Helvetica
/Helvetica /WindowsLatin1Encoding 120 FMSR

4782  571 mt 
( = 2) s
gs 3267 265 1754 517 rc
c9
356 0 3338 527 2 MP stroke
gr

c9
0 sg
3730  728 mt 
(DoG = G1 - G2) s
gs 3267 265 1754 517 rc
c10
356 0 3338 684 2 MP stroke
gr

c10

end %%Color Dict

eplot
%%EndObject

epage
end

showpage

%%Trailer
%%EOF
