0,0.0040306
0.0050251,0.004051
0.01005,0.0040715
0.015075,0.0040919
0.020101,0.0041124
0.025126,0.0041328
0.030151,0.0041533
0.035176,0.0041737
0.040201,0.0041941
0.045226,0.0042146
0.050251,0.004235
0.055276,0.0042555
0.060302,0.0042759
0.065327,0.0042964
0.070352,0.0043168
0.075377,0.0043372
0.080402,0.0043577
0.085427,0.0043781
0.090452,0.0043986
0.095477,0.004419
0.1005,0.0044395
0.10553,0.0044599
0.11055,0.0044804
0.11558,0.0045008
0.1206,0.0045212
0.12563,0.0045417
0.13065,0.004562
0.13568,0.0045823
0.1407,0.0046025
0.14573,0.0046228
0.15075,0.0046431
0.15578,0.0046633
0.1608,0.0046836
0.16583,0.0047039
0.17085,0.0047242
0.17588,0.0047444
0.1809,0.0047647
0.18593,0.004785
0.19095,0.0048052
0.19598,0.0048255
0.20101,0.0048458
0.20603,0.0048661
0.21106,0.0048863
0.21608,0.0049066
0.22111,0.0049269
0.22613,0.0049471
0.23116,0.0049674
0.23618,0.0049877
0.24121,0.005008
0.24623,0.0050282
0.25126,0.0050485
0.25628,0.0050697
0.26131,0.0050909
0.26633,0.0051122
0.27136,0.0051334
0.27638,0.0051547
0.28141,0.005176
0.28643,0.0051972
0.29146,0.0052185
0.29648,0.0052397
0.30151,0.005261
0.30653,0.0052823
0.31156,0.0053035
0.31658,0.0053248
0.32161,0.0053461
0.32663,0.0053673
0.33166,0.0053886
0.33668,0.0054098
0.34171,0.0054311
0.34673,0.0054524
0.35176,0.0054736
0.35678,0.0054949
0.36181,0.0055161
0.36683,0.0055374
0.37186,0.0055589
0.37688,0.005582
0.38191,0.0056051
0.38693,0.0056282
0.39196,0.0056513
0.39698,0.0056744
0.40201,0.0056975
0.40704,0.0057206
0.41206,0.0057437
0.41709,0.0057668
0.42211,0.0057899
0.42714,0.005813
0.43216,0.0058361
0.43719,0.0058592
0.44221,0.0058823
0.44724,0.0059054
0.45226,0.0059284
0.45729,0.0059515
0.46231,0.0059746
0.46734,0.0059977
0.47236,0.0060208
0.47739,0.0060439
0.48241,0.0060678
0.48744,0.0060939
0.49246,0.0061199
0.49749,0.0061459
0.50251,0.0061719
0.50754,0.0061979
0.51256,0.006224
0.51759,0.00625
0.52261,0.006276
0.52764,0.006302
0.53266,0.0063281
0.53769,0.0063541
0.54271,0.0063801
0.54774,0.0064061
0.55276,0.0064322
0.55779,0.0064582
0.56281,0.0064842
0.56784,0.0065102
0.57286,0.0065362
0.57789,0.0065623
0.58291,0.0065918
0.58794,0.0066218
0.59296,0.0066518
0.59799,0.0066819
0.60302,0.0067119
0.60804,0.0067419
0.61307,0.006772
0.61809,0.006802
0.62312,0.006832
0.62814,0.006862
0.63317,0.0068921
0.63819,0.0069221
0.64322,0.0069521
0.64824,0.0069822
0.65327,0.0070122
0.65829,0.0070422
0.66332,0.0070725
0.66834,0.0071085
0.67337,0.0071444
0.67839,0.0071803
0.68342,0.0072162
0.68844,0.0072521
0.69347,0.0072881
0.69849,0.007324
0.70352,0.0073599
0.70854,0.0073958
0.71357,0.0074317
0.71859,0.0074677
0.72362,0.0075036
0.72864,0.0075395
0.73367,0.0075754
0.73869,0.00762
0.74372,0.0076646
0.74874,0.0077092
0.75377,0.0077538
0.75879,0.0077984
0.76382,0.007843
0.76884,0.0078876
0.77387,0.0079323
0.77889,0.0079769
0.78392,0.0080215
0.78894,0.0080661
0.79397,0.0081176
0.79899,0.0081724
0.80402,0.0082272
0.80905,0.008282
0.81407,0.0083368
0.8191,0.0083917
0.82412,0.0084465
0.82915,0.0085013
0.83417,0.0085561
0.8392,0.0086168
0.84422,0.0086844
0.84925,0.008752
0.85427,0.0088197
0.8593,0.0088873
0.86432,0.0089549
0.86935,0.0090225
0.87437,0.0090902
0.8794,0.0091769
0.88442,0.0092639
0.88945,0.0093509
0.89447,0.0094379
0.8995,0.0095249
0.90452,0.0096164
0.90955,0.0097276
0.91457,0.0098389
0.9196,0.0099501
0.92462,0.010061
0.92965,0.010194
0.93467,0.010337
0.9397,0.010481
0.94472,0.01063
0.94975,0.010814
0.95477,0.010998
0.9598,0.011204
0.96482,0.011449
0.96985,0.011716
0.97487,0.012036
0.9799,0.012424
0.98492,0.012909
0.98995,0.013583
0.99497,0.014737
1,0.021027
